%!PS-Adobe-3.0 EPSF-3.0
%%Creator: (MATLAB, The Mathworks, Inc. Version 9.6.0.1072779 \(R2019a\). Operating System: Windows 7)
%%Title: ./Case_E_Er_TP.eps
%%CreationDate: 2020-09-18T11:03:45
%%Pages: (atend)
%%BoundingBox:   100    38  1067   575
%%LanguageLevel: 3
%%EndComments
%%BeginProlog
%%BeginResource: procset (Apache XML Graphics Std ProcSet) 1.2 0
%%Version: 1.2 0
%%Copyright: (Copyright 2001-2003,2010 The Apache Software Foundation. License terms: http://www.apache.org/licenses/LICENSE-2.0)
/bd{bind def}bind def
/ld{load def}bd
/GR/grestore ld
/GS/gsave ld
/RM/rmoveto ld
/C/curveto ld
/t/show ld
/L/lineto ld
/ML/setmiterlimit ld
/CT/concat ld
/f/fill ld
/N/newpath ld
/S/stroke ld
/CC/setcmykcolor ld
/A/ashow ld
/cp/closepath ld
/RC/setrgbcolor ld
/LJ/setlinejoin ld
/GC/setgray ld
/LW/setlinewidth ld
/M/moveto ld
/re {4 2 roll M
1 index 0 rlineto
0 exch rlineto
neg 0 rlineto
cp } bd
/_ctm matrix def
/_tm matrix def
/BT { _ctm currentmatrix pop matrix _tm copy pop 0 0 moveto } bd
/ET { _ctm setmatrix } bd
/iTm { _ctm setmatrix _tm concat } bd
/Tm { _tm astore pop iTm 0 0 moveto } bd
/ux 0.0 def
/uy 0.0 def
/F {
  /Tp exch def
  /Tf exch def
  Tf findfont Tp scalefont setfont
  /cf Tf def  /cs Tp def
} bd
/ULS {currentpoint /uy exch def /ux exch def} bd
/ULE {
  /Tcx currentpoint pop def
  gsave
  newpath
  cf findfont cs scalefont dup
  /FontMatrix get 0 get /Ts exch def /FontInfo get dup
  /UnderlinePosition get Ts mul /To exch def
  /UnderlineThickness get Ts mul /Tt exch def
  ux uy To add moveto  Tcx uy To add lineto
  Tt setlinewidth stroke
  grestore
} bd
/OLE {
  /Tcx currentpoint pop def
  gsave
  newpath
  cf findfont cs scalefont dup
  /FontMatrix get 0 get /Ts exch def /FontInfo get dup
  /UnderlinePosition get Ts mul /To exch def
  /UnderlineThickness get Ts mul /Tt exch def
  ux uy To add cs add moveto Tcx uy To add cs add lineto
  Tt setlinewidth stroke
  grestore
} bd
/SOE {
  /Tcx currentpoint pop def
  gsave
  newpath
  cf findfont cs scalefont dup
  /FontMatrix get 0 get /Ts exch def /FontInfo get dup
  /UnderlinePosition get Ts mul /To exch def
  /UnderlineThickness get Ts mul /Tt exch def
  ux uy To add cs 10 mul 26 idiv add moveto Tcx uy To add cs 10 mul 26 idiv add lineto
  Tt setlinewidth stroke
  grestore
} bd
/QT {
/Y22 exch store
/X22 exch store
/Y21 exch store
/X21 exch store
currentpoint
/Y21 load 2 mul add 3 div exch
/X21 load 2 mul add 3 div exch
/X21 load 2 mul /X22 load add 3 div
/Y21 load 2 mul /Y22 load add 3 div
/X22 load /Y22 load curveto
} bd
/SSPD {
dup length /d exch dict def
{
/v exch def
/k exch def
currentpagedevice k known {
/cpdv currentpagedevice k get def
v cpdv ne {
/upd false def
/nullv v type /nulltype eq def
/nullcpdv cpdv type /nulltype eq def
nullv nullcpdv or
{
/upd true def
} {
/sametype v type cpdv type eq def
sametype {
v type /arraytype eq {
/vlen v length def
/cpdvlen cpdv length def
vlen cpdvlen eq {
0 1 vlen 1 sub {
/i exch def
/obj v i get def
/cpdobj cpdv i get def
obj cpdobj ne {
/upd true def
exit
} if
} for
} {
/upd true def
} ifelse
} {
v type /dicttype eq {
v {
/dv exch def
/dk exch def
/cpddv cpdv dk get def
dv cpddv ne {
/upd true def
exit
} if
} forall
} {
/upd true def
} ifelse
} ifelse
} if
} ifelse
upd true eq {
d k v put
} if
} if
} if
} forall
d length 0 gt {
d setpagedevice
} if
} bd
/RE { % /NewFontName [NewEncodingArray] /FontName RE -
  findfont dup length dict begin
  {
    1 index /FID ne
    {def} {pop pop} ifelse
  } forall
  /Encoding exch def
  /FontName 1 index def
  currentdict definefont pop
  end
} bind def
%%EndResource
%%BeginResource: procset (Apache XML Graphics EPS ProcSet) 1.0 0
%%Version: 1.0 0
%%Copyright: (Copyright 2002-2003 The Apache Software Foundation. License terms: http://www.apache.org/licenses/LICENSE-2.0)
/BeginEPSF { %def
/b4_Inc_state save def         % Save state for cleanup
/dict_count countdictstack def % Count objects on dict stack
/op_count count 1 sub def      % Count objects on operand stack
userdict begin                 % Push userdict on dict stack
/showpage { } def              % Redefine showpage, { } = null proc
0 setgray 0 setlinecap         % Prepare graphics state
1 setlinewidth 0 setlinejoin
10 setmiterlimit [ ] 0 setdash newpath
/languagelevel where           % If level not equal to 1 then
{pop languagelevel             % set strokeadjust and
1 ne                           % overprint to their defaults.
{false setstrokeadjust false setoverprint
} if
} if
} bd
/EndEPSF { %def
count op_count sub {pop} repeat            % Clean up stacks
countdictstack dict_count sub {end} repeat
b4_Inc_state restore
} bd
%%EndResource
%FOPBeginFontDict
%%IncludeResource: font Courier-Oblique
%%IncludeResource: font Courier-BoldOblique
%%IncludeResource: font Courier-Bold
%%IncludeResource: font ZapfDingbats
%%IncludeResource: font Symbol
%%IncludeResource: font Helvetica
%%IncludeResource: font Helvetica-Oblique
%%IncludeResource: font Helvetica-Bold
%%IncludeResource: font Helvetica-BoldOblique
%%IncludeResource: font Times-Roman
%%IncludeResource: font Times-Italic
%%IncludeResource: font Times-Bold
%%IncludeResource: font Times-BoldItalic
%%IncludeResource: font Courier
%FOPEndFontDict
%%BeginResource: encoding WinAnsiEncoding
/WinAnsiEncoding [
/.notdef /.notdef /.notdef /.notdef /.notdef
/.notdef /.notdef /.notdef /.notdef /.notdef
/.notdef /.notdef /.notdef /.notdef /.notdef
/.notdef /.notdef /.notdef /.notdef /.notdef
/.notdef /.notdef /.notdef /.notdef /.notdef
/.notdef /.notdef /.notdef /.notdef /.notdef
/.notdef /.notdef /space /exclam /quotedbl
/numbersign /dollar /percent /ampersand /quotesingle
/parenleft /parenright /asterisk /plus /comma
/hyphen /period /slash /zero /one
/two /three /four /five /six
/seven /eight /nine /colon /semicolon
/less /equal /greater /question /at
/A /B /C /D /E
/F /G /H /I /J
/K /L /M /N /O
/P /Q /R /S /T
/U /V /W /X /Y
/Z /bracketleft /backslash /bracketright /asciicircum
/underscore /quoteleft /a /b /c
/d /e /f /g /h
/i /j /k /l /m
/n /o /p /q /r
/s /t /u /v /w
/x /y /z /braceleft /bar
/braceright /asciitilde /bullet /Euro /bullet
/quotesinglbase /florin /quotedblbase /ellipsis /dagger
/daggerdbl /circumflex /perthousand /Scaron /guilsinglleft
/OE /bullet /Zcaron /bullet /bullet
/quoteleft /quoteright /quotedblleft /quotedblright /bullet
/endash /emdash /asciitilde /trademark /scaron
/guilsinglright /oe /bullet /zcaron /Ydieresis
/space /exclamdown /cent /sterling /currency
/yen /brokenbar /section /dieresis /copyright
/ordfeminine /guillemotleft /logicalnot /sfthyphen /registered
/macron /degree /plusminus /twosuperior /threesuperior
/acute /mu /paragraph /middot /cedilla
/onesuperior /ordmasculine /guillemotright /onequarter /onehalf
/threequarters /questiondown /Agrave /Aacute /Acircumflex
/Atilde /Adieresis /Aring /AE /Ccedilla
/Egrave /Eacute /Ecircumflex /Edieresis /Igrave
/Iacute /Icircumflex /Idieresis /Eth /Ntilde
/Ograve /Oacute /Ocircumflex /Otilde /Odieresis
/multiply /Oslash /Ugrave /Uacute /Ucircumflex
/Udieresis /Yacute /Thorn /germandbls /agrave
/aacute /acircumflex /atilde /adieresis /aring
/ae /ccedilla /egrave /eacute /ecircumflex
/edieresis /igrave /iacute /icircumflex /idieresis
/eth /ntilde /ograve /oacute /ocircumflex
/otilde /odieresis /divide /oslash /ugrave
/uacute /ucircumflex /udieresis /yacute /thorn
/ydieresis
] def
%%EndResource
%FOPBeginFontReencode
/Courier-Oblique findfont
dup length dict begin
  {1 index /FID ne {def} {pop pop} ifelse} forall
  /Encoding WinAnsiEncoding def
  currentdict
end
/Courier-Oblique exch definefont pop
/Courier-BoldOblique findfont
dup length dict begin
  {1 index /FID ne {def} {pop pop} ifelse} forall
  /Encoding WinAnsiEncoding def
  currentdict
end
/Courier-BoldOblique exch definefont pop
/Courier-Bold findfont
dup length dict begin
  {1 index /FID ne {def} {pop pop} ifelse} forall
  /Encoding WinAnsiEncoding def
  currentdict
end
/Courier-Bold exch definefont pop
/Helvetica findfont
dup length dict begin
  {1 index /FID ne {def} {pop pop} ifelse} forall
  /Encoding WinAnsiEncoding def
  currentdict
end
/Helvetica exch definefont pop
/Helvetica-Oblique findfont
dup length dict begin
  {1 index /FID ne {def} {pop pop} ifelse} forall
  /Encoding WinAnsiEncoding def
  currentdict
end
/Helvetica-Oblique exch definefont pop
/Helvetica-Bold findfont
dup length dict begin
  {1 index /FID ne {def} {pop pop} ifelse} forall
  /Encoding WinAnsiEncoding def
  currentdict
end
/Helvetica-Bold exch definefont pop
/Helvetica-BoldOblique findfont
dup length dict begin
  {1 index /FID ne {def} {pop pop} ifelse} forall
  /Encoding WinAnsiEncoding def
  currentdict
end
/Helvetica-BoldOblique exch definefont pop
/Times-Roman findfont
dup length dict begin
  {1 index /FID ne {def} {pop pop} ifelse} forall
  /Encoding WinAnsiEncoding def
  currentdict
end
/Times-Roman exch definefont pop
/Times-Italic findfont
dup length dict begin
  {1 index /FID ne {def} {pop pop} ifelse} forall
  /Encoding WinAnsiEncoding def
  currentdict
end
/Times-Italic exch definefont pop
/Times-Bold findfont
dup length dict begin
  {1 index /FID ne {def} {pop pop} ifelse} forall
  /Encoding WinAnsiEncoding def
  currentdict
end
/Times-Bold exch definefont pop
/Times-BoldItalic findfont
dup length dict begin
  {1 index /FID ne {def} {pop pop} ifelse} forall
  /Encoding WinAnsiEncoding def
  currentdict
end
/Times-BoldItalic exch definefont pop
/Courier findfont
dup length dict begin
  {1 index /FID ne {def} {pop pop} ifelse} forall
  /Encoding WinAnsiEncoding def
  currentdict
end
/Courier exch definefont pop
%FOPEndFontReencode
%%EndProlog
%%Page: 1 1
%%PageBoundingBox: 0 0 1147 594
%%BeginPageSetup
[1 0 0 -1 0 594] CT
%%EndPageSetup
GS
[0.6 0 0 0.6 0 0] CT
1 GC
N
0 0 1912 990 re
f
GR
GS
[0.6 0 0 0.6 0 0] CT
1 GC
N
0 0 1912 990 re
f
GR
GS
[0.6 0 0 0.6 0 0] CT
1 GC
N
249 881 M
1730 881 L
1730 74 L
249 74 L
cp
f
GR
GS
[0.6 0 0 0.6 0 0] CT
0.149 GC
2 setlinecap
1 LJ
0.833 LW
N
249 881 M
1730 881 L
S
GR
GS
[0.6 0 0 0.6 0 0] CT
0.149 GC
2 setlinecap
1 LJ
0.833 LW
N
249 74 M
1730 74 L
S
GR
GS
[0.6 0 0 0.6 0 0] CT
0.149 GC
2 setlinecap
1 LJ
0.833 LW
N
249 881 M
249 866.19 L
S
GR
GS
[0.6 0 0 0.6 0 0] CT
0.149 GC
2 setlinecap
1 LJ
0.833 LW
N
495.867 881 M
495.867 866.19 L
S
GR
GS
[0.6 0 0 0.6 0 0] CT
0.149 GC
2 setlinecap
1 LJ
0.833 LW
N
742.667 881 M
742.667 866.19 L
S
GR
GS
[0.6 0 0 0.6 0 0] CT
0.149 GC
2 setlinecap
1 LJ
0.833 LW
N
989.534 881 M
989.534 866.19 L
S
GR
GS
[0.6 0 0 0.6 0 0] CT
0.149 GC
2 setlinecap
1 LJ
0.833 LW
N
1236.333 881 M
1236.333 866.19 L
S
GR
GS
[0.6 0 0 0.6 0 0] CT
0.149 GC
2 setlinecap
1 LJ
0.833 LW
N
1483.2 881 M
1483.2 866.19 L
S
GR
GS
[0.6 0 0 0.6 0 0] CT
0.149 GC
2 setlinecap
1 LJ
0.833 LW
N
1730 881 M
1730 866.19 L
S
GR
GS
[0.6 0 0 0.6 0 0] CT
0.149 GC
2 setlinecap
1 LJ
0.833 LW
N
249 74 M
249 88.81 L
S
GR
GS
[0.6 0 0 0.6 0 0] CT
0.149 GC
2 setlinecap
1 LJ
0.833 LW
N
495.867 74 M
495.867 88.81 L
S
GR
GS
[0.6 0 0 0.6 0 0] CT
0.149 GC
2 setlinecap
1 LJ
0.833 LW
N
742.667 74 M
742.667 88.81 L
S
GR
GS
[0.6 0 0 0.6 0 0] CT
0.149 GC
2 setlinecap
1 LJ
0.833 LW
N
989.534 74 M
989.534 88.81 L
S
GR
GS
[0.6 0 0 0.6 0 0] CT
0.149 GC
2 setlinecap
1 LJ
0.833 LW
N
1236.333 74 M
1236.333 88.81 L
S
GR
GS
[0.6 0 0 0.6 0 0] CT
0.149 GC
2 setlinecap
1 LJ
0.833 LW
N
1483.2 74 M
1483.2 88.81 L
S
GR
GS
[0.6 0 0 0.6 0 0] CT
0.149 GC
2 setlinecap
1 LJ
0.833 LW
N
1730 74 M
1730 88.81 L
S
GR
GS
[0.6 0 0 0.6 149.39999 534.6] CT
0.149 GC
/Helvetica 33.333 F
GS
[1 0 0 1 0 0] CT
-51 34 moveto 
1 -1 scale
(Jan-60) t 
GR
GR
GS
[0.6 0 0 0.6 297.52026 534.6] CT
0.149 GC
/Helvetica 33.333 F
GS
[1 0 0 1 0 0] CT
-51 34 moveto 
1 -1 scale
(Jan-70) t 
GR
GR
GS
[0.6 0 0 0.6 445.59999 534.6] CT
0.149 GC
/Helvetica 33.333 F
GS
[1 0 0 1 0 0] CT
-51 34 moveto 
1 -1 scale
(Jan-80) t 
GR
GR
GS
[0.6 0 0 0.6 593.72026 534.6] CT
0.149 GC
/Helvetica 33.333 F
GS
[1 0 0 1 0 0] CT
-51 34 moveto 
1 -1 scale
(Jan-90) t 
GR
GR
GS
[0.6 0 0 0.6 741.79999 534.6] CT
0.149 GC
/Helvetica 33.333 F
GS
[1 0 0 1 0 0] CT
-51 34 moveto 
1 -1 scale
(Jan-00) t 
GR
GR
GS
[0.6 0 0 0.6 889.92023 534.6] CT
0.149 GC
/Helvetica 33.333 F
GS
[1 0 0 1 0 0] CT
-51 34 moveto 
1 -1 scale
(Jan-10) t 
GR
GR
GS
[0.6 0 0 0.6 1037.99996 534.6] CT
0.149 GC
/Helvetica 33.333 F
GS
[1 0 0 1 0 0] CT
-51 34 moveto 
1 -1 scale
(Jan-20) t 
GR
GR
GS
[0.6 0 0 0.6 0 0] CT
0.149 GC
2 setlinecap
1 LJ
0.833 LW
N
249 881 M
249 74 L
S
GR
GS
[0.6 0 0 0.6 0 0] CT
0.149 GC
2 setlinecap
1 LJ
0.833 LW
N
1730 881 M
1730 74 L
S
GR
GS
[0.6 0 0 0.6 0 0] CT
0.149 GC
2 setlinecap
1 LJ
0.833 LW
N
249 881 M
263.808 881 L
S
GR
GS
[0.6 0 0 0.6 0 0] CT
0.149 GC
2 setlinecap
1 LJ
0.833 LW
N
249 765.714 M
263.808 765.714 L
S
GR
GS
[0.6 0 0 0.6 0 0] CT
0.149 GC
2 setlinecap
1 LJ
0.833 LW
N
249 650.429 M
263.808 650.429 L
S
GR
GS
[0.6 0 0 0.6 0 0] CT
0.149 GC
2 setlinecap
1 LJ
0.833 LW
N
249 535.143 M
263.808 535.143 L
S
GR
GS
[0.6 0 0 0.6 0 0] CT
0.149 GC
2 setlinecap
1 LJ
0.833 LW
N
249 419.857 M
263.808 419.857 L
S
GR
GS
[0.6 0 0 0.6 0 0] CT
0.149 GC
2 setlinecap
1 LJ
0.833 LW
N
249 304.571 M
263.808 304.571 L
S
GR
GS
[0.6 0 0 0.6 0 0] CT
0.149 GC
2 setlinecap
1 LJ
0.833 LW
N
249 189.286 M
263.808 189.286 L
S
GR
GS
[0.6 0 0 0.6 0 0] CT
0.149 GC
2 setlinecap
1 LJ
0.833 LW
N
249 74 M
263.808 74 L
S
GR
GS
[0.6 0 0 0.6 0 0] CT
0.149 GC
2 setlinecap
1 LJ
0.833 LW
N
1730 881 M
1715.192 881 L
S
GR
GS
[0.6 0 0 0.6 0 0] CT
0.149 GC
2 setlinecap
1 LJ
0.833 LW
N
1730 765.714 M
1715.192 765.714 L
S
GR
GS
[0.6 0 0 0.6 0 0] CT
0.149 GC
2 setlinecap
1 LJ
0.833 LW
N
1730 650.429 M
1715.192 650.429 L
S
GR
GS
[0.6 0 0 0.6 0 0] CT
0.149 GC
2 setlinecap
1 LJ
0.833 LW
N
1730 535.143 M
1715.192 535.143 L
S
GR
GS
[0.6 0 0 0.6 0 0] CT
0.149 GC
2 setlinecap
1 LJ
0.833 LW
N
1730 419.857 M
1715.192 419.857 L
S
GR
GS
[0.6 0 0 0.6 0 0] CT
0.149 GC
2 setlinecap
1 LJ
0.833 LW
N
1730 304.571 M
1715.192 304.571 L
S
GR
GS
[0.6 0 0 0.6 0 0] CT
0.149 GC
2 setlinecap
1 LJ
0.833 LW
N
1730 189.286 M
1715.192 189.286 L
S
GR
GS
[0.6 0 0 0.6 0 0] CT
0.149 GC
2 setlinecap
1 LJ
0.833 LW
N
1730 74 M
1715.192 74 L
S
GR
GS
[0.6 0 0 0.6 143.39895 528.6] CT
0.149 GC
/Helvetica 33.333 F
GS
[1 0 0 1 0 0] CT
-30 13 moveto 
1 -1 scale
(-1) t 
GR
GR
GS
[0.6 0 0 0.6 143.39895 459.42858] CT
0.149 GC
/Helvetica 33.333 F
GS
[1 0 0 1 0 0] CT
-19 13 moveto 
1 -1 scale
(0) t 
GR
GR
GS
[0.6 0 0 0.6 143.39895 390.25715] CT
0.149 GC
/Helvetica 33.333 F
GS
[1 0 0 1 0 0] CT
-19 13 moveto 
1 -1 scale
(1) t 
GR
GR
GS
[0.6 0 0 0.6 143.39895 321.08573] CT
0.149 GC
/Helvetica 33.333 F
GS
[1 0 0 1 0 0] CT
-19 13 moveto 
1 -1 scale
(2) t 
GR
GR
GS
[0.6 0 0 0.6 143.39895 251.91429] CT
0.149 GC
/Helvetica 33.333 F
GS
[1 0 0 1 0 0] CT
-19 13 moveto 
1 -1 scale
(3) t 
GR
GR
GS
[0.6 0 0 0.6 143.39895 182.74286] CT
0.149 GC
/Helvetica 33.333 F
GS
[1 0 0 1 0 0] CT
-19 13 moveto 
1 -1 scale
(4) t 
GR
GR
GS
[0.6 0 0 0.6 143.39895 113.57143] CT
0.149 GC
/Helvetica 33.333 F
GS
[1 0 0 1 0 0] CT
-19 13 moveto 
1 -1 scale
(5) t 
GR
GR
GS
[0.6 0 0 0.6 143.39895 44.4] CT
0.149 GC
/Helvetica 33.333 F
GS
[1 0 0 1 0 0] CT
-19 13 moveto 
1 -1 scale
(6) t 
GR
GR
GS
[0 -0.6 0.6 0 122.40038 286.49976] CT
0.149 GC
/Helvetica 36.667 F
GS
[1 0 0 1 0 0] CT
-37 -9 moveto 
1 -1 scale
(\(pct\)) t 
GR
GR
GS
[0.6 0 0 0.6 593.69997 41.1] CT
/Helvetica-Bold 36.667 F
GS
[1 0 0 1 0 0] CT
-236.5 -9 moveto 
1 -1 scale
(Term premium comparison) t 
GR
GR
GS
[0.6 0 0 0.6 0 0] CT
0 0.447 0.741 RC
1 LJ
3.333 LW
N
285.898 766.838 M
287.993 741.513 L
290.088 749.846 L
292.048 767.991 L
294.211 756.091 L
296.238 765.99 L
298.198 782.995 L
300.428 772.431 L
302.32 774.104 L
304.347 759.719 L
306.442 785.796 L
308.537 752.742 L
310.497 755.775 L
312.66 757.839 L
314.755 737.696 L
316.647 731.791 L
318.877 737.949 L
320.904 747.841 L
322.999 758.465 L
325.094 756.111 L
326.986 746.764 L
328.946 745.511 L
331.109 752.311 L
333.204 755.93 L
335.096 749.95 L
337.326 777.101 L
339.354 775.86 L
341.448 769.414 L
343.543 768.051 L
345.503 781.999 L
347.666 784.533 L
349.761 776.644 L
351.653 767.46 L
353.815 775.589 L
355.843 774.693 L
357.735 784.911 L
359.965 785 L
362.06 755.144 L
364.155 766.328 L
366.182 784.362 L
368.21 785.089 L
370.305 797.593 L
372.4 782.16 L
374.36 771.035 L
376.252 780.418 L
378.482 784.343 L
380.509 787.17 L
382.402 784.56 L
384.632 777.138 L
386.659 780.407 L
388.822 784.397 L
390.849 778.394 L
392.809 772.838 L
394.904 773.33 L
397.066 769.83 L
399.161 761.845 L
401.053 722.173 L
403.148 757.485 L
405.108 763.329 L
407.271 778.525 L
409.298 757.635 L
411.258 740.596 L
413.488 706.06 L
415.515 739.627 L
417.61 756.032 L
419.638 745.608 L
421.665 772.253 L
423.828 768.594 L
425.72 746.734 L
427.815 760.433 L
429.707 723.115 L
431.937 734.006 L
433.965 729.852 L
436.059 759.347 L
438.154 726.876 L
440.114 737.594 L
442.277 703.549 L
444.304 697.89 L
446.264 707.488 L
448.494 712.19 L
450.454 695.104 L
452.414 692.926 L
454.576 689.714 L
456.671 701.747 L
458.563 673.179 L
460.793 650.577 L
462.821 692.512 L
464.916 693.19 L
467.011 682.436 L
468.971 682.043 L
471.133 672.203 L
473.228 685.309 L
475.12 722.726 L
477.013 675.914 L
479.243 688.29 L
481.202 706.91 L
483.365 746.692 L
485.46 791.32 L
487.42 740.535 L
489.582 688.072 L
491.677 751.319 L
493.569 690.935 L
495.8 741.681 L
497.827 658.318 L
499.719 702.013 L
501.882 650.373 L
503.909 611.284 L
505.869 654.275 L
508.031 624.824 L
510.126 623.318 L
512.221 606.68 L
514.249 596.87 L
516.276 622.687 L
518.371 569.466 L
520.466 630.231 L
522.426 526.669 L
524.318 527.73 L
526.548 578.424 L
528.576 603.368 L
530.468 590.928 L
532.698 629.653 L
534.725 610.568 L
536.888 636.961 L
538.915 648.262 L
540.875 619.612 L
543.037 608.839 L
545.132 601.753 L
547.227 586.882 L
549.187 582.318 L
551.215 645.129 L
553.174 611.444 L
555.404 602.347 L
557.432 645.572 L
559.527 634.476 L
561.622 631.178 L
563.582 642.393 L
565.744 653.125 L
567.771 648.632 L
569.731 660.91 L
571.961 677.553 L
573.854 690.236 L
575.881 704.03 L
577.976 688.716 L
580.071 718.979 L
582.031 743.793 L
584.193 717.176 L
586.288 713.516 L
588.18 678.739 L
590.411 681.411 L
592.438 699.249 L
594.533 669.492 L
596.628 638.48 L
598.52 646.963 L
600.48 665.975 L
602.642 670.631 L
604.737 656.466 L
606.63 668.57 L
608.86 688.485 L
610.887 667.076 L
612.982 628.46 L
615.077 648.827 L
617.037 644.435 L
619.199 636.266 L
621.294 578.704 L
623.187 552.698 L
625.281 563.617 L
627.309 549.613 L
629.336 533.725 L
631.431 575.355 L
633.526 603.255 L
635.486 585.874 L
637.648 574.655 L
639.743 534.714 L
641.636 532.899 L
643.866 531.967 L
645.893 498.669 L
647.785 550.949 L
650.015 546.427 L
652.043 544.152 L
653.935 568.67 L
656.165 548.099 L
658.193 528.892 L
660.355 524.355 L
662.383 517.729 L
664.342 514.828 L
666.505 505.996 L
668.6 541.814 L
670.695 544.188 L
672.587 523.959 L
674.682 512.116 L
676.642 516.012 L
678.804 525.648 L
680.832 535.127 L
682.791 556.133 L
685.022 576.757 L
687.049 586.98 L
689.144 595.81 L
691.171 590.228 L
693.199 563.689 L
695.361 561.262 L
697.253 558.682 L
699.348 563.85 L
701.241 571.644 L
703.471 579.359 L
705.498 575.1 L
707.593 582.695 L
709.688 596.632 L
711.648 605.031 L
713.81 613.549 L
715.838 644.58 L
717.797 650.894 L
720.028 645.215 L
721.92 619.594 L
723.947 612.016 L
726.042 600.39 L
728.137 604.298 L
730.097 591.291 L
732.259 594.316 L
734.354 608.681 L
736.247 611.614 L
738.477 606.002 L
740.504 560.147 L
742.599 568.622 L
744.694 490.682 L
746.654 571.286 L
748.749 595.201 L
750.776 432.741 L
752.804 384.629 L
754.898 427.99 L
756.993 395.977 L
758.953 467.572 L
761.116 444.031 L
763.211 431.628 L
765.103 488.881 L
767.333 423.232 L
769.36 424.87 L
771.253 370.625 L
773.415 320.095 L
775.443 368.07 L
777.402 443.401 L
779.565 392.963 L
781.66 416.795 L
783.755 369.109 L
785.782 317.163 L
787.81 256.76 L
789.905 308.442 L
792 303.155 L
793.959 306.45 L
795.852 344.685 L
798.082 350.784 L
800.109 367.865 L
802.001 327.813 L
804.231 349.001 L
806.259 310.843 L
808.421 346.471 L
810.449 369.82 L
812.409 396.13 L
814.571 353.131 L
816.666 363.33 L
818.761 312.809 L
820.653 366.293 L
822.748 369.584 L
824.708 371.379 L
826.87 353.583 L
828.898 358.165 L
830.858 313.755 L
833.088 309.056 L
835.115 318.203 L
837.21 284.764 L
839.237 309.705 L
841.265 301.747 L
843.427 298.893 L
845.387 284.645 L
847.415 273.782 L
849.51 246.828 L
851.604 215.078 L
853.564 243.897 L
855.727 315.856 L
857.822 336.405 L
859.714 343.47 L
861.944 353.815 L
863.971 307.845 L
866.066 271.561 L
868.161 313.616 L
870.054 268.43 L
872.013 283.644 L
874.176 267.882 L
876.271 338.804 L
878.163 311.332 L
880.393 295.307 L
882.421 327.69 L
884.516 318.324 L
886.611 341.868 L
888.57 369.209 L
890.733 426.302 L
892.828 408.4 L
894.72 538.202 L
896.815 581.451 L
898.842 566.854 L
900.87 505.807 L
902.965 542.419 L
905.06 506.731 L
907.019 511.133 L
909.182 470.854 L
911.277 481.607 L
913.169 500.031 L
915.399 518.155 L
917.427 519.893 L
919.319 536.708 L
921.481 517.696 L
923.509 490.485 L
925.469 491.022 L
927.631 470.341 L
929.726 440.427 L
931.821 432.044 L
933.848 405.488 L
935.876 427.685 L
937.971 417.681 L
940.066 439.017 L
942.026 455.878 L
944.12 464.611 L
946.215 428.111 L
948.175 415.138 L
950.338 427.761 L
952.365 464.883 L
954.325 444.758 L
956.555 473.442 L
958.582 503.73 L
960.677 514.714 L
962.705 521.123 L
964.732 545.407 L
966.895 564.251 L
968.787 558.106 L
970.882 589.363 L
972.774 565.212 L
975.004 585.227 L
977.032 584.075 L
979.127 581.949 L
981.222 594.213 L
983.181 590.495 L
985.344 589.231 L
987.371 592.541 L
989.331 590.648 L
991.561 561.365 L
993.453 554.232 L
995.481 560.93 L
997.576 537.271 L
999.671 549.092 L
1001.63 551.434 L
1003.793 534.197 L
1005.888 472.713 L
1007.78 467.948 L
1010.01 475.003 L
1012.038 511.988 L
1014.133 491.27 L
1016.228 488.171 L
1018.12 483.674 L
1020.012 479.127 L
1022.242 463.932 L
1024.337 451.038 L
1026.229 437.243 L
1028.459 440.278 L
1030.487 433.595 L
1032.582 458.055 L
1034.677 423.605 L
1036.637 398.461 L
1038.799 436.371 L
1040.894 386.904 L
1042.786 400.961 L
1044.949 412.904 L
1046.976 378.316 L
1048.936 391.411 L
1051.099 374.308 L
1053.193 397.523 L
1055.288 375.042 L
1057.316 372.825 L
1059.343 388.329 L
1061.438 409.492 L
1063.466 408.841 L
1065.493 424.41 L
1067.385 446.878 L
1069.615 445.376 L
1071.575 441.637 L
1073.535 479.498 L
1075.765 518.211 L
1077.792 527.701 L
1079.955 553.358 L
1081.982 565.599 L
1083.942 568.07 L
1086.105 535.775 L
1088.2 536.656 L
1090.295 554.692 L
1092.187 526.114 L
1094.282 493.82 L
1096.241 512.264 L
1098.404 521.42 L
1100.431 502.07 L
1102.391 528.427 L
1104.621 531.91 L
1106.649 513.313 L
1108.744 511.061 L
1110.771 564.19 L
1112.798 598.786 L
1114.961 588.495 L
1116.853 588.582 L
1118.948 591.071 L
1120.84 599.968 L
1123.07 636.577 L
1125.098 646.512 L
1127.193 618.356 L
1129.288 637.096 L
1131.248 658.217 L
1133.41 661.476 L
1135.438 669.309 L
1137.397 680.475 L
1139.627 652.243 L
1141.587 619.424 L
1143.547 618.678 L
1145.709 602.284 L
1147.804 597.402 L
1149.697 611.564 L
1151.927 609.848 L
1153.954 594.474 L
1156.049 605.942 L
1158.144 623.894 L
1160.104 655.528 L
1162.266 631.783 L
1164.361 621.403 L
1166.254 625.517 L
1168.349 605.971 L
1170.376 619.003 L
1172.403 621.828 L
1174.498 631.117 L
1176.593 668.461 L
1178.553 642.074 L
1180.716 658.15 L
1182.811 683.901 L
1184.703 703.576 L
1186.933 707.75 L
1188.96 702.778 L
1190.852 705.282 L
1193.015 705.906 L
1195.042 698.501 L
1197.002 710.965 L
1199.165 729.271 L
1201.26 722.894 L
1203.355 738.899 L
1205.382 757.053 L
1207.409 719.61 L
1209.504 738.737 L
1211.599 728.715 L
1213.559 736.072 L
1215.451 695.474 L
1217.681 678.733 L
1219.709 682.201 L
1221.533 668.613 L
1223.831 651.908 L
1225.859 643.684 L
1228.021 638.729 L
1230.048 636.429 L
1232.008 642.776 L
1234.171 642.809 L
1236.266 627.029 L
1238.361 660.133 L
1240.321 671.651 L
1242.416 723.015 L
1244.308 716.941 L
1246.538 715.767 L
1248.565 717.218 L
1250.66 721.203 L
1252.755 734.663 L
1254.715 706.299 L
1256.877 718.407 L
1258.905 734.877 L
1260.865 727.845 L
1263.095 678.143 L
1264.987 683.148 L
1267.014 653.065 L
1269.109 611.78 L
1271.204 593.479 L
1273.164 596.596 L
1275.327 606.55 L
1277.422 611.893 L
1279.314 564.816 L
1281.544 574.614 L
1283.571 528.087 L
1285.666 505.448 L
1287.761 524.607 L
1289.653 531.021 L
1291.546 522.701 L
1293.776 528.135 L
1295.871 533.584 L
1297.763 529.836 L
1299.993 521.172 L
1302.02 564.828 L
1304.115 596.11 L
1306.21 552.838 L
1308.17 547.914 L
1310.333 564.263 L
1312.428 555.711 L
1314.32 582.884 L
1316.415 563.655 L
1318.442 560.19 L
1320.469 625.909 L
1322.564 600.464 L
1324.659 493.82 L
1326.619 512.127 L
1328.782 548.37 L
1330.877 529.803 L
1332.769 548.543 L
1334.999 539.522 L
1337.026 556.331 L
1338.919 563.064 L
1341.149 579.501 L
1343.176 548.639 L
1345.068 550.195 L
1347.298 573.272 L
1349.326 590.513 L
1351.488 617.877 L
1353.516 642.324 L
1355.476 649.481 L
1357.638 652.44 L
1359.733 679.003 L
1361.828 715.531 L
1363.72 715.809 L
1365.748 712.812 L
1367.775 745.802 L
1369.938 770.866 L
1371.965 786.707 L
1373.925 774.017 L
1376.155 791.619 L
1378.182 773.972 L
1380.277 763.958 L
1382.305 769.618 L
1384.332 791.144 L
1386.495 780.644 L
1388.387 791.805 L
1390.482 760.686 L
1392.374 734.502 L
1394.604 741.847 L
1396.631 752.932 L
1398.726 757.893 L
1400.821 771.784 L
1402.781 780.332 L
1404.944 785.102 L
1406.971 798.577 L
1408.931 781.875 L
1411.161 775.358 L
1413.053 785.043 L
1415.081 768.502 L
1417.176 772.483 L
1419.271 765.641 L
1421.23 740.644 L
1423.393 741.292 L
1425.488 737.092 L
1427.38 711.112 L
1429.61 722.164 L
1431.637 697.581 L
1433.732 686.771 L
1435.827 656.844 L
1437.787 618.349 L
1439.882 631.543 L
1441.91 647.181 L
1443.937 637.597 L
1446.032 654.768 L
1448.127 645.382 L
1450.087 654.258 L
1452.249 599.013 L
1454.344 455.62 L
1456.236 574.819 L
1458.466 668.182 L
1460.494 591.47 L
1462.386 586.878 L
1464.549 650.813 L
1466.576 595.088 L
1468.536 536.948 L
1470.698 547.562 L
1472.793 559.18 L
1474.888 559.707 L
1476.916 576.937 L
1478.943 564.571 L
1481.038 573.559 L
1483.133 530.204 L
1485.093 531.929 L
1486.985 531.453 L
1489.215 525 L
1491.242 546.782 L
1493.135 580.132 L
1495.365 618.449 L
1497.392 620.601 L
1499.555 690.225 L
1501.582 676.31 L
1503.542 653.358 L
1505.704 639.675 L
1507.799 572.427 L
1509.894 555.712 L
1511.786 564.782 L
1513.881 567.208 L
1515.841 571.226 L
1518.004 601.561 L
1520.031 582.817 L
1521.991 633.13 L
1524.221 711.031 L
1526.248 765.986 L
1528.343 726.26 L
1530.371 740.907 L
1532.398 773.651 L
1534.561 783.065 L
1536.521 769.65 L
1538.548 732.476 L
1540.643 771.718 L
1542.738 832.162 L
1544.698 822.986 L
1546.86 835.168 L
1548.955 827.291 L
1550.847 819.679 L
1553.077 812.929 L
1555.105 825.171 L
1557.2 801.555 L
1559.295 763.858 L
1561.187 780.431 L
1563.079 786.272 L
1565.309 808.748 L
1567.404 743.315 L
1569.297 686.983 L
1571.527 666.139 L
1573.554 645.14 L
1575.649 662.505 L
1577.744 671.727 L
1579.704 636.979 L
1581.866 600.007 L
1583.961 653.719 L
1585.853 655.857 L
1587.948 653.034 L
1589.976 662.019 L
1592.003 689.595 L
1594.098 688.437 L
1596.193 689.765 L
1598.153 722.129 L
1600.315 704.97 L
1602.41 720.852 L
1604.302 744.293 L
1606.533 766.677 L
1608.56 817.848 L
1610.452 785.941 L
1612.615 789.823 L
1614.642 775.312 L
1616.602 764.718 L
1618.765 732.863 L
1620.859 761.887 L
1622.954 766.916 L
1624.982 782.106 L
1627.009 775.143 L
1629.104 782.954 L
1631.199 783.724 L
1633.159 813.101 L
1635.254 838.072 L
1637.349 830.219 L
1639.309 827.762 L
1641.471 834.616 L
1643.499 863.636 L
1645.458 875.203 L
1647.688 870.248 L
1649.716 865.051 L
1651.811 837.745 L
1653.838 775.473 L
1655.865 769.479 L
1658.028 773.032 L
1659.92 789.613 L
1662.015 787.833 L
1663.907 806.182 L
1666.138 819.178 L
1668.165 815.919 L
1670.26 814.429 L
1672.355 839.286 L
1674.315 823.443 L
1676.477 828.698 L
1678.505 839.194 L
1680.464 849.958 L
1682.694 830.267 L
1684.587 816.461 L
1686.547 840.271 L
1688.709 831.185 L
1690.804 840.242 L
1692.764 847.329 L
1694.926 847.261 L
S
GR
GS
[0.6 0 0 0.6 0 0] CT
0.851 0.325 0.098 RC
1 LJ
3.333 LW
N
285.898 751.742 M
287.993 722.574 L
290.088 735.694 L
292.116 747.015 L
294.211 736.259 L
296.238 761.46 L
298.333 785.993 L
300.428 751.373 L
302.32 753.436 L
304.415 738.507 L
306.442 763.593 L
308.537 730.967 L
310.565 744.548 L
312.66 737.1 L
314.755 725.203 L
316.782 719.266 L
318.877 717.663 L
320.904 727.509 L
322.999 729.019 L
325.094 747.372 L
326.986 726.263 L
329.081 726.367 L
331.109 739.199 L
333.204 745.505 L
335.231 741.262 L
337.326 764.1 L
339.421 755.062 L
341.448 752.929 L
343.543 746.358 L
345.571 771.744 L
347.666 769.519 L
349.761 761.011 L
351.721 757.137 L
353.815 749.978 L
355.843 753.771 L
357.938 759.915 L
359.965 760.792 L
362.06 731.624 L
364.155 744.018 L
366.182 763.028 L
368.277 764.066 L
370.305 780.275 L
372.4 772.701 L
374.495 742.023 L
376.387 753.31 L
378.482 765.945 L
380.509 771.225 L
382.604 774.199 L
384.632 767.121 L
386.727 766.464 L
388.822 771.156 L
390.849 750.992 L
392.944 761.103 L
394.971 764.504 L
397.066 750.393 L
399.161 740.236 L
401.053 716.706 L
403.148 737.781 L
405.176 740.928 L
407.271 748.929 L
409.298 728.984 L
411.393 718.862 L
413.488 696.797 L
415.515 726.091 L
417.61 738.242 L
419.638 729.63 L
421.733 757.806 L
423.828 755.627 L
425.72 742.058 L
427.815 753.286 L
429.842 713.328 L
431.937 714.17 L
433.965 693.43 L
436.059 726.679 L
438.154 702.538 L
440.182 709.985 L
442.277 680.184 L
444.304 688.496 L
446.399 690.202 L
448.494 688.577 L
450.454 687.02 L
452.549 671.445 L
454.576 680.991 L
456.671 691.159 L
458.699 626.011 L
460.793 590.688 L
462.888 691.343 L
464.916 690.94 L
467.011 682.801 L
469.038 693.073 L
471.133 677.002 L
473.228 675.895 L
475.12 701.293 L
477.215 647.212 L
479.243 664.932 L
481.338 658.026 L
483.365 686.006 L
485.46 742.138 L
487.555 702.722 L
489.582 674.639 L
491.677 753.863 L
493.705 667.514 L
495.8 753.886 L
497.895 657.426 L
499.787 714.7 L
501.882 638.589 L
503.909 584.37 L
506.004 617.837 L
508.031 591.483 L
510.126 592.013 L
512.221 581.407 L
514.249 572.553 L
516.344 581.43 L
518.371 540.308 L
520.466 603.161 L
522.561 511.844 L
524.453 516.766 L
526.548 547.778 L
528.576 577.015 L
530.67 567.815 L
532.698 584.75 L
534.793 578.121 L
536.888 613.122 L
538.915 624.259 L
541.01 611.22 L
543.037 591.587 L
545.132 577.787 L
547.227 563.457 L
549.187 559.964 L
551.282 607.727 L
553.31 584.612 L
555.404 580.012 L
557.432 618.322 L
559.527 598.953 L
561.622 605.963 L
563.649 614.978 L
565.744 620.051 L
567.771 621.515 L
569.866 634.358 L
571.961 648.169 L
573.854 665.312 L
575.949 672.69 L
577.976 656.4 L
580.071 669.75 L
582.098 696.312 L
584.193 675.987 L
586.288 686.49 L
588.316 637.955 L
590.411 674.154 L
592.438 705.305 L
594.533 661.692 L
596.628 633.263 L
598.52 654.36 L
600.615 662.199 L
602.642 652.377 L
604.737 640.987 L
606.765 643.592 L
608.86 683.262 L
610.955 639.799 L
612.982 592.959 L
615.077 640.917 L
617.104 622.91 L
619.199 618.909 L
621.294 564.103 L
623.187 552.989 L
625.281 544.988 L
627.309 507.105 L
629.404 506.909 L
631.431 554.834 L
633.526 576.012 L
635.621 556.494 L
637.648 544.239 L
639.743 514.472 L
641.771 503.624 L
643.866 507.175 L
645.961 484.175 L
647.921 520.317 L
650.015 516.859 L
652.043 516.19 L
654.138 533.494 L
656.165 521.055 L
658.26 503.681 L
660.355 500.649 L
662.383 492.061 L
664.477 487.484 L
666.505 460.242 L
668.6 518.865 L
670.695 520.767 L
672.587 500.58 L
674.682 491.542 L
676.709 492.13 L
678.804 496.522 L
680.832 505.226 L
682.927 530.843 L
685.022 550.545 L
687.049 560.736 L
689.144 571.412 L
691.171 565.843 L
693.266 538.555 L
695.361 536.077 L
697.253 534.105 L
699.348 537.587 L
701.376 539.581 L
703.471 542.659 L
705.498 538.475 L
707.593 543.109 L
709.688 564.322 L
711.715 580.738 L
713.81 568.991 L
715.838 605.167 L
717.933 603.427 L
720.028 601.547 L
721.92 580.508 L
724.015 578.698 L
726.042 566.212 L
728.137 579.47 L
730.164 580.496 L
732.259 581.292 L
734.354 588.163 L
736.382 593.258 L
738.477 576.219 L
740.504 521.309 L
742.599 519.464 L
744.694 433.576 L
746.654 456.691 L
748.749 479.771 L
750.776 396.742 L
752.871 312.469 L
754.898 386.955 L
756.993 343.388 L
759.088 443.525 L
761.116 377.616 L
763.211 400.524 L
765.238 479.425 L
767.333 457.636 L
769.428 451.78 L
771.32 377.87 L
773.415 294.253 L
775.443 354.029 L
777.538 439.571 L
779.565 372.336 L
781.66 403.925 L
783.755 314.659 L
785.782 241.487 L
787.877 230.431 L
789.905 266.181 L
792 241.003 L
794.094 259.887 L
795.987 283.693 L
798.082 334.119 L
800.109 333.208 L
802.204 277.664 L
804.231 311.258 L
806.326 251.113 L
808.421 262.746 L
810.449 295.06 L
812.544 354.34 L
814.571 336.194 L
816.666 358.548 L
818.761 300.168 L
820.653 352.68 L
822.748 352.945 L
824.776 356.934 L
826.87 341.301 L
828.898 345.014 L
830.993 289.423 L
833.088 280.016 L
835.115 299.741 L
837.21 264.925 L
839.237 298.565 L
841.332 281.941 L
843.427 288.627 L
845.387 269.006 L
847.482 260.452 L
849.51 234.858 L
851.604 168.638 L
853.632 187.879 L
855.727 259.829 L
857.822 305.056 L
859.849 324.262 L
861.944 327.386 L
863.971 294.23 L
866.066 252.347 L
868.161 305.24 L
870.054 254.999 L
872.149 258.077 L
874.176 240.092 L
876.271 314.555 L
878.298 302.773 L
880.393 282.46 L
882.488 308.895 L
884.516 288.973 L
886.611 313.276 L
888.638 338.316 L
890.733 385.444 L
892.828 367.321 L
894.72 505.607 L
896.815 554.107 L
898.842 539.604 L
900.937 482.642 L
902.965 517.02 L
905.06 471.505 L
907.155 473.234 L
909.182 434.51 L
911.277 441.07 L
913.304 456.91 L
915.399 470.099 L
917.494 475.506 L
919.386 489.916 L
921.481 472.935 L
923.509 430.694 L
925.604 434.867 L
927.631 432.977 L
929.726 402.149 L
931.821 392.88 L
933.848 359.69 L
935.943 392.361 L
937.971 376.856 L
940.066 378.124 L
942.161 397.25 L
944.12 401.919 L
946.215 369.028 L
948.243 347.965 L
950.338 359.851 L
952.365 397.538 L
954.46 370.25 L
956.555 413.805 L
958.582 448.01 L
960.677 452.114 L
962.705 470.318 L
964.8 507.843 L
966.895 534.958 L
968.787 525.044 L
970.882 556.402 L
972.909 527.234 L
975.004 561.001 L
977.032 559.065 L
979.127 552.413 L
981.222 563.768 L
983.249 567.596 L
985.344 571.147 L
987.371 577.257 L
989.466 568.287 L
991.561 540.953 L
993.453 531.707 L
995.548 536.25 L
997.576 508.016 L
999.671 530.624 L
1001.698 527.038 L
1003.793 502.978 L
1005.888 438.983 L
1007.915 431.939 L
1010.01 436.712 L
1012.038 475.874 L
1014.133 454.477 L
1016.228 451.169 L
1018.12 452.079 L
1020.215 453.129 L
1022.242 432.193 L
1024.337 417.24 L
1026.365 406.899 L
1028.459 417.54 L
1030.554 403.729 L
1032.582 425.345 L
1034.677 380.81 L
1036.704 353.741 L
1038.799 397.619 L
1040.894 358.064 L
1042.854 379.23 L
1044.949 402.703 L
1046.976 364.774 L
1049.071 368.786 L
1051.099 333.416 L
1053.193 356.289 L
1055.288 318.648 L
1057.316 310.278 L
1059.411 358.594 L
1061.438 389.664 L
1063.533 398.864 L
1065.628 392.408 L
1067.52 410.219 L
1069.615 406.738 L
1071.643 404.789 L
1073.738 435.375 L
1075.765 472.208 L
1077.86 489.109 L
1079.955 510.645 L
1081.982 523.038 L
1084.077 526.139 L
1086.105 496.568 L
1088.2 495.392 L
1090.295 513.723 L
1092.187 482.999 L
1094.282 457.625 L
1096.309 469.903 L
1098.404 473.154 L
1100.431 449.705 L
1102.526 480.267 L
1104.621 487.818 L
1106.649 471.482 L
1108.744 468.404 L
1110.771 514.576 L
1112.866 543.075 L
1114.961 549.092 L
1116.853 545.738 L
1118.948 548.943 L
1120.975 561.451 L
1123.07 594.469 L
1125.098 603.427 L
1127.193 581.13 L
1129.288 599.057 L
1131.315 618.46 L
1133.41 624.558 L
1135.438 634.496 L
1137.532 645.702 L
1139.627 620.051 L
1141.587 578.087 L
1143.682 573.349 L
1145.709 558.246 L
1147.804 557.174 L
1149.832 567.077 L
1151.927 571.25 L
1154.022 546.199 L
1156.049 562.834 L
1158.144 589.65 L
1160.172 617.445 L
1162.266 599.392 L
1164.361 587.39 L
1166.254 591.852 L
1168.349 569.694 L
1170.376 581.73 L
1172.471 580.842 L
1174.498 595.622 L
1176.593 634.496 L
1178.688 604.822 L
1180.716 619.959 L
1182.811 648.134 L
1184.838 671.099 L
1186.933 676.506 L
1189.028 665.058 L
1190.92 671.295 L
1193.015 672.356 L
1195.042 655.985 L
1197.137 673.105 L
1199.165 692.266 L
1201.26 688.404 L
1203.355 701.004 L
1205.382 706.112 L
1207.477 663.975 L
1209.504 697.523 L
1211.599 686.686 L
1213.694 681.948 L
1215.587 650.083 L
1217.681 630.542 L
1219.709 632.041 L
1221.804 628.421 L
1223.831 599.023 L
1225.926 601.086 L
1228.021 587.921 L
1230.048 582.652 L
1232.143 588.174 L
1234.171 586.088 L
1236.266 568.818 L
1238.361 617.399 L
1240.321 641.736 L
1242.416 681.475 L
1244.443 678.339 L
1246.538 665.335 L
1248.565 669.658 L
1250.66 687.009 L
1252.755 700.105 L
1254.782 663.744 L
1256.877 683.573 L
1258.905 696.854 L
1261 690.179 L
1263.095 647.904 L
1264.987 652.573 L
1267.082 618.817 L
1269.109 578.755 L
1271.204 560.805 L
1273.232 563.48 L
1275.327 582.445 L
1277.422 588.22 L
1279.449 534.094 L
1281.544 552.966 L
1283.571 501.629 L
1285.666 489.409 L
1287.761 502.736 L
1289.653 501.157 L
1291.748 488.533 L
1293.776 505.261 L
1295.871 491.392 L
1297.898 496.972 L
1299.993 494.009 L
1302.088 522.45 L
1304.115 542.014 L
1306.21 500.338 L
1308.238 498.447 L
1310.333 517.031 L
1312.428 518.934 L
1314.32 538.452 L
1316.415 522.023 L
1318.442 526.404 L
1320.537 567.573 L
1322.564 549.427 L
1324.659 450.108 L
1326.754 478.86 L
1328.782 508.235 L
1330.877 489.132 L
1332.904 502.379 L
1334.999 501.526 L
1337.094 517.331 L
1339.054 531.592 L
1341.149 533.494 L
1343.176 503.866 L
1345.271 503.266 L
1347.298 523.833 L
1349.393 539.42 L
1351.488 564.552 L
1353.516 585.131 L
1355.611 595.495 L
1357.638 594.042 L
1359.733 620.327 L
1361.828 661.646 L
1363.72 664.194 L
1365.815 661.819 L
1367.843 691.632 L
1369.938 716.729 L
1371.965 735.429 L
1374.06 726.506 L
1376.155 745.655 L
1378.182 725.687 L
1380.277 716.003 L
1382.305 720.015 L
1384.4 749.978 L
1386.495 744.698 L
1388.387 759.581 L
1390.482 721.56 L
1392.509 694.364 L
1394.604 698.906 L
1396.631 709.432 L
1398.726 718.251 L
1400.821 736.386 L
1402.849 743.983 L
1404.944 748.744 L
1406.971 760.941 L
1409.066 743.441 L
1411.161 739.487 L
1413.053 746.98 L
1415.148 728.339 L
1417.176 733.63 L
1419.271 724.915 L
1421.298 703.587 L
1423.393 706.838 L
1425.488 689.476 L
1427.515 665.935 L
1429.61 677.82 L
1431.637 651.685 L
1433.732 637.482 L
1435.827 599.541 L
1437.787 571.32 L
1439.882 556.263 L
1441.91 594.008 L
1444.005 591.944 L
1446.032 608.119 L
1448.127 592.728 L
1450.222 597.351 L
1452.249 542.913 L
1454.344 384.464 L
1456.371 505.422 L
1458.466 608.303 L
1460.561 520.582 L
1462.454 517.804 L
1464.549 581.638 L
1466.576 527.476 L
1468.671 474.825 L
1470.698 500.027 L
1472.793 509.642 L
1474.888 511.855 L
1476.916 530.278 L
1479.01 513.919 L
1481.038 518.253 L
1483.133 478.48 L
1485.228 482.342 L
1487.12 478.169 L
1489.215 480.613 L
1491.242 505.18 L
1493.337 538.532 L
1495.365 570.293 L
1497.46 557.716 L
1499.555 632.017 L
1501.582 610.067 L
1503.677 574.317 L
1505.704 567.884 L
1507.799 529.206 L
1509.894 498.032 L
1511.786 525.759 L
1513.881 527.765 L
1515.909 518.253 L
1518.004 537.16 L
1520.031 513.515 L
1522.126 551.536 L
1524.221 634.208 L
1526.248 703.391 L
1528.343 658.775 L
1530.371 675.642 L
1532.466 709.743 L
1534.561 711.599 L
1536.521 700.428 L
1538.615 662.026 L
1540.643 700.52 L
1542.738 770.349 L
1544.765 760.088 L
1546.86 772.343 L
1548.955 761.541 L
1550.982 750.416 L
1553.077 747.361 L
1555.105 758.082 L
1557.2 733.319 L
1559.295 694.203 L
1561.187 707.875 L
1563.282 714.597 L
1565.309 740.444 L
1567.404 677.013 L
1569.432 642.163 L
1571.527 612.615 L
1573.622 605.605 L
1575.649 607.819 L
1577.744 612.626 L
1579.771 574.236 L
1581.866 561.612 L
1583.961 614.863 L
1585.853 622.276 L
1587.948 641.402 L
1589.976 649.091 L
1592.071 673.44 L
1594.098 674.085 L
1596.193 689.729 L
1598.288 720.937 L
1600.315 705.385 L
1602.41 716.453 L
1604.438 741.354 L
1606.533 766.487 L
1608.628 804.047 L
1610.52 778.315 L
1612.615 777.347 L
1614.642 756.099 L
1616.737 744.479 L
1618.765 714.908 L
1620.859 744.375 L
1622.954 742.819 L
1624.982 750.566 L
1627.077 752.537 L
1629.104 758.601 L
1631.199 760.722 L
1633.294 778.096 L
1635.254 804.416 L
1637.349 795.723 L
1639.376 796.865 L
1641.471 808.37 L
1643.499 835.485 L
1645.594 847.221 L
1647.688 846.414 L
1649.716 836.165 L
1651.811 807.379 L
1653.838 757.783 L
1655.933 751.649 L
1658.028 752.295 L
1659.92 770.752 L
1662.015 774.107 L
1664.043 784.967 L
1666.138 799.239 L
1668.165 794.547 L
1670.26 789.947 L
1672.355 813.373 L
1674.382 799.285 L
1676.477 804.842 L
1678.505 815.218 L
1680.599 830.401 L
1682.694 815.921 L
1684.587 800.15 L
1686.682 824.51 L
1688.709 817.259 L
1690.804 825.594 L
1692.831 821.098 L
1694.926 819.875 L
S
GR
GS
[0.6 0 0 0.6 0 0] CT
0.929 0.694 0.125 RC
1 LJ
3.333 LW
N
1003.793 515.152 M
1005.888 473.061 L
1007.78 469.372 L
1010.01 483.968 L
1012.038 510.875 L
1014.133 499.381 L
1016.228 495.116 L
1018.12 487.276 L
1020.08 471.113 L
1022.242 468.047 L
1024.337 465.187 L
1026.229 446.062 L
1028.459 455.965 L
1030.487 472.623 L
1032.582 496.015 L
1034.677 488.959 L
1036.637 478.03 L
1038.799 508.858 L
1040.894 458.132 L
1042.786 458.524 L
1044.949 442.672 L
1046.976 428.365 L
1048.936 453.889 L
1051.099 464.646 L
1053.193 489.444 L
1055.288 495.611 L
1057.316 502.828 L
1059.343 475.563 L
1061.438 468.496 L
1063.533 479.667 L
1065.493 506.69 L
1067.385 537.472 L
1069.615 533.552 L
1071.643 540.93 L
1073.738 544.954 L
1075.765 574.052 L
1077.792 571.884 L
1079.955 601.732 L
1081.982 602.539 L
1083.942 604.245 L
1086.105 576.208 L
1088.2 572.507 L
1090.295 587.69 L
1092.187 553.9 L
1094.282 506.206 L
1096.241 504.108 L
1098.404 511.233 L
1100.431 490.274 L
1102.391 517.654 L
1104.621 518.911 L
1106.649 495.727 L
1108.744 487.818 L
1110.771 498.563 L
1112.798 509.446 L
1114.961 528.629 L
1116.853 553.819 L
1118.948 552.758 L
1120.84 568.864 L
1123.07 624.904 L
1125.098 625.273 L
1127.193 603.069 L
1129.288 614.125 L
1131.248 626.069 L
1133.41 638.393 L
1135.438 656.181 L
1137.397 659.836 L
1139.627 655.271 L
1141.587 613.652 L
1143.547 595.057 L
1145.709 573.164 L
1147.804 559.284 L
1149.697 574.559 L
1151.927 571.204 L
1153.954 556.724 L
1156.049 568.241 L
1158.144 600.337 L
1160.104 626.507 L
1162.266 596.106 L
1164.361 588.301 L
1166.254 584.301 L
1168.349 558.615 L
1170.376 574.986 L
1172.403 576.945 L
1174.498 583.54 L
1176.593 628.098 L
1178.553 600.406 L
1180.716 611.935 L
1182.811 639.269 L
1184.703 644.618 L
1186.933 654.187 L
1188.96 667.203 L
1190.852 657.104 L
1193.015 650.682 L
1195.042 648.342 L
1197.002 657.657 L
1199.165 667.053 L
1201.26 663.387 L
1203.355 696.105 L
1205.382 730.621 L
1207.409 713.236 L
1209.504 706.849 L
1211.599 700.44 L
1213.559 704.152 L
1215.451 654.971 L
1217.681 648.722 L
1219.709 651.166 L
1221.804 625.515 L
1223.831 620.938 L
1225.859 603.115 L
1228.021 607.15 L
1230.048 606.839 L
1232.008 610.424 L
1234.171 610.69 L
1236.266 590.722 L
1238.361 587.506 L
1240.321 599.138 L
1242.416 638.935 L
1244.308 621.861 L
1246.538 623.971 L
1248.565 644.584 L
1250.66 653.841 L
1252.755 672.932 L
1254.715 670.5 L
1256.877 679.965 L
1258.905 702.895 L
1260.865 711.08 L
1263.095 679.757 L
1264.987 688.565 L
1267.014 667.537 L
1269.109 629.366 L
1271.204 609.537 L
1273.164 610.021 L
1275.327 638.047 L
1277.422 645.033 L
1279.314 633.874 L
1281.544 646.901 L
1283.571 590.976 L
1285.666 562.615 L
1287.761 572.438 L
1289.653 583.989 L
1291.613 543.905 L
1293.776 568.875 L
1295.871 580.404 L
1297.763 593.351 L
1299.993 628.686 L
1302.02 661.012 L
1304.115 700.82 L
1306.21 675.492 L
1308.17 638.07 L
1310.333 677.636 L
1312.428 660.032 L
1314.32 689.418 L
1316.415 675.157 L
1318.442 671.203 L
1320.469 724.984 L
1322.564 702.457 L
1324.659 616.558 L
1326.619 614.482 L
1328.782 665.323 L
1330.877 631.741 L
1332.769 629.596 L
1334.999 636.168 L
1337.026 644.906 L
1338.919 658.833 L
1341.149 675.411 L
1343.176 613.399 L
1345.271 608.188 L
1347.298 623.475 L
1349.326 637.528 L
1351.488 673.924 L
1353.516 682.755 L
1355.476 695.471 L
1357.638 677.498 L
1359.733 695.471 L
1361.828 706.999 L
1363.72 694.145 L
1365.815 686.133 L
1367.775 715.346 L
1369.938 731.29 L
1371.965 742.968 L
1373.925 723.658 L
1376.155 747.269 L
1378.182 721.975 L
1380.277 716.487 L
1382.305 723.358 L
1384.332 736.132 L
1386.495 730.656 L
1388.387 729.987 L
1390.482 710.481 L
1392.374 700.174 L
1394.604 700.024 L
1396.631 705.477 L
1398.726 716.66 L
1400.821 733.065 L
1402.781 739.625 L
1404.944 746.047 L
1406.971 758.117 L
1408.931 736.351 L
1411.161 727.52 L
1413.053 749.932 L
1415.081 741.62 L
1417.176 742.081 L
1419.271 715.934 L
1421.23 703.483 L
1423.393 725.526 L
1425.488 725.918 L
1427.38 713.916 L
1429.61 723.024 L
1431.637 737.838 L
1433.732 738.449 L
1435.827 730.933 L
1437.787 729.376 L
1439.882 729.515 L
1441.91 696.877 L
1443.937 677.705 L
1446.032 692.081 L
1448.127 688.415 L
1450.087 706.492 L
1452.249 684.242 L
1454.344 634.588 L
1456.236 712.498 L
1458.466 758.82 L
1460.494 712.694 L
1462.386 704.232 L
1464.549 746.485 L
1466.576 702.699 L
1468.536 671.122 L
1470.698 660.447 L
1472.793 661.853 L
1474.888 670.039 L
1476.916 678.616 L
1478.943 674.396 L
1481.038 698.606 L
1483.133 644.365 L
1485.093 663.087 L
1486.985 667.479 L
1489.215 649.045 L
1491.242 663.733 L
1493.337 691.908 L
1495.365 726.552 L
1497.392 738.83 L
1499.555 775.836 L
1501.582 776.009 L
1503.542 775.652 L
1505.704 755.984 L
1507.799 701.984 L
1509.894 699.921 L
1511.786 690.663 L
1513.881 683.227 L
1515.841 700.543 L
1518.004 729.688 L
1520.031 718.781 L
1521.991 762.21 L
1524.221 805.223 L
1526.248 820.982 L
1528.343 805.638 L
1530.371 811.725 L
1532.398 828.51 L
1534.561 841.78 L
1536.521 828.43 L
1538.548 806.249 L
1540.643 832.857 L
1542.738 858.646 L
1544.698 852.259 L
1546.86 864.952 L
1548.955 862.416 L
1550.847 859.269 L
1553.077 850.634 L
1555.105 860.179 L
1557.2 846.714 L
1559.295 826.77 L
1561.187 839.278 L
1563.147 840.765 L
1565.309 852.213 L
1567.404 809.292 L
1569.297 770.326 L
1571.527 765.553 L
1573.554 741.631 L
1575.649 760.999 L
1577.744 770.545 L
1579.704 757.725 L
1581.866 722.252 L
1583.961 752.03 L
1585.853 752.572 L
1587.948 736.651 L
1589.976 741.366 L
1592.003 759.892 L
1594.098 754.128 L
1596.193 744.156 L
1598.153 761.529 L
1600.315 746 L
1602.41 760.918 L
1604.302 776.666 L
1606.533 772.251 L
1608.56 817.039 L
1610.452 786.581 L
1612.615 797.695 L
1614.642 788.011 L
1616.602 781.543 L
1618.765 763.927 L
1620.859 778.557 L
1622.954 781.797 L
1624.982 792.864 L
1627.009 785.198 L
1629.104 784.448 L
1631.199 779.583 L
1633.159 815.414 L
1635.254 830.874 L
1637.349 826.862 L
1639.309 822.02 L
1641.471 819.899 L
1643.499 849.031 L
1645.458 851.936 L
1647.688 841.25 L
1649.716 842.068 L
1651.811 825.04 L
1653.838 774.833 L
1655.865 768.216 L
1658.028 771.421 L
1659.92 779.71 L
1662.015 784.022 L
1663.907 799.366 L
1666.138 809.834 L
1668.165 802.871 L
1670.26 805.938 L
1672.355 820.152 L
1674.315 804.312 L
1676.477 802.583 L
1678.505 801.637 L
1680.464 804.531 L
1682.694 780.471 L
1684.587 774.142 L
1686.614 788.806 L
1688.709 773.761 L
1690.804 785.474 L
1692.764 784.022 L
S
GR
GS
[0.6 0 0 0.6 0 0] CT
1 GC
N
405 208 M
405 87 L
262 87 L
262 208 L
cp
f
GR
GS
[0.6 0 0 0.6 192.51172 65.18046] CT
/Helvetica 30 F
GS
[1 0 0 1 0 0] CT
0 12 moveto 
1 -1 scale
(SRB3) t 
GR
GR
GS
[0.6 0 0 0.6 0 0] CT
0 0.447 0.741 RC
1 LJ
3.333 LW
N
267.009 108.634 M
317.096 108.634 L
S
GR
GS
[0.6 0 0 0.6 192.51172 88.5] CT
/Helvetica 30 F
GS
[1 0 0 1 0 0] CT
0 12 moveto 
1 -1 scale
(ACM) t 
GR
GR
GS
[0.6 0 0 0.6 0 0] CT
0.851 0.325 0.098 RC
1 LJ
3.333 LW
N
267.009 147.5 M
317.096 147.5 L
S
GR
GS
[0.6 0 0 0.6 192.51172 111.81954] CT
/Helvetica 30 F
GS
[1 0 0 1 0 0] CT
0 12 moveto 
1 -1 scale
(KW) t 
GR
GR
GS
[0.6 0 0 0.6 0 0] CT
0.929 0.694 0.125 RC
1 LJ
3.333 LW
N
267.009 186.366 M
317.096 186.366 L
S
GR
GS
[0.6 0 0 0.6 0 0] CT
0.149 GC
10.0 ML
0.833 LW
N
262 208 M
262 87 L
405 87 L
405 208 L
cp
S
GR
%%Trailer
%%Pages: 1
%%EOF
