%!PS-Adobe-3.0 EPSF-3.0
%%Creator: (MATLAB, The Mathworks, Inc. Version 9.6.0.1072779 \(R2019a\). Operating System: Windows 7)
%%Title: ./Case_C_Er_TP.eps
%%CreationDate: 2020-09-18T11:03:39
%%Pages: (atend)
%%BoundingBox:    96    38  1067   569
%%LanguageLevel: 3
%%EndComments
%%BeginProlog
%%BeginResource: procset (Apache XML Graphics Std ProcSet) 1.2 0
%%Version: 1.2 0
%%Copyright: (Copyright 2001-2003,2010 The Apache Software Foundation. License terms: http://www.apache.org/licenses/LICENSE-2.0)
/bd{bind def}bind def
/ld{load def}bd
/GR/grestore ld
/GS/gsave ld
/RM/rmoveto ld
/C/curveto ld
/t/show ld
/L/lineto ld
/ML/setmiterlimit ld
/CT/concat ld
/f/fill ld
/N/newpath ld
/S/stroke ld
/CC/setcmykcolor ld
/A/ashow ld
/cp/closepath ld
/RC/setrgbcolor ld
/LJ/setlinejoin ld
/GC/setgray ld
/LW/setlinewidth ld
/M/moveto ld
/re {4 2 roll M
1 index 0 rlineto
0 exch rlineto
neg 0 rlineto
cp } bd
/_ctm matrix def
/_tm matrix def
/BT { _ctm currentmatrix pop matrix _tm copy pop 0 0 moveto } bd
/ET { _ctm setmatrix } bd
/iTm { _ctm setmatrix _tm concat } bd
/Tm { _tm astore pop iTm 0 0 moveto } bd
/ux 0.0 def
/uy 0.0 def
/F {
  /Tp exch def
  /Tf exch def
  Tf findfont Tp scalefont setfont
  /cf Tf def  /cs Tp def
} bd
/ULS {currentpoint /uy exch def /ux exch def} bd
/ULE {
  /Tcx currentpoint pop def
  gsave
  newpath
  cf findfont cs scalefont dup
  /FontMatrix get 0 get /Ts exch def /FontInfo get dup
  /UnderlinePosition get Ts mul /To exch def
  /UnderlineThickness get Ts mul /Tt exch def
  ux uy To add moveto  Tcx uy To add lineto
  Tt setlinewidth stroke
  grestore
} bd
/OLE {
  /Tcx currentpoint pop def
  gsave
  newpath
  cf findfont cs scalefont dup
  /FontMatrix get 0 get /Ts exch def /FontInfo get dup
  /UnderlinePosition get Ts mul /To exch def
  /UnderlineThickness get Ts mul /Tt exch def
  ux uy To add cs add moveto Tcx uy To add cs add lineto
  Tt setlinewidth stroke
  grestore
} bd
/SOE {
  /Tcx currentpoint pop def
  gsave
  newpath
  cf findfont cs scalefont dup
  /FontMatrix get 0 get /Ts exch def /FontInfo get dup
  /UnderlinePosition get Ts mul /To exch def
  /UnderlineThickness get Ts mul /Tt exch def
  ux uy To add cs 10 mul 26 idiv add moveto Tcx uy To add cs 10 mul 26 idiv add lineto
  Tt setlinewidth stroke
  grestore
} bd
/QT {
/Y22 exch store
/X22 exch store
/Y21 exch store
/X21 exch store
currentpoint
/Y21 load 2 mul add 3 div exch
/X21 load 2 mul add 3 div exch
/X21 load 2 mul /X22 load add 3 div
/Y21 load 2 mul /Y22 load add 3 div
/X22 load /Y22 load curveto
} bd
/SSPD {
dup length /d exch dict def
{
/v exch def
/k exch def
currentpagedevice k known {
/cpdv currentpagedevice k get def
v cpdv ne {
/upd false def
/nullv v type /nulltype eq def
/nullcpdv cpdv type /nulltype eq def
nullv nullcpdv or
{
/upd true def
} {
/sametype v type cpdv type eq def
sametype {
v type /arraytype eq {
/vlen v length def
/cpdvlen cpdv length def
vlen cpdvlen eq {
0 1 vlen 1 sub {
/i exch def
/obj v i get def
/cpdobj cpdv i get def
obj cpdobj ne {
/upd true def
exit
} if
} for
} {
/upd true def
} ifelse
} {
v type /dicttype eq {
v {
/dv exch def
/dk exch def
/cpddv cpdv dk get def
dv cpddv ne {
/upd true def
exit
} if
} forall
} {
/upd true def
} ifelse
} ifelse
} if
} ifelse
upd true eq {
d k v put
} if
} if
} if
} forall
d length 0 gt {
d setpagedevice
} if
} bd
/RE { % /NewFontName [NewEncodingArray] /FontName RE -
  findfont dup length dict begin
  {
    1 index /FID ne
    {def} {pop pop} ifelse
  } forall
  /Encoding exch def
  /FontName 1 index def
  currentdict definefont pop
  end
} bind def
%%EndResource
%%BeginResource: procset (Apache XML Graphics EPS ProcSet) 1.0 0
%%Version: 1.0 0
%%Copyright: (Copyright 2002-2003 The Apache Software Foundation. License terms: http://www.apache.org/licenses/LICENSE-2.0)
/BeginEPSF { %def
/b4_Inc_state save def         % Save state for cleanup
/dict_count countdictstack def % Count objects on dict stack
/op_count count 1 sub def      % Count objects on operand stack
userdict begin                 % Push userdict on dict stack
/showpage { } def              % Redefine showpage, { } = null proc
0 setgray 0 setlinecap         % Prepare graphics state
1 setlinewidth 0 setlinejoin
10 setmiterlimit [ ] 0 setdash newpath
/languagelevel where           % If level not equal to 1 then
{pop languagelevel             % set strokeadjust and
1 ne                           % overprint to their defaults.
{false setstrokeadjust false setoverprint
} if
} if
} bd
/EndEPSF { %def
count op_count sub {pop} repeat            % Clean up stacks
countdictstack dict_count sub {end} repeat
b4_Inc_state restore
} bd
%%EndResource
%FOPBeginFontDict
%%IncludeResource: font Courier-Oblique
%%IncludeResource: font Courier-BoldOblique
%%IncludeResource: font Courier-Bold
%%IncludeResource: font ZapfDingbats
%%IncludeResource: font Symbol
%%IncludeResource: font Helvetica
%%IncludeResource: font Helvetica-Oblique
%%IncludeResource: font Helvetica-Bold
%%IncludeResource: font Helvetica-BoldOblique
%%IncludeResource: font Times-Roman
%%IncludeResource: font Times-Italic
%%IncludeResource: font Times-Bold
%%IncludeResource: font Times-BoldItalic
%%IncludeResource: font Courier
%FOPEndFontDict
%%BeginResource: encoding WinAnsiEncoding
/WinAnsiEncoding [
/.notdef /.notdef /.notdef /.notdef /.notdef
/.notdef /.notdef /.notdef /.notdef /.notdef
/.notdef /.notdef /.notdef /.notdef /.notdef
/.notdef /.notdef /.notdef /.notdef /.notdef
/.notdef /.notdef /.notdef /.notdef /.notdef
/.notdef /.notdef /.notdef /.notdef /.notdef
/.notdef /.notdef /space /exclam /quotedbl
/numbersign /dollar /percent /ampersand /quotesingle
/parenleft /parenright /asterisk /plus /comma
/hyphen /period /slash /zero /one
/two /three /four /five /six
/seven /eight /nine /colon /semicolon
/less /equal /greater /question /at
/A /B /C /D /E
/F /G /H /I /J
/K /L /M /N /O
/P /Q /R /S /T
/U /V /W /X /Y
/Z /bracketleft /backslash /bracketright /asciicircum
/underscore /quoteleft /a /b /c
/d /e /f /g /h
/i /j /k /l /m
/n /o /p /q /r
/s /t /u /v /w
/x /y /z /braceleft /bar
/braceright /asciitilde /bullet /Euro /bullet
/quotesinglbase /florin /quotedblbase /ellipsis /dagger
/daggerdbl /circumflex /perthousand /Scaron /guilsinglleft
/OE /bullet /Zcaron /bullet /bullet
/quoteleft /quoteright /quotedblleft /quotedblright /bullet
/endash /emdash /asciitilde /trademark /scaron
/guilsinglright /oe /bullet /zcaron /Ydieresis
/space /exclamdown /cent /sterling /currency
/yen /brokenbar /section /dieresis /copyright
/ordfeminine /guillemotleft /logicalnot /sfthyphen /registered
/macron /degree /plusminus /twosuperior /threesuperior
/acute /mu /paragraph /middot /cedilla
/onesuperior /ordmasculine /guillemotright /onequarter /onehalf
/threequarters /questiondown /Agrave /Aacute /Acircumflex
/Atilde /Adieresis /Aring /AE /Ccedilla
/Egrave /Eacute /Ecircumflex /Edieresis /Igrave
/Iacute /Icircumflex /Idieresis /Eth /Ntilde
/Ograve /Oacute /Ocircumflex /Otilde /Odieresis
/multiply /Oslash /Ugrave /Uacute /Ucircumflex
/Udieresis /Yacute /Thorn /germandbls /agrave
/aacute /acircumflex /atilde /adieresis /aring
/ae /ccedilla /egrave /eacute /ecircumflex
/edieresis /igrave /iacute /icircumflex /idieresis
/eth /ntilde /ograve /oacute /ocircumflex
/otilde /odieresis /divide /oslash /ugrave
/uacute /ucircumflex /udieresis /yacute /thorn
/ydieresis
] def
%%EndResource
%FOPBeginFontReencode
/Courier-Oblique findfont
dup length dict begin
  {1 index /FID ne {def} {pop pop} ifelse} forall
  /Encoding WinAnsiEncoding def
  currentdict
end
/Courier-Oblique exch definefont pop
/Courier-BoldOblique findfont
dup length dict begin
  {1 index /FID ne {def} {pop pop} ifelse} forall
  /Encoding WinAnsiEncoding def
  currentdict
end
/Courier-BoldOblique exch definefont pop
/Courier-Bold findfont
dup length dict begin
  {1 index /FID ne {def} {pop pop} ifelse} forall
  /Encoding WinAnsiEncoding def
  currentdict
end
/Courier-Bold exch definefont pop
/Helvetica findfont
dup length dict begin
  {1 index /FID ne {def} {pop pop} ifelse} forall
  /Encoding WinAnsiEncoding def
  currentdict
end
/Helvetica exch definefont pop
/Helvetica-Oblique findfont
dup length dict begin
  {1 index /FID ne {def} {pop pop} ifelse} forall
  /Encoding WinAnsiEncoding def
  currentdict
end
/Helvetica-Oblique exch definefont pop
/Helvetica-Bold findfont
dup length dict begin
  {1 index /FID ne {def} {pop pop} ifelse} forall
  /Encoding WinAnsiEncoding def
  currentdict
end
/Helvetica-Bold exch definefont pop
/Helvetica-BoldOblique findfont
dup length dict begin
  {1 index /FID ne {def} {pop pop} ifelse} forall
  /Encoding WinAnsiEncoding def
  currentdict
end
/Helvetica-BoldOblique exch definefont pop
/Times-Roman findfont
dup length dict begin
  {1 index /FID ne {def} {pop pop} ifelse} forall
  /Encoding WinAnsiEncoding def
  currentdict
end
/Times-Roman exch definefont pop
/Times-Italic findfont
dup length dict begin
  {1 index /FID ne {def} {pop pop} ifelse} forall
  /Encoding WinAnsiEncoding def
  currentdict
end
/Times-Italic exch definefont pop
/Times-Bold findfont
dup length dict begin
  {1 index /FID ne {def} {pop pop} ifelse} forall
  /Encoding WinAnsiEncoding def
  currentdict
end
/Times-Bold exch definefont pop
/Times-BoldItalic findfont
dup length dict begin
  {1 index /FID ne {def} {pop pop} ifelse} forall
  /Encoding WinAnsiEncoding def
  currentdict
end
/Times-BoldItalic exch definefont pop
/Courier findfont
dup length dict begin
  {1 index /FID ne {def} {pop pop} ifelse} forall
  /Encoding WinAnsiEncoding def
  currentdict
end
/Courier exch definefont pop
%FOPEndFontReencode
%%EndProlog
%%Page: 1 1
%%PageBoundingBox: 0 0 1147 594
%%BeginPageSetup
[1 0 0 -1 0 594] CT
%%EndPageSetup
GS
[0.6 0 0 0.6 0 0] CT
1 GC
N
0 0 1912 990 re
f
GR
GS
[0.6 0 0 0.6 0 0] CT
1 GC
N
0 0 1912 990 re
f
GR
GS
[0.6 0 0 0.6 0 0] CT
1 GC
N
249 412 M
1730 412 L
1730 83 L
249 83 L
cp
f
GR
GS
[0.6 0 0 0.6 0 0] CT
0.149 GC
2 setlinecap
1 LJ
0.833 LW
N
249 412 M
1730 412 L
S
GR
GS
[0.6 0 0 0.6 0 0] CT
0.149 GC
2 setlinecap
1 LJ
0.833 LW
N
249 83 M
1730 83 L
S
GR
GS
[0.6 0 0 0.6 0 0] CT
0.149 GC
2 setlinecap
1 LJ
0.833 LW
N
249 412 M
249 397.19 L
S
GR
GS
[0.6 0 0 0.6 0 0] CT
0.149 GC
2 setlinecap
1 LJ
0.833 LW
N
495.867 412 M
495.867 397.19 L
S
GR
GS
[0.6 0 0 0.6 0 0] CT
0.149 GC
2 setlinecap
1 LJ
0.833 LW
N
742.667 412 M
742.667 397.19 L
S
GR
GS
[0.6 0 0 0.6 0 0] CT
0.149 GC
2 setlinecap
1 LJ
0.833 LW
N
989.534 412 M
989.534 397.19 L
S
GR
GS
[0.6 0 0 0.6 0 0] CT
0.149 GC
2 setlinecap
1 LJ
0.833 LW
N
1236.333 412 M
1236.333 397.19 L
S
GR
GS
[0.6 0 0 0.6 0 0] CT
0.149 GC
2 setlinecap
1 LJ
0.833 LW
N
1483.2 412 M
1483.2 397.19 L
S
GR
GS
[0.6 0 0 0.6 0 0] CT
0.149 GC
2 setlinecap
1 LJ
0.833 LW
N
1730 412 M
1730 397.19 L
S
GR
GS
[0.6 0 0 0.6 0 0] CT
0.149 GC
2 setlinecap
1 LJ
0.833 LW
N
249 83 M
249 97.81 L
S
GR
GS
[0.6 0 0 0.6 0 0] CT
0.149 GC
2 setlinecap
1 LJ
0.833 LW
N
495.867 83 M
495.867 97.81 L
S
GR
GS
[0.6 0 0 0.6 0 0] CT
0.149 GC
2 setlinecap
1 LJ
0.833 LW
N
742.667 83 M
742.667 97.81 L
S
GR
GS
[0.6 0 0 0.6 0 0] CT
0.149 GC
2 setlinecap
1 LJ
0.833 LW
N
989.534 83 M
989.534 97.81 L
S
GR
GS
[0.6 0 0 0.6 0 0] CT
0.149 GC
2 setlinecap
1 LJ
0.833 LW
N
1236.333 83 M
1236.333 97.81 L
S
GR
GS
[0.6 0 0 0.6 0 0] CT
0.149 GC
2 setlinecap
1 LJ
0.833 LW
N
1483.2 83 M
1483.2 97.81 L
S
GR
GS
[0.6 0 0 0.6 0 0] CT
0.149 GC
2 setlinecap
1 LJ
0.833 LW
N
1730 83 M
1730 97.81 L
S
GR
GS
[0.6 0 0 0.6 149.39999 253.2] CT
0.149 GC
/Helvetica 33.333 F
GS
[1 0 0 1 0 0] CT
-51 34 moveto 
1 -1 scale
(Jan-60) t 
GR
GR
GS
[0.6 0 0 0.6 297.52026 253.2] CT
0.149 GC
/Helvetica 33.333 F
GS
[1 0 0 1 0 0] CT
-51 34 moveto 
1 -1 scale
(Jan-70) t 
GR
GR
GS
[0.6 0 0 0.6 445.59999 253.2] CT
0.149 GC
/Helvetica 33.333 F
GS
[1 0 0 1 0 0] CT
-51 34 moveto 
1 -1 scale
(Jan-80) t 
GR
GR
GS
[0.6 0 0 0.6 593.72026 253.2] CT
0.149 GC
/Helvetica 33.333 F
GS
[1 0 0 1 0 0] CT
-51 34 moveto 
1 -1 scale
(Jan-90) t 
GR
GR
GS
[0.6 0 0 0.6 741.79999 253.2] CT
0.149 GC
/Helvetica 33.333 F
GS
[1 0 0 1 0 0] CT
-51 34 moveto 
1 -1 scale
(Jan-00) t 
GR
GR
GS
[0.6 0 0 0.6 889.92023 253.2] CT
0.149 GC
/Helvetica 33.333 F
GS
[1 0 0 1 0 0] CT
-51 34 moveto 
1 -1 scale
(Jan-10) t 
GR
GR
GS
[0.6 0 0 0.6 1037.99996 253.2] CT
0.149 GC
/Helvetica 33.333 F
GS
[1 0 0 1 0 0] CT
-51 34 moveto 
1 -1 scale
(Jan-20) t 
GR
GR
GS
[0.6 0 0 0.6 0 0] CT
0.149 GC
2 setlinecap
1 LJ
0.833 LW
N
249 412 M
249 83 L
S
GR
GS
[0.6 0 0 0.6 0 0] CT
0.149 GC
2 setlinecap
1 LJ
0.833 LW
N
1730 412 M
1730 83 L
S
GR
GS
[0.6 0 0 0.6 0 0] CT
0.149 GC
2 setlinecap
1 LJ
0.833 LW
N
249 412 M
263.808 412 L
S
GR
GS
[0.6 0 0 0.6 0 0] CT
0.149 GC
2 setlinecap
1 LJ
0.833 LW
N
249 302.333 M
263.808 302.333 L
S
GR
GS
[0.6 0 0 0.6 0 0] CT
0.149 GC
2 setlinecap
1 LJ
0.833 LW
N
249 192.667 M
263.808 192.667 L
S
GR
GS
[0.6 0 0 0.6 0 0] CT
0.149 GC
2 setlinecap
1 LJ
0.833 LW
N
249 83 M
263.808 83 L
S
GR
GS
[0.6 0 0 0.6 0 0] CT
0.149 GC
2 setlinecap
1 LJ
0.833 LW
N
1730 412 M
1715.192 412 L
S
GR
GS
[0.6 0 0 0.6 0 0] CT
0.149 GC
2 setlinecap
1 LJ
0.833 LW
N
1730 302.333 M
1715.192 302.333 L
S
GR
GS
[0.6 0 0 0.6 0 0] CT
0.149 GC
2 setlinecap
1 LJ
0.833 LW
N
1730 192.667 M
1715.192 192.667 L
S
GR
GS
[0.6 0 0 0.6 0 0] CT
0.149 GC
2 setlinecap
1 LJ
0.833 LW
N
1730 83 M
1715.192 83 L
S
GR
GS
[0.6 0 0 0.6 143.39895 247.2] CT
0.149 GC
/Helvetica 33.333 F
GS
[1 0 0 1 0 0] CT
-19 13 moveto 
1 -1 scale
(0) t 
GR
GR
GS
[0.6 0 0 0.6 143.39895 181.40001] CT
0.149 GC
/Helvetica 33.333 F
GS
[1 0 0 1 0 0] CT
-19 13 moveto 
1 -1 scale
(5) t 
GR
GR
GS
[0.6 0 0 0.6 143.39895 115.6] CT
0.149 GC
/Helvetica 33.333 F
GS
[1 0 0 1 0 0] CT
-38 13 moveto 
1 -1 scale
(10) t 
GR
GR
GS
[0.6 0 0 0.6 143.39895 49.8] CT
0.149 GC
/Helvetica 33.333 F
GS
[1 0 0 1 0 0] CT
-38 13 moveto 
1 -1 scale
(15) t 
GR
GR
GS
[0 -0.6 0.6 0 117.60056 148.49991] CT
0.149 GC
/Helvetica 36.667 F
GS
[1 0 0 1 0 0] CT
-37 -9 moveto 
1 -1 scale
(\(pct\)) t 
GR
GR
GS
[0.6 0 0 0.6 593.69997 46.5] CT
/Helvetica-Bold 36.667 F
GS
[1 0 0 1 0 0] CT
-526 -9 moveto 
1 -1 scale
(10-year expectations component and 10-year observed yield) t 
GR
GR
GS
[0.6 0 0 0.6 0 0] CT
0 0.447 0.741 RC
1 LJ
3.333 LW
N
285.898 326.602 M
287.993 328.354 L
290.088 325.589 L
292.048 326.106 L
294.211 327.64 L
296.238 325.853 L
298.198 323.29 L
300.428 322.596 L
302.32 325.52 L
304.347 328.601 L
306.442 326.534 L
308.537 329.138 L
310.497 326.406 L
312.66 325.402 L
314.755 329.314 L
316.647 330.476 L
318.877 330.209 L
320.904 329.065 L
322.999 328.668 L
325.094 328.37 L
326.986 328.999 L
328.946 328.297 L
331.109 327.853 L
333.204 326.738 L
335.096 326.696 L
337.326 322.69 L
339.354 321.857 L
341.448 322.203 L
343.543 321.375 L
345.503 319.871 L
347.666 318.496 L
349.761 319.576 L
351.653 317.516 L
353.815 316.313 L
355.843 318.466 L
357.735 318.396 L
359.965 319.276 L
362.06 321.779 L
364.155 320.027 L
366.182 318.501 L
368.21 318.336 L
370.305 315.304 L
372.4 317.313 L
374.36 318.611 L
376.252 316.848 L
378.482 316.741 L
380.509 316.765 L
382.402 316.702 L
384.632 317.996 L
386.659 317.129 L
388.822 315.442 L
390.849 314.012 L
392.809 313.821 L
394.904 312.506 L
397.066 306.158 L
399.161 306.388 L
401.053 305.595 L
403.148 307.132 L
405.108 306.219 L
407.271 304.215 L
409.298 303.643 L
411.258 302.395 L
413.488 296.609 L
415.515 299.571 L
417.61 300.636 L
419.638 300.473 L
421.665 306.026 L
423.828 309.892 L
425.72 308.478 L
427.815 315.116 L
429.707 315.05 L
431.937 313.677 L
433.965 304.74 L
436.059 304.431 L
438.154 302.559 L
440.114 301.54 L
442.277 300.3 L
444.304 298.821 L
446.264 297.019 L
448.494 301.328 L
450.454 299.652 L
452.414 298.135 L
454.576 297.006 L
456.671 294.503 L
458.563 300.184 L
460.793 306.687 L
462.821 304.158 L
464.916 303.742 L
467.011 302.796 L
468.971 300.612 L
471.133 291.635 L
473.228 292.227 L
475.12 286.284 L
477.013 291.493 L
479.243 290.984 L
481.202 284.746 L
483.365 274.729 L
485.46 270.588 L
487.42 272.296 L
489.582 266.03 L
491.677 270.681 L
493.569 270.445 L
495.8 259.809 L
497.827 264.538 L
499.719 275.788 L
501.882 280.604 L
503.909 272.15 L
505.869 270.339 L
508.031 274.074 L
510.126 277.562 L
512.221 280.51 L
514.249 285.588 L
516.276 286.41 L
518.371 305.428 L
520.466 301.798 L
522.426 315.209 L
524.318 321.529 L
526.548 321.278 L
528.576 305.043 L
530.468 303.104 L
532.698 288.863 L
534.725 288.972 L
536.888 300.816 L
538.915 300.652 L
540.875 308.524 L
543.037 308.095 L
545.132 312.341 L
547.227 311.261 L
549.187 312.364 L
551.215 300.525 L
553.174 306.903 L
555.404 308.59 L
557.432 300.946 L
559.527 303.281 L
561.622 298.442 L
563.582 296.77 L
565.744 296.267 L
567.771 298.213 L
569.731 294.586 L
571.961 289.053 L
573.854 284.066 L
575.881 279.849 L
577.976 282.771 L
580.071 280.533 L
582.031 275.477 L
584.193 262.597 L
586.288 268.693 L
588.18 281.014 L
590.411 281.427 L
592.438 279.574 L
594.533 281.244 L
596.628 283.157 L
598.52 281.498 L
600.48 268.395 L
602.642 260.595 L
604.737 264.397 L
606.63 261.216 L
608.86 256.767 L
610.887 254.14 L
612.982 267.604 L
615.077 268.801 L
617.037 274.516 L
619.199 278.017 L
621.294 287.215 L
623.187 292.911 L
625.281 286.77 L
627.309 279.101 L
629.336 287.874 L
631.431 280.97 L
633.526 274.178 L
635.486 273.384 L
637.648 270.206 L
639.743 285.582 L
641.636 282.908 L
643.866 288.929 L
645.893 294.126 L
647.785 287.92 L
650.015 289.446 L
652.043 290.147 L
653.935 280.922 L
656.165 285.766 L
658.193 289.401 L
660.355 292.603 L
662.383 295.517 L
664.342 299.244 L
666.505 308.778 L
668.6 306.733 L
670.695 295.611 L
672.587 297.426 L
674.682 299.15 L
676.642 298.344 L
678.804 297.049 L
680.832 298.657 L
682.791 291.758 L
685.022 290.323 L
687.049 286.671 L
689.144 281.545 L
691.171 283.067 L
693.199 281.902 L
695.361 279.075 L
697.253 277.954 L
699.348 276.172 L
701.241 273.778 L
703.471 269.642 L
705.498 265.252 L
707.593 265.687 L
709.688 265.17 L
711.648 261.775 L
713.81 251.715 L
715.838 249.356 L
717.797 242.265 L
720.028 248.34 L
721.92 247.022 L
723.947 248.92 L
726.042 247.503 L
728.137 251.523 L
730.097 258.593 L
732.259 253.888 L
734.354 246.703 L
736.247 242.13 L
738.477 217.429 L
740.504 233.456 L
742.599 232.108 L
744.694 229.206 L
746.654 190.552 L
748.749 188.737 L
750.776 244.132 L
752.804 264.835 L
754.898 263.372 L
756.993 256.311 L
758.953 228.467 L
761.116 223.651 L
763.211 211.76 L
765.103 199.024 L
767.333 213.302 L
769.36 208.885 L
771.253 204.619 L
773.415 213.844 L
775.443 193.522 L
777.402 192.33 L
779.565 195.431 L
781.66 178.28 L
783.755 171.863 L
785.782 173.748 L
787.81 198.141 L
789.905 226.458 L
792 205.761 L
793.959 200.926 L
795.852 200.565 L
798.082 196.881 L
800.109 202.675 L
802.001 210.012 L
804.231 193.898 L
806.259 213.631 L
808.421 227.869 L
810.449 236.732 L
812.409 249.529 L
814.571 252.35 L
816.666 257.104 L
818.761 257.833 L
820.653 260.341 L
822.748 253.96 L
824.708 260.05 L
826.87 253.233 L
828.898 249.417 L
830.858 241.462 L
833.088 240.003 L
835.115 247.733 L
837.21 248.649 L
839.237 246.892 L
841.265 244.462 L
843.427 247.975 L
845.387 243.265 L
847.415 235.948 L
849.51 234.52 L
851.604 220.906 L
853.564 217.867 L
855.727 223.102 L
857.822 221.859 L
859.714 226.928 L
861.944 238.812 L
863.971 248.218 L
866.066 253.905 L
868.161 254.985 L
870.054 247.258 L
872.013 249.344 L
874.176 255.966 L
876.271 266.908 L
878.163 270.546 L
880.393 266.671 L
882.421 268.055 L
884.516 268.697 L
886.611 270.298 L
888.57 272.987 L
890.733 276.274 L
892.828 276.893 L
894.72 275.662 L
896.815 282.596 L
898.842 284.289 L
900.87 279.868 L
902.965 285.024 L
905.06 290.385 L
907.019 299.859 L
909.182 295.355 L
911.277 298.031 L
913.169 298.502 L
915.399 294.671 L
917.427 296.343 L
919.319 294.935 L
921.481 292.327 L
923.509 282.834 L
925.469 278.567 L
927.631 282.49 L
929.726 282.735 L
931.821 278.376 L
933.848 270.303 L
935.876 280.141 L
937.971 280.339 L
940.066 279.945 L
942.026 286.863 L
944.12 288.233 L
946.215 285.793 L
948.175 282.439 L
950.338 275.164 L
952.365 276.507 L
954.325 272.56 L
956.555 266.798 L
958.582 269.016 L
960.677 271.511 L
962.705 262.543 L
964.732 257.102 L
966.895 256.765 L
968.787 251.145 L
970.882 247.081 L
972.774 255.467 L
975.004 259.447 L
977.032 269.084 L
979.127 276.315 L
981.222 265.355 L
983.181 264.344 L
985.344 271.639 L
987.371 273.184 L
989.331 271.499 L
991.561 267.27 L
993.453 266.439 L
995.481 263.135 L
997.576 260.047 L
999.671 265.791 L
1001.63 268.681 L
1003.793 273.588 L
1005.888 273.152 L
1007.78 274.702 L
1010.01 277.683 L
1012.038 279.015 L
1014.133 284.479 L
1016.228 286.842 L
1018.12 287.627 L
1020.012 287.434 L
1022.242 290.528 L
1024.337 291.404 L
1026.229 289.533 L
1028.459 291.482 L
1030.487 298.259 L
1032.582 301.551 L
1034.677 307.27 L
1036.637 312.538 L
1038.799 318.882 L
1040.894 315.762 L
1042.786 313.48 L
1044.949 307.778 L
1046.976 312.456 L
1048.936 315.539 L
1051.099 320.744 L
1053.193 325.802 L
1055.288 330.178 L
1057.316 335.178 L
1059.343 325.354 L
1061.438 319.07 L
1063.466 323.228 L
1065.493 327.675 L
1067.385 330.614 L
1069.615 330.232 L
1071.575 332.596 L
1073.535 325.818 L
1075.765 326.852 L
1077.792 324.989 L
1079.955 327.795 L
1081.982 326.789 L
1083.942 325.611 L
1086.105 323.857 L
1088.2 323.493 L
1090.295 324.721 L
1092.187 317.9 L
1094.282 311.257 L
1096.241 303.72 L
1098.404 300.28 L
1100.431 299.104 L
1102.391 300.25 L
1104.621 298.428 L
1106.649 292.762 L
1108.744 289.971 L
1110.771 279.981 L
1112.798 275.267 L
1114.961 280.768 L
1116.853 287.427 L
1118.948 287.089 L
1120.84 289.36 L
1123.07 297.398 L
1125.098 297.803 L
1127.193 297.705 L
1129.288 297.82 L
1131.248 296.815 L
1133.41 299.322 L
1135.438 302.508 L
1137.397 304.59 L
1139.627 308.602 L
1141.587 304.353 L
1143.547 299.405 L
1145.709 296.738 L
1147.804 294.287 L
1149.697 294.984 L
1151.927 293.781 L
1153.954 293.155 L
1156.049 295.624 L
1158.144 299.293 L
1160.104 300.422 L
1162.266 297.169 L
1164.361 297.226 L
1166.254 295.129 L
1168.349 290.968 L
1170.376 292.787 L
1172.403 293.725 L
1174.498 294.605 L
1176.593 298.117 L
1178.553 295.7 L
1180.716 297.329 L
1182.811 298.381 L
1184.703 295.632 L
1186.933 297.036 L
1188.96 301.725 L
1190.852 298.754 L
1193.015 297.991 L
1195.042 298.703 L
1197.002 298.64 L
1199.165 298.401 L
1201.26 298.685 L
1203.355 304.633 L
1205.382 312.855 L
1207.409 315.405 L
1209.504 310.301 L
1211.599 310.783 L
1213.559 310.622 L
1215.451 304.854 L
1217.681 307.392 L
1219.709 306.407 L
1221.533 302.005 L
1223.831 301.917 L
1225.859 300.467 L
1228.021 299.253 L
1230.048 300.986 L
1232.008 298.429 L
1234.171 295.98 L
1236.266 293.326 L
1238.361 286.612 L
1240.321 286.913 L
1242.416 285.959 L
1244.308 283.695 L
1246.538 283.02 L
1248.565 287.187 L
1250.66 287.439 L
1252.755 289.177 L
1254.715 292.845 L
1256.877 292.478 L
1258.905 295.941 L
1260.865 302.764 L
1263.095 311.06 L
1264.987 313.693 L
1267.014 318.459 L
1269.109 318.497 L
1271.204 320.267 L
1273.164 319.736 L
1275.327 325.462 L
1277.422 327.339 L
1279.314 339.934 L
1281.544 344.989 L
1283.571 342.163 L
1285.666 339.991 L
1287.761 338.287 L
1289.653 339.802 L
1291.546 331.182 L
1293.776 336.966 L
1295.871 338.232 L
1297.763 342.444 L
1299.993 350.886 L
1302.02 351.234 L
1304.115 355.909 L
1306.21 357.751 L
1308.17 352.533 L
1310.333 358.485 L
1312.428 356.69 L
1314.32 358.549 L
1316.415 359.055 L
1318.442 358.98 L
1320.469 360.136 L
1322.564 360.861 L
1324.659 358.023 L
1326.619 355.309 L
1328.782 360.413 L
1330.877 356.173 L
1332.769 352.895 L
1334.999 356.051 L
1337.026 355.355 L
1338.919 357.33 L
1341.149 358.139 L
1343.176 348.938 L
1345.068 345.924 L
1347.298 343.124 L
1349.326 342.82 L
1351.488 345.718 L
1353.516 342.018 L
1355.476 342.388 L
1357.638 335.825 L
1359.733 334.306 L
1361.828 330.111 L
1363.72 325.55 L
1365.748 321.942 L
1367.775 323.928 L
1369.938 323.692 L
1371.965 322.26 L
1373.925 317.246 L
1376.155 319.266 L
1378.182 315.414 L
1380.277 312.232 L
1382.305 312.073 L
1384.332 311.171 L
1386.495 309.732 L
1388.387 307.006 L
1390.482 306.356 L
1392.374 306.98 L
1394.604 304.545 L
1396.631 302.378 L
1398.726 304.71 L
1400.821 306.626 L
1402.781 307.461 L
1404.944 307.321 L
1406.971 308.06 L
1408.931 305.938 L
1411.161 304.8 L
1413.053 308.141 L
1415.081 309.002 L
1417.176 308.99 L
1419.271 305.208 L
1421.23 306.496 L
1423.393 310.62 L
1425.488 316.544 L
1427.38 320.136 L
1429.61 320.317 L
1431.637 333.294 L
1433.732 333.894 L
1435.827 347.541 L
1437.787 355.834 L
1439.882 356.676 L
1441.91 347.063 L
1443.937 341.798 L
1446.032 341.223 L
1448.127 343.492 L
1450.087 345.106 L
1452.249 351.99 L
1454.344 365.838 L
1456.236 369.916 L
1458.466 368.979 L
1460.494 368.944 L
1462.386 367.038 L
1464.549 367.166 L
1466.576 367.437 L
1468.536 369.483 L
1470.698 366.155 L
1472.793 365.531 L
1474.888 367.379 L
1476.916 367.253 L
1478.943 368.158 L
1481.038 371.489 L
1483.133 366.29 L
1485.093 370.515 L
1486.985 370.887 L
1489.215 368.151 L
1491.242 367.885 L
1493.135 368.819 L
1495.365 369.956 L
1497.392 371.794 L
1499.555 369.745 L
1501.582 371.319 L
1503.542 373.959 L
1505.704 372.085 L
1507.799 371.7 L
1509.894 373.411 L
1511.786 370.973 L
1513.881 369.352 L
1515.841 372.34 L
1518.004 373.458 L
1520.031 373.817 L
1521.991 374.216 L
1524.221 373.124 L
1526.248 369.255 L
1528.343 371.467 L
1530.371 370.807 L
1532.398 369.59 L
1534.561 370.21 L
1536.521 369.194 L
1538.548 369.872 L
1540.643 369.562 L
1542.738 366.758 L
1544.698 366.581 L
1546.86 367.597 L
1548.955 368.011 L
1550.847 368.291 L
1553.077 367.633 L
1555.105 367.763 L
1557.2 368.579 L
1559.295 369.89 L
1561.187 369.746 L
1563.079 369.402 L
1565.309 368.965 L
1567.404 369.816 L
1569.297 370.247 L
1571.527 372.198 L
1573.554 371.127 L
1575.649 372.213 L
1577.744 372.29 L
1579.704 374.098 L
1581.866 373.227 L
1583.961 371.849 L
1585.853 371.688 L
1587.948 369.674 L
1589.976 369.591 L
1592.003 369.183 L
1594.098 368.236 L
1596.193 366.43 L
1598.153 365.542 L
1600.315 364.933 L
1602.41 365.531 L
1604.302 365.16 L
1606.533 361.365 L
1608.56 362.858 L
1610.452 361.508 L
1612.615 362.567 L
1614.642 363.061 L
1616.602 363.153 L
1618.765 363.915 L
1620.859 362.514 L
1622.954 361.31 L
1624.982 362.595 L
1627.009 361.033 L
1629.104 358.038 L
1631.199 356.415 L
1633.159 359.385 L
1635.254 358.579 L
1637.349 359.695 L
1639.309 359.241 L
1641.471 357.194 L
1643.499 360.078 L
1645.458 358.691 L
1647.688 356.7 L
1649.716 357.486 L
1651.811 357.384 L
1653.838 355.609 L
1655.865 355.041 L
1658.028 355.069 L
1659.92 353.845 L
1662.015 353.08 L
1663.907 352.637 L
1666.138 351.98 L
1668.165 350.665 L
1670.26 351.343 L
1672.355 350.908 L
1674.315 349.302 L
1676.477 347.511 L
1678.505 344.461 L
1680.464 342.624 L
1682.694 339.754 L
1684.587 338.693 L
1686.547 337.648 L
1688.709 335.069 L
1690.804 335.677 L
1692.764 334.305 L
1694.926 332.471 L
S
GR
GS
[0.6 0 0 0.6 0 0] CT
0.851 0.325 0.098 RC
1 LJ
3.333 LW
N
285.898 337.222 M
287.993 339.309 L
290.088 335.577 L
292.048 336.492 L
294.211 338.536 L
296.238 336.157 L
298.198 332.747 L
300.428 331.583 L
302.32 335.806 L
304.347 339.989 L
306.442 337.344 L
308.537 340.661 L
310.497 336.885 L
312.66 335.455 L
314.755 340.823 L
316.647 342.357 L
318.877 342.008 L
320.904 340.56 L
322.999 340.145 L
325.094 339.653 L
326.986 340.348 L
328.946 339.413 L
331.109 338.872 L
333.204 337.357 L
335.096 337.215 L
337.326 331.919 L
339.354 330.719 L
341.448 331.146 L
343.543 329.962 L
345.503 328.075 L
347.666 326.147 L
349.761 327.536 L
351.653 324.95 L
353.815 323.123 L
355.843 325.9 L
357.735 325.907 L
359.965 327.148 L
362.06 330.382 L
364.155 328.055 L
366.182 326.1 L
368.21 325.89 L
370.305 321.843 L
372.4 324.517 L
374.36 326.172 L
376.252 323.805 L
378.482 323.665 L
380.509 323.751 L
382.402 323.68 L
384.632 325.396 L
386.659 324.185 L
388.822 321.89 L
390.849 319.794 L
392.809 319.479 L
394.904 317.707 L
397.066 308.68 L
399.161 308.857 L
401.053 307.688 L
403.148 310.002 L
405.108 308.684 L
407.271 305.781 L
409.298 304.833 L
411.258 302.947 L
413.488 294.776 L
415.515 299.191 L
417.61 300.746 L
419.638 300.403 L
421.665 308.634 L
423.828 313.921 L
425.72 312.047 L
427.815 321.154 L
429.707 320.516 L
431.937 318.642 L
433.965 306.035 L
436.059 305.901 L
438.154 303.15 L
440.114 301.705 L
442.277 299.477 L
444.304 297.47 L
446.264 295.003 L
448.494 301.031 L
450.454 298.962 L
452.414 296.607 L
454.576 294.818 L
456.671 291.73 L
458.563 299.089 L
460.793 307.993 L
462.821 304.943 L
464.916 304.35 L
467.011 302.932 L
468.971 299.95 L
471.133 287.279 L
473.228 288.109 L
475.12 280.043 L
477.013 286.873 L
479.243 286.348 L
481.202 277.512 L
483.365 263.957 L
485.46 258.7 L
487.42 260.586 L
489.582 251.031 L
491.677 258.421 L
493.569 257.528 L
495.8 242.973 L
497.827 248.613 L
499.719 264.867 L
501.882 271.061 L
503.909 258.658 L
505.869 256.59 L
508.031 261.45 L
510.126 266.329 L
512.221 270.327 L
514.249 277.422 L
516.276 278.727 L
518.371 305.033 L
520.466 300.513 L
522.426 318.181 L
524.318 327.076 L
526.548 327.424 L
528.576 304.696 L
530.468 301.893 L
532.698 282.218 L
534.725 282.229 L
536.888 299.288 L
538.915 299.209 L
540.875 309.965 L
543.037 309.223 L
545.132 315.101 L
547.227 313.238 L
549.187 314.765 L
551.215 298.818 L
553.174 307.4 L
555.404 309.778 L
557.432 299.53 L
559.527 302.542 L
561.622 295.859 L
563.582 293.64 L
565.744 293.022 L
567.771 295.75 L
569.731 290.853 L
571.961 283.316 L
573.854 276.426 L
575.881 270.802 L
577.976 274.664 L
580.071 271.414 L
582.031 264.643 L
584.193 246.72 L
586.288 255.591 L
588.18 272.378 L
590.411 272.943 L
592.438 270.718 L
594.533 272.633 L
596.628 274.874 L
598.52 272.695 L
600.48 254.533 L
602.642 243.54 L
604.737 248.69 L
606.63 244.224 L
608.86 238.092 L
610.887 234.343 L
612.982 252.562 L
615.077 254.513 L
617.037 262.544 L
619.199 267.552 L
621.294 279.503 L
623.187 287.272 L
625.281 278.627 L
627.309 267.527 L
629.336 279.662 L
631.431 270.585 L
633.526 261.31 L
635.486 260.023 L
637.648 255.36 L
639.743 276.536 L
641.636 272.691 L
643.866 281.179 L
645.893 288.032 L
647.785 279.931 L
650.015 282.035 L
652.043 283.009 L
653.935 270.329 L
656.165 276.948 L
658.193 281.813 L
660.355 286.305 L
662.383 290.386 L
664.342 295.608 L
666.505 309.025 L
668.6 306.5 L
670.695 290.78 L
672.587 293.071 L
674.682 295.367 L
676.642 294.288 L
678.804 292.689 L
680.832 295.079 L
682.791 285.613 L
685.022 283.886 L
687.049 278.892 L
689.144 271.748 L
691.171 273.845 L
693.199 271.871 L
695.361 267.87 L
697.253 266.225 L
699.348 263.752 L
701.241 260.439 L
703.471 254.716 L
705.498 248.52 L
707.593 249.196 L
709.688 248.754 L
711.648 244.182 L
713.81 230.052 L
715.838 227.253 L
717.797 217.344 L
720.028 225.794 L
721.92 223.637 L
723.947 226.236 L
726.042 224.087 L
728.137 229.855 L
730.097 239.665 L
732.259 233.087 L
734.354 223.208 L
736.247 216.838 L
738.477 182.053 L
740.504 204.074 L
742.599 202.329 L
744.694 197.233 L
746.654 143.508 L
748.749 141.72 L
750.776 217.524 L
752.804 245.65 L
754.898 244.08 L
756.993 233.696 L
758.953 195.413 L
761.116 188.511 L
763.211 171.758 L
765.103 154.894 L
767.333 174.333 L
769.36 168.24 L
771.253 161.118 L
773.415 173.268 L
775.443 145.386 L
777.402 144.958 L
779.565 148.43 L
781.66 124.515 L
783.755 114.777 L
785.782 116.486 L
787.81 150.309 L
789.905 190.479 L
792 161.302 L
793.959 154.761 L
795.852 154.675 L
798.082 149.616 L
800.109 157.911 L
802.001 167.604 L
804.231 145.293 L
806.259 172.316 L
808.421 192.518 L
810.449 205.265 L
812.409 223.891 L
814.571 227.487 L
816.666 234.309 L
818.761 234.73 L
820.653 238.921 L
822.748 230.051 L
824.708 238.632 L
826.87 228.789 L
828.898 223.503 L
830.858 211.701 L
833.088 209.569 L
835.115 220.562 L
837.21 221.404 L
839.237 219.281 L
841.265 215.756 L
843.427 220.705 L
845.387 213.867 L
847.415 203.458 L
849.51 201.075 L
851.604 181.326 L
853.564 177.386 L
855.727 185.793 L
857.822 184.369 L
859.714 191.566 L
861.944 208.412 L
863.971 221.016 L
866.066 228.559 L
868.161 230.644 L
870.054 219.237 L
872.013 222.324 L
874.176 231.45 L
876.271 247.741 L
878.163 252.526 L
880.393 246.911 L
882.421 249.196 L
884.516 250.03 L
886.611 252.651 L
888.57 256.829 L
890.733 262.264 L
892.828 262.916 L
894.72 262.779 L
896.815 273.082 L
898.842 275.207 L
900.87 268.118 L
902.965 275.915 L
905.06 283.081 L
907.019 296.458 L
909.182 289.575 L
911.277 293.529 L
913.169 294.471 L
915.399 289.335 L
917.427 291.712 L
919.319 289.912 L
921.481 286.006 L
923.509 272.118 L
925.469 266.116 L
927.631 271.456 L
929.726 271.404 L
931.821 265.149 L
933.848 253.396 L
935.876 267.493 L
937.971 267.679 L
940.066 267.356 L
942.026 277.519 L
944.12 279.532 L
946.215 275.594 L
948.175 270.705 L
950.338 260.566 L
952.365 262.943 L
954.325 257.227 L
956.555 249.459 L
958.582 252.985 L
960.677 256.665 L
962.705 244.11 L
964.732 236.69 L
966.895 236.535 L
968.787 228.528 L
970.882 223.156 L
972.774 234.742 L
975.004 240.665 L
977.032 254.251 L
979.127 264.48 L
981.222 249.03 L
983.181 247.575 L
985.344 257.909 L
987.371 260.111 L
989.331 257.698 L
991.561 251.328 L
993.453 250.024 L
995.481 245.429 L
997.576 240.742 L
999.671 249.049 L
1001.63 253.141 L
1003.793 259.877 L
1005.888 258.499 L
1007.78 260.61 L
1010.01 264.901 L
1012.038 267.238 L
1014.133 274.656 L
1016.228 277.896 L
1018.12 278.9 L
1020.012 278.485 L
1022.242 282.663 L
1024.337 283.746 L
1026.229 280.902 L
1028.459 283.725 L
1030.487 293.238 L
1032.582 298.19 L
1034.677 305.846 L
1036.637 312.936 L
1038.799 322.305 L
1040.894 317.225 L
1042.786 314.149 L
1044.949 306.177 L
1046.976 312.345 L
1048.936 316.915 L
1051.099 324.136 L
1053.193 331.543 L
1055.288 337.487 L
1057.316 344.513 L
1059.343 330.776 L
1061.438 322.104 L
1063.466 328.006 L
1065.493 334.523 L
1067.385 339.006 L
1069.615 338.447 L
1071.575 341.776 L
1073.535 332.606 L
1075.765 334.577 L
1077.792 332.03 L
1079.955 336.364 L
1081.982 335.061 L
1083.942 333.438 L
1086.105 330.533 L
1088.2 330.018 L
1090.295 331.977 L
1092.187 321.982 L
1094.282 312.142 L
1096.241 301.708 L
1098.404 297.009 L
1100.431 295.078 L
1102.391 297.073 L
1104.621 294.579 L
1106.649 286.346 L
1108.744 282.353 L
1110.771 268.893 L
1112.798 262.617 L
1114.961 270.423 L
1116.853 279.888 L
1118.948 279.451 L
1120.84 282.795 L
1123.07 294.7 L
1125.098 295.362 L
1127.193 294.841 L
1129.288 295.235 L
1131.248 294.079 L
1133.41 297.695 L
1135.438 302.334 L
1137.397 305.338 L
1139.627 310.725 L
1141.587 304.22 L
1143.547 297.164 L
1145.709 293.159 L
1147.804 289.593 L
1149.697 290.799 L
1151.927 289.103 L
1153.954 287.946 L
1156.049 291.611 L
1158.144 297.112 L
1160.104 299.112 L
1162.266 294.182 L
1164.361 294.131 L
1166.254 291.201 L
1168.349 285.069 L
1170.376 287.814 L
1172.403 289.15 L
1174.498 290.533 L
1176.593 296.037 L
1178.553 292.253 L
1180.716 294.725 L
1182.811 296.602 L
1184.703 292.959 L
1186.933 295.011 L
1188.96 301.617 L
1190.852 297.421 L
1193.015 296.328 L
1195.042 297.219 L
1197.002 297.289 L
1199.165 297.175 L
1201.26 297.499 L
1203.355 306.167 L
1205.382 318.029 L
1207.409 321.159 L
1209.504 314.141 L
1211.599 314.694 L
1213.559 314.554 L
1215.451 305.84 L
1217.681 309.215 L
1219.709 307.854 L
1221.533 301.412 L
1223.831 301.106 L
1225.859 298.95 L
1228.021 297.205 L
1230.048 299.634 L
1232.008 296.098 L
1234.171 292.677 L
1236.266 288.697 L
1238.361 279.585 L
1240.321 280.183 L
1242.416 279.527 L
1244.308 276.222 L
1246.538 275.221 L
1248.565 281.235 L
1250.66 281.695 L
1252.755 284.355 L
1254.715 289.25 L
1256.877 288.897 L
1258.905 294.031 L
1260.865 303.564 L
1263.095 314.542 L
1264.987 318.326 L
1267.014 324.616 L
1269.109 324.061 L
1271.204 326.261 L
1273.164 325.538 L
1275.327 333.813 L
1277.422 336.529 L
1279.314 353.664 L
1281.544 360.908 L
1283.571 356.185 L
1285.666 352.782 L
1287.761 350.614 L
1289.653 352.847 L
1291.546 340.45 L
1293.776 348.775 L
1295.871 350.634 L
1297.763 356.588 L
1299.993 368.581 L
1302.02 369.623 L
1304.115 376.665 L
1306.21 378.715 L
1308.17 371.126 L
1310.333 379.857 L
1312.428 377.172 L
1314.32 380.18 L
1316.415 380.638 L
1318.442 380.486 L
1320.469 382.976 L
1322.564 383.637 L
1324.659 378.233 L
1326.619 374.581 L
1328.782 382.356 L
1330.877 376.046 L
1332.769 371.601 L
1334.999 375.984 L
1337.026 375.206 L
1338.919 378.13 L
1341.149 379.492 L
1343.176 365.958 L
1345.068 361.703 L
1347.298 358.085 L
1349.326 357.88 L
1351.488 362.388 L
1353.516 357.479 L
1355.476 358.142 L
1357.638 348.865 L
1359.733 347.077 L
1361.828 341.592 L
1363.72 335.13 L
1365.748 329.977 L
1367.775 333.251 L
1369.938 333.245 L
1371.965 331.457 L
1373.925 324.212 L
1376.155 327.335 L
1378.182 321.632 L
1380.277 317.075 L
1382.305 316.953 L
1384.332 315.964 L
1386.495 313.837 L
1388.387 310.105 L
1390.482 308.816 L
1392.374 309.412 L
1394.604 306.057 L
1396.631 303.152 L
1398.726 306.54 L
1400.821 309.456 L
1402.781 310.739 L
1404.944 310.6 L
1406.971 311.817 L
1408.931 308.583 L
1411.161 306.871 L
1413.053 311.766 L
1415.081 312.792 L
1417.176 312.838 L
1419.271 307.303 L
1421.23 308.816 L
1423.393 314.736 L
1425.488 322.994 L
1427.38 327.712 L
1429.61 328.129 L
1431.637 346.172 L
1433.732 346.907 L
1435.827 365.684 L
1437.787 376.953 L
1439.882 378.192 L
1441.91 364.7 L
1443.937 357.131 L
1446.032 356.553 L
1448.127 359.658 L
1450.087 362.089 L
1452.249 371.16 L
1454.344 389.096 L
1456.236 396.286 L
1458.466 395.933 L
1460.494 394.937 L
1462.386 392.217 L
1464.549 393.167 L
1466.576 392.774 L
1468.536 394.961 L
1470.698 390.312 L
1472.793 389.548 L
1474.888 392.189 L
1476.916 392.22 L
1478.943 393.347 L
1481.038 398.25 L
1483.133 390.259 L
1485.093 396.306 L
1486.985 396.852 L
1489.215 392.849 L
1491.242 392.775 L
1493.135 394.563 L
1495.365 396.687 L
1497.392 399.352 L
1499.555 397.297 L
1501.582 399.382 L
1503.542 402.883 L
1505.704 400.012 L
1507.799 398.598 L
1509.894 400.826 L
1511.786 397.429 L
1513.881 395.124 L
1515.841 399.447 L
1518.004 401.445 L
1520.031 401.718 L
1521.991 402.992 L
1524.221 402.373 L
1526.248 397.517 L
1528.343 400.193 L
1530.371 399.427 L
1532.398 398.092 L
1534.561 399.119 L
1536.521 397.495 L
1538.548 397.996 L
1540.643 398.057 L
1542.738 394.815 L
1544.698 394.444 L
1546.86 396.043 L
1548.955 396.544 L
1550.847 396.849 L
1553.077 395.816 L
1555.105 396.166 L
1557.2 397.019 L
1559.295 398.408 L
1561.187 398.426 L
1563.079 397.998 L
1565.309 397.652 L
1567.404 398.019 L
1569.297 397.947 L
1571.527 400.453 L
1573.554 398.643 L
1575.649 400.413 L
1577.744 400.653 L
1579.704 402.823 L
1581.866 401.095 L
1583.961 399.799 L
1585.853 399.599 L
1587.948 396.674 L
1589.976 396.653 L
1592.003 396.425 L
1594.098 395.052 L
1596.193 392.483 L
1598.153 391.614 L
1600.315 390.52 L
1602.41 391.582 L
1604.302 391.373 L
1606.533 386.211 L
1608.56 389.008 L
1610.452 386.656 L
1612.615 388.25 L
1614.642 388.743 L
1616.602 388.747 L
1618.765 389.445 L
1620.859 387.813 L
1622.954 386.172 L
1624.982 388.178 L
1627.009 385.893 L
1629.104 381.771 L
1631.199 379.488 L
1633.159 384.098 L
1635.254 383.282 L
1637.349 384.758 L
1639.309 384.06 L
1641.471 381.262 L
1643.499 385.713 L
1645.458 383.893 L
1647.688 380.989 L
1649.716 382.056 L
1651.811 381.567 L
1653.838 378.257 L
1655.865 377.374 L
1658.028 377.439 L
1659.92 375.911 L
1662.015 374.88 L
1663.907 374.51 L
1666.138 373.78 L
1668.165 371.856 L
1670.26 372.806 L
1672.355 372.5 L
1674.315 370.012 L
1676.477 367.541 L
1678.505 363.358 L
1680.464 360.911 L
1682.694 356.563 L
1684.587 354.919 L
1686.547 353.752 L
1688.709 349.968 L
1690.804 350.971 L
1692.764 349.063 L
1694.926 346.481 L
S
GR
GS
[0.6 0 0 0.6 0 0] CT
0.929 0.694 0.125 RC
1 LJ
3.333 LW
N
285.898 327.108 M
287.993 323.738 L
290.088 322.92 L
292.048 326.408 L
294.211 325.809 L
296.238 327.311 L
298.198 328.639 L
300.428 323.681 L
302.32 327.073 L
304.347 327.448 L
306.442 330.165 L
308.537 326.637 L
310.497 325.08 L
312.66 323.904 L
314.755 324.637 L
316.647 324.647 L
318.877 325.046 L
320.904 325.818 L
322.999 326.778 L
325.094 327.245 L
326.986 325.391 L
328.946 324.624 L
331.109 325.775 L
333.204 325.489 L
335.096 324.401 L
337.326 325.367 L
339.354 323.786 L
341.448 323.173 L
343.543 321.799 L
345.503 323.694 L
347.666 322.582 L
349.761 322.074 L
351.653 321.751 L
353.815 320.04 L
355.843 320.16 L
357.735 321.724 L
359.965 322.667 L
362.06 319.661 L
364.155 320.097 L
366.182 321.993 L
368.21 322 L
370.305 321.692 L
372.4 321.388 L
374.36 319.091 L
376.252 319.231 L
378.482 320.436 L
380.509 321.162 L
382.402 321.014 L
384.632 320.872 L
386.659 320.372 L
388.822 319.621 L
390.849 315.964 L
392.809 315.796 L
394.904 315.201 L
397.066 307.467 L
399.161 305.941 L
401.053 301.61 L
403.148 307.179 L
405.108 306.388 L
407.271 304.76 L
409.298 301.414 L
411.258 297.72 L
413.488 288.606 L
415.515 296.329 L
417.61 299.183 L
419.638 297.297 L
421.665 308.601 L
423.828 311.22 L
425.72 308.98 L
427.815 315.111 L
429.707 307.652 L
431.937 307.687 L
433.965 297.792 L
436.059 302.079 L
438.154 296.646 L
440.114 296.282 L
442.277 288.368 L
444.304 286.783 L
446.264 286.293 L
448.494 291.019 L
450.454 290.292 L
452.414 286.778 L
454.576 283.553 L
456.671 285.367 L
458.563 280.513 L
460.793 281.698 L
462.821 291.61 L
464.916 291.337 L
467.011 288.439 L
468.971 287.016 L
471.133 276.682 L
473.228 278.335 L
475.12 278.121 L
477.013 274.142 L
479.243 277.193 L
481.202 271.645 L
483.365 268.553 L
485.46 273.676 L
487.42 266.574 L
489.582 251.701 L
491.677 269.953 L
493.569 256.349 L
495.8 258.025 L
497.827 246.063 L
499.719 266.244 L
501.882 259.358 L
503.909 242.444 L
505.869 248.152 L
508.031 246.461 L
510.126 249.77 L
512.221 249.998 L
514.249 253.392 L
516.276 257.91 L
518.371 267.822 L
520.466 275.609 L
522.426 270.303 L
524.318 277.03 L
526.548 285.26 L
528.576 273.763 L
530.468 269.759 L
532.698 261.4 L
534.725 258.763 L
536.888 276.172 L
538.915 278.146 L
540.875 281.516 L
543.037 278.578 L
545.132 281.109 L
547.227 277.043 L
549.187 277.391 L
551.215 276.47 L
553.174 277.109 L
555.404 277.493 L
557.432 277.676 L
559.527 277.296 L
561.622 272.601 L
563.582 272.917 L
565.744 274.075 L
567.771 275.56 L
569.731 274.346 L
571.961 271.846 L
573.854 269.431 L
575.881 267.645 L
577.976 267.508 L
580.071 266.547 L
582.031 265.726 L
584.193 251.592 L
586.288 258.984 L
588.18 263.668 L
590.411 266.544 L
592.438 269.073 L
594.533 264.22 L
596.628 260.321 L
598.52 261.136 L
600.48 250.968 L
602.642 243.088 L
604.737 244.343 L
606.63 242.734 L
608.86 243.486 L
610.887 234.847 L
612.982 240.57 L
615.077 247.971 L
617.037 251.666 L
619.199 254.921 L
621.294 252.333 L
623.187 253.86 L
625.281 248.727 L
627.309 237.252 L
629.336 243.421 L
631.431 244.841 L
633.526 242.802 L
635.486 238.672 L
637.648 233.238 L
639.743 241.814 L
641.636 238.132 L
643.866 244.272 L
645.893 243.799 L
647.785 246.493 L
650.015 247.195 L
652.043 247.576 L
653.935 242.564 L
656.165 244.054 L
658.193 244.158 L
660.355 246.656 L
662.383 248.29 L
664.342 251.385 L
666.505 258.031 L
668.6 264.293 L
670.695 253.425 L
672.587 251.414 L
674.682 251.087 L
676.642 250.838 L
678.804 251.152 L
680.832 254.509 L
682.791 251.847 L
685.022 254.286 L
687.049 252.578 L
689.144 249.174 L
691.171 249.679 L
693.199 243.45 L
695.361 240.165 L
697.253 238.543 L
699.348 237.597 L
701.241 236.302 L
703.471 233.305 L
705.498 228.163 L
707.593 229.7 L
709.688 232.516 L
711.648 231.045 L
713.81 221.325 L
715.838 225.385 L
717.797 219.109 L
720.028 224.102 L
721.92 218.289 L
723.947 219.293 L
726.042 215.596 L
728.137 220.862 L
730.097 226.218 L
732.259 221.733 L
734.354 217.061 L
736.247 212.842 L
738.477 187.049 L
740.504 193.924 L
742.599 193.491 L
744.694 175.19 L
746.654 148.579 L
748.749 150.692 L
750.776 180.809 L
752.804 189.85 L
754.898 197.15 L
756.993 183.039 L
758.953 170.816 L
761.116 159.436 L
763.211 148.029 L
765.103 147.905 L
767.333 152.279 L
769.36 148.04 L
771.253 130.781 L
773.415 130.351 L
775.443 118.905 L
777.402 133.448 L
779.565 125.618 L
781.66 112.806 L
783.755 95.049 L
785.782 85.366 L
787.81 101.833 L
789.905 137.958 L
792 115.616 L
793.959 112.581 L
795.852 117.762 L
798.082 118.723 L
800.109 126.457 L
802.001 125.272 L
804.231 113.882 L
806.259 124.278 L
808.421 143.751 L
810.449 157.183 L
812.409 177.718 L
814.571 174.359 L
816.666 181.928 L
818.761 172.6 L
820.653 184.884 L
822.748 179.201 L
824.708 185.916 L
826.87 175.688 L
828.898 172.768 L
830.858 155.592 L
833.088 152.915 L
835.115 163.077 L
837.21 157.549 L
839.237 160.966 L
841.265 156.6 L
843.427 160.178 L
845.387 152.457 L
847.415 143.454 L
849.51 136.967 L
851.604 114.408 L
853.564 116.681 L
855.727 135.739 L
857.822 139.744 L
859.714 146.885 L
861.944 160.27 L
863.971 161.625 L
866.066 160.262 L
868.161 169.894 L
870.054 153.378 L
872.013 157.511 L
874.176 160.982 L
876.271 185.215 L
878.163 185.147 L
880.393 178.029 L
882.421 184.611 L
884.516 182.78 L
886.611 189.172 L
888.57 197.189 L
890.733 210.631 L
892.828 207.96 L
894.72 231.688 L
896.815 247.3 L
898.842 246.033 L
900.87 230.186 L
902.965 242.293 L
905.06 240.388 L
907.019 250.495 L
909.182 238.425 L
911.277 242.981 L
913.169 246.857 L
915.399 246.122 L
917.427 248.387 L
919.319 249.955 L
921.481 243.92 L
923.509 228.591 L
925.469 224.444 L
927.631 225.563 L
929.726 219.989 L
931.821 214.005 L
933.848 200.521 L
935.876 215.205 L
937.971 213.306 L
940.066 215.746 L
942.026 225.916 L
944.12 228.615 L
946.215 219.8 L
948.175 213.092 L
950.338 208.506 L
952.365 216.904 L
954.325 208.371 L
956.555 209.232 L
958.582 217.442 L
960.677 221.702 L
962.705 214.647 L
964.732 214.46 L
966.895 218.395 L
968.787 211.373 L
970.882 212.979 L
972.774 216.767 L
975.004 225.235 L
977.032 234.729 L
979.127 241.292 L
981.222 232.429 L
983.181 231.022 L
985.344 238.531 L
987.371 240.974 L
989.331 238.491 L
991.561 228.697 L
993.453 226.392 L
995.481 224.163 L
997.576 216.277 L
999.671 225.043 L
1001.63 228.083 L
1003.793 229.246 L
1005.888 217.042 L
1007.78 217.566 L
1010.01 221.71 L
1012.038 230.157 L
1014.133 231.724 L
1016.228 233.388 L
1018.12 233.558 L
1020.012 232.7 L
1022.242 232.706 L
1024.337 231.165 L
1026.229 226.881 L
1028.459 229.928 L
1030.487 235.176 L
1032.582 242.831 L
1034.677 241.416 L
1036.637 241.834 L
1038.799 255.721 L
1040.894 243.978 L
1042.786 244.752 L
1044.949 241.806 L
1046.976 239.858 L
1048.936 244.881 L
1051.099 245.776 L
1053.193 255.176 L
1055.288 254.264 L
1057.316 258.367 L
1059.343 253.552 L
1061.438 251.716 L
1063.466 256.389 L
1065.493 262.585 L
1067.385 269.561 L
1069.615 268.753 L
1071.575 270.618 L
1073.535 270.187 L
1075.765 278.406 L
1077.792 278.827 L
1079.955 286.319 L
1081.982 287.437 L
1083.942 286.821 L
1086.105 279.171 L
1088.2 278.794 L
1090.295 283.397 L
1092.187 271.155 L
1094.282 258.915 L
1096.241 254.231 L
1098.404 251.899 L
1100.431 247.127 L
1102.391 253.541 L
1104.621 252.577 L
1106.649 243.199 L
1108.744 240.225 L
1110.771 239.825 L
1112.798 240.666 L
1114.961 245.887 L
1116.853 252.347 L
1118.948 252.56 L
1120.84 256.48 L
1123.07 271.529 L
1125.098 273.609 L
1127.193 268.62 L
1129.288 272.172 L
1131.248 274.966 L
1133.41 278.512 L
1135.438 283.403 L
1137.397 287.342 L
1139.627 286.46 L
1141.587 275.241 L
1143.547 269.688 L
1145.709 263.98 L
1147.804 260.787 L
1149.697 264.013 L
1151.927 262.886 L
1153.954 258.74 L
1156.049 263.855 L
1158.144 271.424 L
1160.104 278.215 L
1162.266 270.811 L
1164.361 268.768 L
1166.254 267.389 L
1168.349 259.399 L
1170.376 263.633 L
1172.403 264.868 L
1174.498 267.825 L
1176.593 278.707 L
1178.553 271.034 L
1180.716 275.654 L
1182.811 281.753 L
1184.703 282.882 L
1186.933 285.231 L
1188.96 288.713 L
1190.852 286.342 L
1193.015 285.654 L
1195.042 284.58 L
1197.002 287.223 L
1199.165 290.461 L
1201.26 289.503 L
1203.355 298.409 L
1205.382 309.111 L
1207.409 304.328 L
1209.504 303.757 L
1211.599 302.302 L
1213.559 302.734 L
1215.451 289.755 L
1217.681 288.969 L
1219.709 288.477 L
1221.533 282.065 L
1223.831 278.286 L
1225.859 275.801 L
1228.021 273.391 L
1230.048 274.442 L
1232.008 273.043 L
1234.171 270.464 L
1236.266 265.027 L
1238.361 265.341 L
1240.321 268.819 L
1242.416 276.656 L
1244.308 273.505 L
1246.538 271.83 L
1248.565 276.589 L
1250.66 278.449 L
1252.755 282.709 L
1254.715 280.618 L
1256.877 282.931 L
1258.905 289.307 L
1260.865 294.816 L
1263.095 294.07 L
1264.987 297.624 L
1267.014 296.426 L
1269.109 288.751 L
1271.204 287.216 L
1273.164 287.177 L
1275.327 295.255 L
1277.422 298.228 L
1279.314 301.333 L
1281.544 308.857 L
1283.571 296.912 L
1285.666 291.134 L
1287.761 292.614 L
1289.653 294.94 L
1291.546 284.243 L
1293.776 291.916 L
1295.871 293.074 L
1297.763 297.019 L
1299.993 304.245 L
1302.02 312.009 L
1304.115 321.853 L
1306.21 315.604 L
1308.17 309.604 L
1310.333 318.813 L
1312.428 315.973 L
1314.32 322.544 L
1316.415 319.533 L
1318.442 319.373 L
1320.469 331.5 L
1322.564 327.813 L
1324.659 305.213 L
1326.619 306.502 L
1328.782 318.13 L
1330.877 310.26 L
1332.769 310.137 L
1334.999 312.106 L
1337.026 314.517 L
1338.919 318.246 L
1341.149 321.306 L
1343.176 306.262 L
1345.068 303.392 L
1347.298 304.89 L
1349.326 307.721 L
1351.488 315.564 L
1353.516 316.201 L
1355.476 318.22 L
1357.638 311.822 L
1359.733 315.339 L
1361.828 318.309 L
1363.72 313.887 L
1365.748 309.682 L
1367.775 317.804 L
1369.938 322.322 L
1371.965 324.115 L
1373.925 316.894 L
1376.155 322.416 L
1378.182 315.173 L
1380.277 310.086 L
1382.305 310.924 L
1384.332 314.568 L
1386.495 311.538 L
1388.387 311.12 L
1390.482 304.15 L
1392.374 299.837 L
1394.604 298.564 L
1396.631 298.589 L
1398.726 302.076 L
1400.821 307.042 L
1402.781 309.426 L
1404.944 310.178 L
1406.971 313.376 L
1408.931 307.938 L
1411.161 305.675 L
1413.053 310.893 L
1415.081 308.518 L
1417.176 309.368 L
1419.271 303.887 L
1421.23 300.799 L
1423.393 305.472 L
1425.488 309.676 L
1427.38 308.628 L
1429.61 311.015 L
1431.637 319.586 L
1433.732 317.996 L
1435.827 325.178 L
1437.787 326.818 L
1439.882 328.136 L
1441.91 322.636 L
1443.937 316.05 L
1446.032 318.669 L
1448.127 318.781 L
1450.087 321.927 L
1452.249 319.017 L
1454.344 305.942 L
1456.236 332.269 L
1458.466 348.852 L
1460.494 333.507 L
1462.386 330.953 L
1464.549 342.807 L
1466.576 332.458 L
1468.536 324.344 L
1470.698 323.862 L
1472.793 325.112 L
1474.888 327.353 L
1476.916 330.518 L
1478.943 328.77 L
1481.038 333.674 L
1483.133 320.265 L
1485.093 325.229 L
1486.985 325.294 L
1489.215 321.666 L
1491.242 325.73 L
1493.135 332.97 L
1495.365 340.935 L
1497.392 342.391 L
1499.555 353.591 L
1501.582 352.036 L
1503.542 349.529 L
1505.704 345.42 L
1507.799 334.251 L
1509.894 331.957 L
1511.786 332.195 L
1513.881 330.897 L
1515.841 334.08 L
1518.004 340.277 L
1520.031 336.764 L
1521.991 345.818 L
1524.221 359.467 L
1526.248 366.803 L
1528.343 361.415 L
1530.371 363.609 L
1532.398 368.478 L
1534.561 370.299 L
1536.521 366.863 L
1538.548 360.548 L
1540.643 367.503 L
1542.738 376.588 L
1544.698 374.554 L
1546.86 377.955 L
1548.955 376.705 L
1550.847 375.239 L
1553.077 373.569 L
1555.105 375.899 L
1557.2 372.22 L
1559.295 366.466 L
1561.187 369.18 L
1563.079 369.91 L
1565.309 373.932 L
1567.404 362.742 L
1569.297 354.119 L
1571.527 351.777 L
1573.554 347.649 L
1575.649 351.025 L
1577.744 352.615 L
1579.704 347.835 L
1581.866 341.601 L
1583.961 350.105 L
1585.853 350.652 L
1587.948 349.27 L
1589.976 350.829 L
1592.003 355.346 L
1594.098 354.214 L
1596.193 353.311 L
1598.153 358.41 L
1600.315 354.641 L
1602.41 358.084 L
1604.302 362.174 L
1606.533 362.799 L
1608.56 373.085 L
1610.452 366.02 L
1612.615 367.694 L
1614.642 365.034 L
1616.602 363.047 L
1618.765 358.119 L
1620.859 362.213 L
1622.954 361.448 L
1624.982 365.146 L
1627.009 362.866 L
1629.104 361.231 L
1631.199 359.853 L
1633.159 367.648 L
1635.254 371.625 L
1637.349 371.244 L
1639.309 370.477 L
1641.471 370.053 L
1643.499 378.346 L
1645.458 379.136 L
1647.688 376.359 L
1649.716 375.821 L
1651.811 370.485 L
1653.838 357.845 L
1655.865 356.144 L
1658.028 356.601 L
1659.92 358.548 L
1662.015 357.832 L
1663.907 360.42 L
1666.138 362.281 L
1668.165 360.331 L
1670.26 360.508 L
1672.355 364.645 L
1674.315 360.153 L
1676.477 359.34 L
1678.505 358.224 L
1680.464 358.658 L
1682.694 352.177 L
1684.587 348.438 L
1686.547 351.861 L
1688.709 347.518 L
1690.804 349.917 L
1692.764 349.158 L
1694.926 347.199 L
S
GR
GS
[0.6 0 0 0.6 0 0] CT
1 GC
N
602 217 M
602 96 L
262 96 L
262 217 L
cp
f
GR
GS
[0.6 0 0 0.6 192.47592 70.58046] CT
/Helvetica 30 F
GS
[1 0 0 1 0 0] CT
0 12 moveto 
1 -1 scale
(SRB3) t 
GR
GR
GS
[0.6 0 0 0.6 0 0] CT
0 0.447 0.741 RC
1 LJ
3.333 LW
N
267.004 117.634 M
317.04 117.634 L
S
GR
GS
[0.6 0 0 0.6 192.47592 93.9] CT
/Helvetica 30 F
GS
[1 0 0 1 0 0] CT
0 12 moveto 
1 -1 scale
(SRB3 bias corrected) t 
GR
GR
GS
[0.6 0 0 0.6 0 0] CT
0.851 0.325 0.098 RC
1 LJ
3.333 LW
N
267.004 156.5 M
317.04 156.5 L
S
GR
GS
[0.6 0 0 0.6 192.47592 117.21954] CT
/Helvetica 30 F
GS
[1 0 0 1 0 0] CT
0 12 moveto 
1 -1 scale
(yield 10Y) t 
GR
GR
GS
[0.6 0 0 0.6 0 0] CT
0.929 0.694 0.125 RC
1 LJ
3.333 LW
N
267.004 195.366 M
317.04 195.366 L
S
GR
GS
[0.6 0 0 0.6 0 0] CT
0.149 GC
10.0 ML
0.833 LW
N
262 217 M
262 96 L
602 96 L
602 217 L
cp
S
GR
GS
[0.6 0 0 0.6 0 0] CT
1 GC
N
249 881 M
1730 881 L
1730 552 L
249 552 L
cp
f
GR
GS
[0.6 0 0 0.6 0 0] CT
0.149 GC
2 setlinecap
1 LJ
0.833 LW
N
249 881 M
1730 881 L
S
GR
GS
[0.6 0 0 0.6 0 0] CT
0.149 GC
2 setlinecap
1 LJ
0.833 LW
N
249 552 M
1730 552 L
S
GR
GS
[0.6 0 0 0.6 0 0] CT
0.149 GC
2 setlinecap
1 LJ
0.833 LW
N
249 881 M
249 866.19 L
S
GR
GS
[0.6 0 0 0.6 0 0] CT
0.149 GC
2 setlinecap
1 LJ
0.833 LW
N
495.867 881 M
495.867 866.19 L
S
GR
GS
[0.6 0 0 0.6 0 0] CT
0.149 GC
2 setlinecap
1 LJ
0.833 LW
N
742.667 881 M
742.667 866.19 L
S
GR
GS
[0.6 0 0 0.6 0 0] CT
0.149 GC
2 setlinecap
1 LJ
0.833 LW
N
989.534 881 M
989.534 866.19 L
S
GR
GS
[0.6 0 0 0.6 0 0] CT
0.149 GC
2 setlinecap
1 LJ
0.833 LW
N
1236.333 881 M
1236.333 866.19 L
S
GR
GS
[0.6 0 0 0.6 0 0] CT
0.149 GC
2 setlinecap
1 LJ
0.833 LW
N
1483.2 881 M
1483.2 866.19 L
S
GR
GS
[0.6 0 0 0.6 0 0] CT
0.149 GC
2 setlinecap
1 LJ
0.833 LW
N
1730 881 M
1730 866.19 L
S
GR
GS
[0.6 0 0 0.6 0 0] CT
0.149 GC
2 setlinecap
1 LJ
0.833 LW
N
249 552 M
249 566.81 L
S
GR
GS
[0.6 0 0 0.6 0 0] CT
0.149 GC
2 setlinecap
1 LJ
0.833 LW
N
495.867 552 M
495.867 566.81 L
S
GR
GS
[0.6 0 0 0.6 0 0] CT
0.149 GC
2 setlinecap
1 LJ
0.833 LW
N
742.667 552 M
742.667 566.81 L
S
GR
GS
[0.6 0 0 0.6 0 0] CT
0.149 GC
2 setlinecap
1 LJ
0.833 LW
N
989.534 552 M
989.534 566.81 L
S
GR
GS
[0.6 0 0 0.6 0 0] CT
0.149 GC
2 setlinecap
1 LJ
0.833 LW
N
1236.333 552 M
1236.333 566.81 L
S
GR
GS
[0.6 0 0 0.6 0 0] CT
0.149 GC
2 setlinecap
1 LJ
0.833 LW
N
1483.2 552 M
1483.2 566.81 L
S
GR
GS
[0.6 0 0 0.6 0 0] CT
0.149 GC
2 setlinecap
1 LJ
0.833 LW
N
1730 552 M
1730 566.81 L
S
GR
GS
[0.6 0 0 0.6 149.39999 534.6] CT
0.149 GC
/Helvetica 33.333 F
GS
[1 0 0 1 0 0] CT
-51 34 moveto 
1 -1 scale
(Jan-60) t 
GR
GR
GS
[0.6 0 0 0.6 297.52026 534.6] CT
0.149 GC
/Helvetica 33.333 F
GS
[1 0 0 1 0 0] CT
-51 34 moveto 
1 -1 scale
(Jan-70) t 
GR
GR
GS
[0.6 0 0 0.6 445.59999 534.6] CT
0.149 GC
/Helvetica 33.333 F
GS
[1 0 0 1 0 0] CT
-51 34 moveto 
1 -1 scale
(Jan-80) t 
GR
GR
GS
[0.6 0 0 0.6 593.72026 534.6] CT
0.149 GC
/Helvetica 33.333 F
GS
[1 0 0 1 0 0] CT
-51 34 moveto 
1 -1 scale
(Jan-90) t 
GR
GR
GS
[0.6 0 0 0.6 741.79999 534.6] CT
0.149 GC
/Helvetica 33.333 F
GS
[1 0 0 1 0 0] CT
-51 34 moveto 
1 -1 scale
(Jan-00) t 
GR
GR
GS
[0.6 0 0 0.6 889.92023 534.6] CT
0.149 GC
/Helvetica 33.333 F
GS
[1 0 0 1 0 0] CT
-51 34 moveto 
1 -1 scale
(Jan-10) t 
GR
GR
GS
[0.6 0 0 0.6 1037.99996 534.6] CT
0.149 GC
/Helvetica 33.333 F
GS
[1 0 0 1 0 0] CT
-51 34 moveto 
1 -1 scale
(Jan-20) t 
GR
GR
GS
[0.6 0 0 0.6 0 0] CT
0.149 GC
2 setlinecap
1 LJ
0.833 LW
N
249 881 M
249 552 L
S
GR
GS
[0.6 0 0 0.6 0 0] CT
0.149 GC
2 setlinecap
1 LJ
0.833 LW
N
1730 881 M
1730 552 L
S
GR
GS
[0.6 0 0 0.6 0 0] CT
0.149 GC
2 setlinecap
1 LJ
0.833 LW
N
249 881 M
263.808 881 L
S
GR
GS
[0.6 0 0 0.6 0 0] CT
0.149 GC
2 setlinecap
1 LJ
0.833 LW
N
249 798.75 M
263.808 798.75 L
S
GR
GS
[0.6 0 0 0.6 0 0] CT
0.149 GC
2 setlinecap
1 LJ
0.833 LW
N
249 716.5 M
263.808 716.5 L
S
GR
GS
[0.6 0 0 0.6 0 0] CT
0.149 GC
2 setlinecap
1 LJ
0.833 LW
N
249 634.25 M
263.808 634.25 L
S
GR
GS
[0.6 0 0 0.6 0 0] CT
0.149 GC
2 setlinecap
1 LJ
0.833 LW
N
249 552 M
263.808 552 L
S
GR
GS
[0.6 0 0 0.6 0 0] CT
0.149 GC
2 setlinecap
1 LJ
0.833 LW
N
1730 881 M
1715.192 881 L
S
GR
GS
[0.6 0 0 0.6 0 0] CT
0.149 GC
2 setlinecap
1 LJ
0.833 LW
N
1730 798.75 M
1715.192 798.75 L
S
GR
GS
[0.6 0 0 0.6 0 0] CT
0.149 GC
2 setlinecap
1 LJ
0.833 LW
N
1730 716.5 M
1715.192 716.5 L
S
GR
GS
[0.6 0 0 0.6 0 0] CT
0.149 GC
2 setlinecap
1 LJ
0.833 LW
N
1730 634.25 M
1715.192 634.25 L
S
GR
GS
[0.6 0 0 0.6 0 0] CT
0.149 GC
2 setlinecap
1 LJ
0.833 LW
N
1730 552 M
1715.192 552 L
S
GR
GS
[0.6 0 0 0.6 143.39895 528.6] CT
0.149 GC
/Helvetica 33.333 F
GS
[1 0 0 1 0 0] CT
-30 13 moveto 
1 -1 scale
(-2) t 
GR
GR
GS
[0.6 0 0 0.6 143.39895 479.25] CT
0.149 GC
/Helvetica 33.333 F
GS
[1 0 0 1 0 0] CT
-19 13 moveto 
1 -1 scale
(0) t 
GR
GR
GS
[0.6 0 0 0.6 143.39895 429.9] CT
0.149 GC
/Helvetica 33.333 F
GS
[1 0 0 1 0 0] CT
-19 13 moveto 
1 -1 scale
(2) t 
GR
GR
GS
[0.6 0 0 0.6 143.39895 380.55] CT
0.149 GC
/Helvetica 33.333 F
GS
[1 0 0 1 0 0] CT
-19 13 moveto 
1 -1 scale
(4) t 
GR
GR
GS
[0.6 0 0 0.6 143.39895 331.2] CT
0.149 GC
/Helvetica 33.333 F
GS
[1 0 0 1 0 0] CT
-19 13 moveto 
1 -1 scale
(6) t 
GR
GR
GS
[0 -0.6 0.6 0 122.40038 429.89989] CT
0.149 GC
/Helvetica 36.667 F
GS
[1 0 0 1 0 0] CT
-37 -9 moveto 
1 -1 scale
(\(pct\)) t 
GR
GR
GS
[0.6 0 0 0.6 593.69997 327.9] CT
/Helvetica-Bold 36.667 F
GS
[1 0 0 1 0 0] CT
-192 -9 moveto 
1 -1 scale
(10-year term premium) t 
GR
GR
GS
[0.6 0 0 0.6 0 0] CT
0 0.447 0.741 RC
1 LJ
3.333 LW
N
285.898 799.151 M
287.993 790.117 L
290.088 793.089 L
292.048 799.562 L
294.211 795.317 L
296.238 798.848 L
298.198 804.914 L
300.428 801.146 L
302.32 801.743 L
304.347 796.611 L
306.442 805.914 L
308.537 794.122 L
310.497 795.204 L
312.66 795.941 L
314.755 788.755 L
316.647 786.649 L
318.877 788.845 L
320.904 792.374 L
322.999 796.164 L
325.094 795.324 L
326.986 791.99 L
328.946 791.543 L
331.109 793.969 L
333.204 795.26 L
335.096 793.127 L
337.326 802.812 L
339.354 802.369 L
341.448 800.07 L
343.543 799.584 L
345.503 804.559 L
347.666 805.463 L
349.761 802.649 L
351.653 799.373 L
353.815 802.273 L
355.843 801.953 L
357.735 805.598 L
359.965 805.63 L
362.06 794.979 L
364.155 798.969 L
366.182 805.402 L
368.21 805.662 L
370.305 810.122 L
372.4 804.617 L
374.36 800.648 L
376.252 803.995 L
378.482 805.395 L
380.509 806.404 L
382.402 805.473 L
384.632 802.825 L
386.659 803.991 L
388.822 805.415 L
390.849 803.273 L
392.809 801.291 L
394.904 801.467 L
397.066 800.218 L
399.161 797.37 L
401.053 783.218 L
403.148 795.814 L
405.108 797.899 L
407.271 803.32 L
409.298 795.868 L
411.258 789.79 L
413.488 777.47 L
415.515 789.444 L
417.61 795.296 L
419.638 791.578 L
421.665 801.082 L
423.828 799.777 L
425.72 791.979 L
427.815 796.866 L
429.707 783.554 L
431.937 787.439 L
433.965 785.957 L
436.059 796.479 L
438.154 784.896 L
440.114 788.719 L
442.277 776.574 L
444.304 774.555 L
446.264 777.98 L
448.494 779.657 L
450.454 773.562 L
452.414 772.785 L
454.576 771.639 L
456.671 775.931 L
458.563 765.741 L
460.793 757.678 L
462.821 772.637 L
464.916 772.879 L
467.011 769.043 L
468.971 768.903 L
471.133 765.392 L
473.228 770.068 L
475.12 783.415 L
477.013 766.716 L
479.243 771.131 L
481.202 777.773 L
483.365 791.964 L
485.46 807.884 L
487.42 789.768 L
489.582 771.053 L
491.677 793.615 L
493.569 772.075 L
495.8 790.177 L
497.827 760.44 L
499.719 776.026 L
501.882 757.605 L
503.909 743.661 L
505.869 758.997 L
508.031 748.491 L
510.126 747.954 L
512.221 742.019 L
514.249 738.52 L
516.276 747.729 L
518.371 728.744 L
520.466 750.42 L
522.426 713.477 L
524.318 713.856 L
526.548 731.939 L
528.576 740.838 L
530.468 736.4 L
532.698 750.214 L
534.725 743.406 L
536.888 752.821 L
538.915 756.852 L
540.875 746.632 L
543.037 742.789 L
545.132 740.261 L
547.227 734.957 L
549.187 733.328 L
551.215 755.735 L
553.174 743.718 L
555.404 740.473 L
557.432 755.892 L
559.527 751.934 L
561.622 750.758 L
563.582 754.759 L
565.744 758.587 L
567.771 756.984 L
569.731 761.364 L
571.961 767.301 L
573.854 771.825 L
575.881 776.746 L
577.976 771.283 L
580.071 782.078 L
582.031 790.93 L
584.193 781.435 L
586.288 780.13 L
588.18 767.724 L
590.411 768.677 L
592.438 775.04 L
594.533 764.425 L
596.628 753.363 L
598.52 756.389 L
600.48 763.171 L
602.642 764.832 L
604.737 759.779 L
606.63 764.096 L
608.86 771.2 L
610.887 763.563 L
612.982 749.788 L
615.077 757.054 L
617.037 755.487 L
619.199 752.573 L
621.294 732.039 L
623.187 722.762 L
625.281 726.657 L
627.309 721.662 L
629.336 715.994 L
631.431 730.845 L
633.526 740.797 L
635.486 734.597 L
637.648 730.595 L
639.743 716.347 L
641.636 715.7 L
643.866 715.367 L
645.893 703.489 L
647.785 722.138 L
650.015 720.525 L
652.043 719.714 L
653.935 728.46 L
656.165 721.122 L
658.193 714.27 L
660.355 712.652 L
662.383 710.288 L
664.342 709.253 L
666.505 706.103 L
668.6 718.88 L
670.695 719.727 L
672.587 712.51 L
674.682 708.286 L
676.642 709.676 L
678.804 713.113 L
680.832 716.494 L
682.791 723.988 L
685.022 731.345 L
687.049 734.991 L
689.144 738.141 L
691.171 736.15 L
693.199 726.683 L
695.361 725.817 L
697.253 724.897 L
699.348 726.741 L
701.241 729.521 L
703.471 732.273 L
705.498 730.754 L
707.593 733.463 L
709.688 738.434 L
711.648 741.431 L
713.81 744.469 L
715.838 755.539 L
717.797 757.791 L
720.028 755.765 L
721.92 746.626 L
723.947 743.922 L
726.042 739.775 L
728.137 741.169 L
730.097 736.529 L
732.259 737.608 L
734.354 742.733 L
736.247 743.779 L
738.477 741.777 L
740.504 725.42 L
742.599 728.443 L
744.694 700.64 L
746.654 729.393 L
748.749 737.924 L
750.776 679.971 L
752.804 662.808 L
754.898 678.276 L
756.993 666.856 L
758.953 692.396 L
761.116 683.998 L
763.211 679.574 L
765.103 699.997 L
767.333 676.579 L
769.36 677.163 L
771.253 657.813 L
773.415 639.788 L
775.443 656.901 L
777.402 683.774 L
779.565 665.781 L
781.66 674.283 L
783.755 657.272 L
785.782 638.742 L
787.81 617.195 L
789.905 635.631 L
792 633.745 L
793.959 634.92 L
795.852 648.559 L
798.082 650.735 L
800.109 656.828 L
802.001 642.541 L
804.231 650.099 L
806.259 636.487 L
808.421 649.197 L
810.449 657.526 L
812.409 666.911 L
814.571 651.572 L
816.666 655.21 L
818.761 637.189 L
820.653 656.267 L
822.748 657.442 L
824.708 658.082 L
826.87 651.734 L
828.898 653.368 L
830.858 637.526 L
833.088 635.85 L
835.115 639.113 L
837.21 627.184 L
839.237 636.081 L
841.265 633.242 L
843.427 632.224 L
845.387 627.142 L
847.415 623.267 L
849.51 613.652 L
851.604 602.326 L
853.564 612.606 L
855.727 638.275 L
857.822 645.606 L
859.714 648.126 L
861.944 651.816 L
863.971 635.418 L
866.066 622.474 L
868.161 637.476 L
870.054 621.357 L
872.013 626.785 L
874.176 621.162 L
876.271 646.462 L
878.163 636.661 L
880.393 630.945 L
882.421 642.497 L
884.516 639.156 L
886.611 647.555 L
888.57 657.308 L
890.733 677.674 L
892.828 671.288 L
894.72 717.591 L
896.815 733.019 L
898.842 727.812 L
900.87 706.035 L
902.965 719.096 L
905.06 706.365 L
907.019 707.935 L
909.182 693.567 L
911.277 697.403 L
913.169 703.975 L
915.399 710.44 L
917.427 711.06 L
919.319 717.058 L
921.481 710.276 L
923.509 700.57 L
925.469 700.761 L
927.631 693.384 L
929.726 682.713 L
931.821 679.722 L
933.848 670.249 L
935.876 678.167 L
937.971 674.599 L
940.066 682.21 L
942.026 688.224 L
944.12 691.34 L
946.215 678.319 L
948.175 673.692 L
950.338 678.194 L
952.365 691.437 L
954.325 684.258 L
956.555 694.49 L
958.582 705.294 L
960.677 709.213 L
962.705 711.499 L
964.732 720.161 L
966.895 726.884 L
968.787 724.692 L
970.882 735.841 L
972.774 727.226 L
975.004 734.366 L
977.032 733.955 L
979.127 733.197 L
981.222 737.572 L
983.181 736.245 L
985.344 735.794 L
987.371 736.975 L
989.331 736.3 L
991.561 725.854 L
993.453 723.309 L
995.481 725.699 L
997.576 717.259 L
999.671 721.476 L
1001.63 722.311 L
1003.793 716.163 L
1005.888 694.23 L
1007.78 692.53 L
1010.01 695.047 L
1012.038 708.24 L
1014.133 700.849 L
1016.228 699.744 L
1018.12 698.14 L
1020.012 696.518 L
1022.242 691.097 L
1024.337 686.498 L
1026.229 681.577 L
1028.459 682.66 L
1030.487 680.276 L
1032.582 689.001 L
1034.677 676.712 L
1036.637 667.742 L
1038.799 681.266 L
1040.894 663.62 L
1042.786 668.634 L
1044.949 672.895 L
1046.976 660.556 L
1048.936 665.228 L
1051.099 659.127 L
1053.193 667.408 L
1055.288 659.388 L
1057.316 658.598 L
1059.343 664.128 L
1061.438 671.678 L
1063.466 671.445 L
1065.493 676.999 L
1067.385 685.014 L
1069.615 684.478 L
1071.575 683.144 L
1073.535 696.65 L
1075.765 710.46 L
1077.792 713.845 L
1079.955 722.998 L
1081.982 727.364 L
1083.942 728.246 L
1086.105 716.725 L
1088.2 717.04 L
1090.295 723.474 L
1092.187 713.279 L
1094.282 701.759 L
1096.241 708.339 L
1098.404 711.605 L
1100.431 704.702 L
1102.391 714.104 L
1104.621 715.347 L
1106.649 708.713 L
1108.744 707.91 L
1110.771 726.862 L
1112.798 739.203 L
1114.961 735.532 L
1116.853 735.563 L
1118.948 736.451 L
1120.84 739.625 L
1123.07 752.684 L
1125.098 756.228 L
1127.193 746.184 L
1129.288 752.869 L
1131.248 760.403 L
1133.41 761.566 L
1135.438 764.36 L
1137.397 768.343 L
1139.627 758.272 L
1141.587 746.565 L
1143.547 746.299 L
1145.709 740.451 L
1147.804 738.709 L
1149.697 743.761 L
1151.927 743.149 L
1153.954 737.665 L
1156.049 741.756 L
1158.144 748.16 L
1160.104 759.444 L
1162.266 750.974 L
1164.361 747.271 L
1166.254 748.738 L
1168.349 741.766 L
1170.376 746.415 L
1172.403 747.423 L
1174.498 750.736 L
1176.593 764.057 L
1178.553 754.645 L
1180.716 760.38 L
1182.811 769.565 L
1184.703 776.584 L
1186.933 778.073 L
1188.96 776.299 L
1190.852 777.193 L
1193.015 777.415 L
1195.042 774.773 L
1197.002 779.22 L
1199.165 785.75 L
1201.26 783.475 L
1203.355 789.184 L
1205.382 795.66 L
1207.409 782.304 L
1209.504 789.127 L
1211.599 785.551 L
1213.559 788.176 L
1215.451 773.694 L
1217.681 767.722 L
1219.709 768.959 L
1221.533 764.112 L
1223.831 758.153 L
1225.859 755.219 L
1228.021 753.451 L
1230.048 752.631 L
1232.008 754.895 L
1234.171 754.907 L
1236.266 749.278 L
1238.361 761.087 L
1240.321 765.195 L
1242.416 783.518 L
1244.308 781.351 L
1246.538 780.933 L
1248.565 781.45 L
1250.66 782.872 L
1252.755 787.673 L
1254.715 777.555 L
1256.877 781.875 L
1258.905 787.75 L
1260.865 785.241 L
1263.095 767.511 L
1264.987 769.297 L
1267.014 758.565 L
1269.109 743.838 L
1271.204 737.31 L
1273.164 738.422 L
1275.327 741.973 L
1277.422 743.878 L
1279.314 727.085 L
1281.544 730.58 L
1283.571 713.983 L
1285.666 705.907 L
1287.761 712.741 L
1289.653 715.03 L
1291.546 712.062 L
1293.776 714 L
1295.871 715.944 L
1297.763 714.607 L
1299.993 711.516 L
1302.02 727.089 L
1304.115 738.248 L
1306.21 722.812 L
1308.17 721.056 L
1310.333 726.888 L
1312.428 723.837 L
1314.32 733.53 L
1316.415 726.671 L
1318.442 725.435 L
1320.469 748.878 L
1322.564 739.802 L
1324.659 701.759 L
1326.619 708.29 L
1328.782 721.218 L
1330.877 714.595 L
1332.769 721.28 L
1334.999 718.062 L
1337.026 724.058 L
1338.919 726.46 L
1341.149 732.324 L
1343.176 721.315 L
1345.068 721.869 L
1347.298 730.102 L
1349.326 736.252 L
1351.488 746.013 L
1353.516 754.734 L
1355.476 757.287 L
1357.638 758.342 L
1359.733 767.818 L
1361.828 780.848 L
1363.72 780.948 L
1365.748 779.879 L
1367.775 791.647 L
1369.938 800.588 L
1371.965 806.239 L
1373.925 801.712 L
1376.155 807.991 L
1378.182 801.696 L
1380.277 798.123 L
1382.305 800.142 L
1384.332 807.821 L
1386.495 804.076 L
1388.387 808.057 L
1390.482 796.956 L
1392.374 787.616 L
1394.604 790.236 L
1396.631 794.19 L
1398.726 795.96 L
1400.821 800.915 L
1402.781 803.964 L
1404.944 805.666 L
1406.971 810.473 L
1408.931 804.515 L
1411.161 802.19 L
1413.053 805.645 L
1415.081 799.745 L
1417.176 801.165 L
1419.271 798.724 L
1421.23 789.807 L
1423.393 790.038 L
1425.488 788.54 L
1427.38 779.272 L
1429.61 783.215 L
1431.637 774.445 L
1433.732 770.589 L
1435.827 759.914 L
1437.787 746.182 L
1439.882 750.888 L
1441.91 756.466 L
1443.937 753.048 L
1446.032 759.173 L
1448.127 755.825 L
1450.087 758.991 L
1452.249 739.284 L
1454.344 688.132 L
1456.236 730.653 L
1458.466 763.958 L
1460.494 736.593 L
1462.386 734.955 L
1464.549 757.762 L
1466.576 737.884 L
1468.536 717.144 L
1470.698 720.93 L
1472.793 725.075 L
1474.888 725.262 L
1476.916 731.409 L
1478.943 726.998 L
1481.038 730.204 L
1483.133 714.738 L
1485.093 715.354 L
1486.985 715.184 L
1489.215 712.882 L
1491.242 720.652 L
1493.135 732.549 L
1495.365 746.217 L
1497.392 746.985 L
1499.555 771.821 L
1501.582 766.857 L
1503.542 758.67 L
1505.704 753.789 L
1507.799 729.8 L
1509.894 723.837 L
1511.786 727.073 L
1513.881 727.938 L
1515.841 729.372 L
1518.004 740.193 L
1520.031 733.506 L
1521.991 751.454 L
1524.221 779.243 L
1526.248 798.847 L
1528.343 784.676 L
1530.371 789.901 L
1532.398 801.581 L
1534.561 804.939 L
1536.521 800.154 L
1538.548 786.893 L
1540.643 800.892 L
1542.738 822.453 L
1544.698 819.18 L
1546.86 823.526 L
1548.955 820.716 L
1550.847 818.001 L
1553.077 815.593 L
1555.105 819.96 L
1557.2 811.535 L
1559.295 798.088 L
1561.187 804 L
1563.079 806.083 L
1565.309 814.101 L
1567.404 790.76 L
1569.297 770.665 L
1571.527 763.229 L
1573.554 755.738 L
1575.649 761.933 L
1577.744 765.223 L
1579.704 752.827 L
1581.866 739.639 L
1583.961 758.799 L
1585.853 759.562 L
1587.948 758.554 L
1589.976 761.76 L
1592.003 771.596 L
1594.098 771.183 L
1596.193 771.657 L
1598.153 783.202 L
1600.315 777.081 L
1602.41 782.747 L
1604.302 791.109 L
1606.533 799.094 L
1608.56 817.347 L
1610.452 805.966 L
1612.615 807.35 L
1614.642 802.174 L
1616.602 798.394 L
1618.765 787.031 L
1620.859 797.385 L
1622.954 799.179 L
1624.982 804.597 L
1627.009 802.113 L
1629.104 804.9 L
1631.199 805.175 L
1633.159 815.654 L
1635.254 824.562 L
1637.349 821.76 L
1639.309 820.884 L
1641.471 823.329 L
1643.499 833.681 L
1645.458 837.807 L
1647.688 836.039 L
1649.716 834.186 L
1651.811 824.445 L
1653.838 802.231 L
1655.865 800.093 L
1658.028 801.36 L
1659.92 807.275 L
1662.015 806.64 L
1663.907 813.186 L
1666.138 817.822 L
1668.165 816.659 L
1670.26 816.128 L
1672.355 824.995 L
1674.315 819.343 L
1676.477 821.218 L
1678.505 824.962 L
1680.464 828.802 L
1682.694 821.777 L
1684.587 816.852 L
1686.547 825.346 L
1688.709 822.105 L
1690.804 825.336 L
1692.764 827.864 L
1694.926 827.839 L
S
GR
GS
[0.6 0 0 0.6 0 0] CT
0.851 0.325 0.098 RC
1 LJ
3.333 LW
N
285.898 779.237 M
287.993 769.576 L
290.088 774.362 L
292.048 780.089 L
294.211 774.887 L
296.238 779.53 L
298.198 787.182 L
300.428 784.296 L
302.32 782.455 L
304.347 775.259 L
306.442 785.644 L
308.537 772.517 L
310.497 775.557 L
312.66 777.091 L
314.755 767.176 L
316.647 764.371 L
318.877 766.721 L
320.904 770.819 L
322.999 774.645 L
325.094 774.17 L
326.986 770.711 L
328.946 770.701 L
331.109 773.308 L
333.204 775.349 L
335.096 773.404 L
337.326 785.508 L
339.354 785.753 L
341.448 783.303 L
343.543 783.483 L
345.503 789.177 L
347.666 791.118 L
349.761 787.725 L
351.653 785.433 L
353.815 789.503 L
355.843 788.015 L
357.735 791.514 L
359.965 790.869 L
362.06 778.849 L
364.155 783.915 L
366.182 791.154 L
368.21 791.498 L
370.305 797.861 L
372.4 791.109 L
374.36 786.471 L
376.252 790.95 L
378.482 792.414 L
380.509 793.304 L
382.402 792.39 L
384.632 788.951 L
386.659 790.761 L
388.822 793.324 L
390.849 792.432 L
392.809 790.683 L
394.904 791.715 L
397.066 795.489 L
399.161 792.742 L
401.053 779.294 L
403.148 790.434 L
405.108 793.277 L
407.271 800.384 L
409.298 793.637 L
411.258 788.754 L
413.488 780.909 L
415.515 790.155 L
417.61 795.089 L
419.638 791.71 L
421.665 796.192 L
423.828 792.224 L
425.72 785.286 L
427.815 785.546 L
429.707 773.305 L
431.937 778.13 L
433.965 783.527 L
436.059 793.722 L
438.154 783.786 L
440.114 788.41 L
442.277 778.118 L
444.304 777.088 L
446.264 781.76 L
448.494 780.212 L
450.454 774.855 L
452.414 775.649 L
454.576 775.741 L
456.671 781.131 L
458.563 767.793 L
460.793 755.229 L
462.821 771.165 L
464.916 771.74 L
467.011 768.789 L
468.971 770.144 L
471.133 773.56 L
473.228 777.789 L
475.12 795.117 L
477.013 775.379 L
479.243 779.823 L
481.202 791.338 L
483.365 812.163 L
485.46 830.175 L
487.42 811.724 L
489.582 799.175 L
491.677 816.602 L
493.569 796.295 L
495.8 821.744 L
497.827 790.301 L
499.719 796.504 L
501.882 775.497 L
503.909 768.958 L
505.869 784.775 L
508.031 772.161 L
510.126 769.015 L
512.221 761.112 L
514.249 753.831 L
516.276 762.134 L
518.371 729.484 L
520.466 752.831 L
522.426 707.904 L
524.318 703.455 L
526.548 720.415 L
528.576 741.489 L
530.468 738.672 L
532.698 762.673 L
534.725 756.049 L
536.888 755.686 L
538.915 759.558 L
540.875 743.93 L
543.037 740.675 L
545.132 735.087 L
547.227 731.25 L
549.187 728.827 L
551.215 758.935 L
553.174 742.785 L
555.404 738.245 L
557.432 758.548 L
559.527 753.32 L
561.622 755.602 L
563.582 760.627 L
565.744 764.671 L
567.771 761.603 L
569.731 768.363 L
571.961 778.059 L
573.854 786.149 L
575.881 793.71 L
577.976 786.483 L
580.071 799.177 L
582.031 811.243 L
584.193 811.205 L
586.288 804.697 L
588.18 783.916 L
590.411 784.584 L
592.438 791.645 L
594.533 780.57 L
596.628 768.893 L
598.52 772.896 L
600.48 789.161 L
602.642 796.81 L
604.737 789.229 L
606.63 795.957 L
608.86 806.216 L
610.887 800.682 L
612.982 777.991 L
615.077 783.844 L
617.037 777.934 L
619.199 772.195 L
621.294 746.5 L
623.187 733.335 L
625.281 741.926 L
627.309 743.363 L
629.336 731.392 L
631.431 750.318 L
633.526 764.924 L
635.486 759.649 L
637.648 758.43 L
639.743 733.307 L
641.636 734.857 L
643.866 729.899 L
645.893 714.917 L
647.785 737.118 L
650.015 734.421 L
652.043 733.097 L
653.935 748.322 L
656.165 737.655 L
658.193 728.498 L
660.355 724.461 L
662.383 719.908 L
664.342 716.071 L
666.505 705.639 L
668.6 719.315 L
670.695 728.785 L
672.587 720.676 L
674.682 715.378 L
676.642 717.28 L
678.804 721.288 L
680.832 723.202 L
682.791 735.509 L
685.022 743.415 L
687.049 749.576 L
689.144 756.51 L
691.171 753.442 L
693.199 745.491 L
695.361 746.828 L
697.253 746.89 L
699.348 750.029 L
701.241 754.532 L
703.471 760.26 L
705.498 762.125 L
707.593 764.384 L
709.688 769.214 L
711.648 774.417 L
713.81 785.087 L
715.838 796.983 L
717.797 804.519 L
720.028 798.039 L
721.92 790.472 L
723.947 786.456 L
726.042 783.681 L
728.137 781.796 L
730.097 772.019 L
732.259 776.611 L
734.354 786.785 L
736.247 791.202 L
738.477 808.107 L
740.504 780.51 L
742.599 784.278 L
744.694 760.588 L
746.654 817.6 L
748.749 826.081 L
750.776 729.86 L
752.804 698.781 L
754.898 714.449 L
756.993 709.26 L
758.953 754.373 L
761.116 749.886 L
763.211 754.578 L
765.103 782.741 L
767.333 749.645 L
769.36 753.372 L
771.253 739.377 L
773.415 715.868 L
775.443 747.155 L
777.402 772.596 L
779.565 753.908 L
781.66 775.091 L
783.755 764.309 L
785.782 746.106 L
787.81 706.88 L
789.905 703.09 L
792 717.106 L
793.959 721.479 L
795.852 734.604 L
798.082 739.357 L
800.109 740.76 L
802.001 722.055 L
804.231 741.235 L
806.259 713.952 L
808.421 715.48 L
810.449 716.526 L
812.409 714.983 L
814.571 698.19 L
816.666 697.95 L
818.761 680.507 L
820.653 696.428 L
822.748 702.27 L
824.708 698.24 L
826.87 697.566 L
828.898 701.957 L
830.858 693.328 L
833.088 692.915 L
835.115 690.059 L
837.21 678.269 L
839.237 687.852 L
841.265 687.066 L
843.427 683.354 L
845.387 682.262 L
847.415 684.186 L
849.51 676.361 L
851.604 676.539 L
853.564 688.508 L
855.727 708.229 L
857.822 715.9 L
859.714 714.43 L
861.944 708.814 L
863.971 686.422 L
866.066 669.998 L
868.161 683.116 L
870.054 673.896 L
872.013 677.448 L
874.176 667.129 L
876.271 682.399 L
878.163 670.448 L
880.393 667.996 L
882.421 677.857 L
884.516 674.156 L
886.611 680.642 L
888.57 687.604 L
890.733 703.944 L
892.828 697.495 L
894.72 741.748 L
896.815 750.857 L
898.842 744.841 L
900.87 728.068 L
902.965 736.176 L
905.06 720.06 L
907.019 714.311 L
909.182 704.404 L
911.277 705.843 L
913.169 711.532 L
915.399 720.445 L
917.427 719.744 L
919.319 726.476 L
921.481 722.128 L
923.509 720.663 L
925.469 724.107 L
927.631 714.071 L
929.726 703.958 L
931.821 704.523 L
933.848 701.949 L
935.876 701.882 L
937.971 698.337 L
940.066 705.814 L
942.026 705.744 L
944.12 707.655 L
946.215 697.443 L
948.175 695.691 L
950.338 705.567 L
952.365 716.87 L
954.325 713.006 L
956.555 727.002 L
958.582 735.353 L
960.677 737.048 L
962.705 746.061 L
964.732 758.434 L
966.895 764.815 L
968.787 767.099 L
970.882 780.699 L
972.774 766.084 L
975.004 769.582 L
977.032 761.769 L
979.127 755.388 L
981.222 768.18 L
983.181 767.688 L
985.344 761.539 L
987.371 761.487 L
989.331 762.177 L
991.561 755.746 L
993.453 754.088 L
995.481 758.898 L
997.576 753.456 L
999.671 752.869 L
1001.63 751.45 L
1003.793 741.871 L
1005.888 721.704 L
1007.78 718.952 L
1010.01 719.012 L
1012.038 730.323 L
1014.133 719.268 L
1016.228 716.518 L
1018.12 714.504 L
1020.012 713.297 L
1022.242 705.845 L
1024.337 700.856 L
1026.229 697.76 L
1028.459 697.205 L
1030.487 689.69 L
1032.582 695.302 L
1034.677 679.383 L
1036.637 666.995 L
1038.799 674.847 L
1040.894 660.876 L
1042.786 667.38 L
1044.949 675.896 L
1046.976 660.764 L
1048.936 662.648 L
1051.099 652.767 L
1053.193 656.642 L
1055.288 645.685 L
1057.316 641.094 L
1059.343 653.961 L
1061.438 665.989 L
1063.466 662.486 L
1065.493 664.159 L
1067.385 669.279 L
1069.615 669.076 L
1071.575 665.931 L
1073.535 683.923 L
1075.765 695.976 L
1077.792 700.643 L
1079.955 706.931 L
1081.982 711.854 L
1083.942 713.571 L
1086.105 704.208 L
1088.2 704.805 L
1090.295 709.869 L
1092.187 705.626 L
1094.282 700.099 L
1096.241 712.112 L
1098.404 717.738 L
1100.431 712.25 L
1102.391 720.062 L
1104.621 722.565 L
1106.649 720.743 L
1108.744 722.192 L
1110.771 747.651 L
1112.798 762.922 L
1114.961 754.93 L
1116.853 749.698 L
1118.948 750.772 L
1120.84 751.933 L
1123.07 757.743 L
1125.098 760.804 L
1127.193 751.553 L
1129.288 757.716 L
1131.248 765.532 L
1133.41 764.617 L
1135.438 764.686 L
1137.397 766.941 L
1139.627 754.291 L
1141.587 746.816 L
1143.547 750.5 L
1145.709 747.161 L
1147.804 747.511 L
1149.697 751.609 L
1151.927 751.921 L
1153.954 747.433 L
1156.049 749.279 L
1158.144 752.249 L
1160.104 761.901 L
1162.266 756.574 L
1164.361 753.074 L
1166.254 756.103 L
1168.349 752.825 L
1170.376 755.738 L
1172.403 756.001 L
1174.498 758.371 L
1176.593 767.958 L
1178.553 761.109 L
1180.716 765.261 L
1182.811 772.9 L
1184.703 781.594 L
1186.933 781.871 L
1188.96 776.502 L
1190.852 779.69 L
1193.015 780.533 L
1195.042 777.556 L
1197.002 781.754 L
1199.165 788.049 L
1201.26 785.7 L
1203.355 786.308 L
1205.382 785.959 L
1207.409 771.514 L
1209.504 781.926 L
1211.599 778.217 L
1213.559 780.803 L
1215.451 771.846 L
1217.681 764.305 L
1219.709 766.246 L
1221.533 765.224 L
1223.831 759.673 L
1225.859 758.064 L
1228.021 757.291 L
1230.048 755.166 L
1232.008 759.265 L
1234.171 761.101 L
1236.266 757.957 L
1238.361 774.264 L
1240.321 777.814 L
1242.416 795.578 L
1244.308 795.363 L
1246.538 795.555 L
1248.565 792.61 L
1250.66 793.642 L
1252.755 796.716 L
1254.715 784.296 L
1256.877 788.589 L
1258.905 791.331 L
1260.865 783.741 L
1263.095 760.982 L
1264.987 760.608 L
1267.014 747.021 L
1269.109 733.405 L
1271.204 726.07 L
1273.164 727.542 L
1275.327 726.315 L
1277.422 726.647 L
1279.314 701.34 L
1281.544 700.733 L
1283.571 687.693 L
1285.666 681.923 L
1287.761 689.629 L
1289.653 690.57 L
1291.546 694.685 L
1293.776 691.859 L
1295.871 692.691 L
1297.763 688.087 L
1299.993 678.338 L
1302.02 692.611 L
1304.115 699.33 L
1306.21 683.506 L
1308.17 686.192 L
1310.333 686.815 L
1312.428 685.434 L
1314.32 692.972 L
1316.415 686.203 L
1318.442 685.11 L
1320.469 706.053 L
1322.564 697.097 L
1324.659 663.866 L
1326.619 672.154 L
1328.782 680.076 L
1330.877 677.335 L
1332.769 686.208 L
1334.999 680.689 L
1337.026 686.838 L
1338.919 687.46 L
1341.149 692.287 L
1343.176 689.402 L
1345.068 692.286 L
1347.298 702.051 L
1349.326 708.015 L
1351.488 714.757 L
1353.516 725.745 L
1355.476 727.749 L
1357.638 733.893 L
1359.733 743.872 L
1361.828 759.321 L
1363.72 762.986 L
1365.748 764.813 L
1367.775 774.166 L
1369.938 782.675 L
1371.965 788.994 L
1373.925 788.65 L
1376.155 792.86 L
1378.182 790.036 L
1380.277 789.044 L
1382.305 790.991 L
1384.332 798.835 L
1386.495 796.378 L
1388.387 802.246 L
1390.482 792.344 L
1392.374 783.057 L
1394.604 787.401 L
1396.631 792.738 L
1398.726 792.529 L
1400.821 795.609 L
1402.781 797.818 L
1404.944 799.517 L
1406.971 803.428 L
1408.931 799.555 L
1411.161 798.305 L
1413.053 798.848 L
1415.081 792.638 L
1417.176 793.949 L
1419.271 794.797 L
1421.23 785.456 L
1423.393 782.321 L
1425.488 776.445 L
1427.38 765.068 L
1429.61 768.569 L
1431.637 750.3 L
1433.732 746.19 L
1435.827 725.895 L
1437.787 706.583 L
1439.882 710.546 L
1441.91 723.398 L
1443.937 724.299 L
1446.032 730.43 L
1448.127 725.513 L
1450.087 727.147 L
1452.249 703.339 L
1454.344 644.524 L
1456.236 681.21 L
1458.466 713.419 L
1460.494 687.857 L
1462.386 687.746 L
1464.549 709.01 L
1466.576 690.378 L
1468.536 669.373 L
1470.698 675.637 L
1472.793 680.044 L
1474.888 678.743 L
1476.916 684.596 L
1478.943 679.768 L
1481.038 680.028 L
1483.133 669.795 L
1485.093 666.995 L
1486.985 666.499 L
1489.215 666.571 L
1491.242 673.982 L
1493.135 684.278 L
1495.365 696.096 L
1497.392 695.314 L
1499.555 720.161 L
1501.582 714.24 L
1503.542 704.437 L
1505.704 701.427 L
1507.799 679.367 L
1509.894 672.434 L
1511.786 677.469 L
1513.881 679.616 L
1515.841 678.546 L
1518.004 687.717 L
1520.031 681.191 L
1521.991 697.498 L
1524.221 724.401 L
1526.248 745.855 L
1528.343 730.814 L
1530.371 736.236 L
1532.398 748.14 L
1534.561 750.735 L
1536.521 747.088 L
1538.548 734.162 L
1540.643 747.464 L
1542.738 769.847 L
1544.698 766.935 L
1546.86 770.19 L
1548.955 767.216 L
1550.847 764.454 L
1553.077 762.75 L
1555.105 766.703 L
1557.2 758.209 L
1559.295 744.616 L
1561.187 750.226 L
1563.079 752.466 L
1565.309 760.313 L
1567.404 737.879 L
1569.297 718.728 L
1571.527 710.25 L
1573.554 704.147 L
1575.649 709.058 L
1577.744 712.043 L
1579.704 698.968 L
1581.866 687.385 L
1583.961 706.392 L
1585.853 707.229 L
1587.948 707.93 L
1589.976 711.018 L
1592.003 720.519 L
1594.098 720.903 L
1596.193 722.808 L
1598.153 734.317 L
1600.315 729.106 L
1602.41 733.902 L
1604.302 741.96 L
1606.533 752.506 L
1608.56 768.315 L
1610.452 758.812 L
1612.615 759.194 L
1614.642 754.02 L
1616.602 750.406 L
1618.765 739.163 L
1620.859 749.95 L
1622.954 752.563 L
1624.982 756.629 L
1627.009 755.5 L
1629.104 760.401 L
1631.199 761.912 L
1633.159 769.317 L
1635.254 778.244 L
1637.349 774.766 L
1639.309 774.348 L
1641.471 778.202 L
1643.499 785.617 L
1645.458 790.554 L
1647.688 790.497 L
1649.716 788.117 L
1651.811 779.102 L
1653.838 759.766 L
1655.865 758.22 L
1658.028 759.416 L
1659.92 765.903 L
1662.015 765.765 L
1663.907 772.175 L
1666.138 776.946 L
1668.165 776.925 L
1670.26 775.883 L
1672.355 784.509 L
1674.315 780.512 L
1676.477 783.662 L
1678.505 789.53 L
1680.464 794.512 L
1682.694 790.259 L
1684.587 786.428 L
1686.547 795.151 L
1688.709 794.171 L
1690.804 796.659 L
1692.764 800.194 L
1694.926 801.571 L
S
GR
GS
[0.6 0 0 0.6 0 0] CT
1 GC
N
602 647 M
602 565 L
262 565 L
262 647 L
cp
f
GR
GS
[0.6 0 0 0.6 192.47592 351.95925] CT
/Helvetica 30 F
GS
[1 0 0 1 0 0] CT
0 12 moveto 
1 -1 scale
(SRB3) t 
GR
GR
GS
[0.6 0 0 0.6 0 0] CT
0 0.447 0.741 RC
1 LJ
3.333 LW
N
267.004 586.599 M
317.04 586.599 L
S
GR
GS
[0.6 0 0 0.6 192.47592 375.24075] CT
/Helvetica 30 F
GS
[1 0 0 1 0 0] CT
0 12 moveto 
1 -1 scale
(SRB3 bias corrected) t 
GR
GR
GS
[0.6 0 0 0.6 0 0] CT
0.851 0.325 0.098 RC
1 LJ
3.333 LW
N
267.004 625.401 M
317.04 625.401 L
S
GR
GS
[0.6 0 0 0.6 0 0] CT
0.149 GC
10.0 ML
0.833 LW
N
262 647 M
262 565 L
602 565 L
602 647 L
cp
S
GR
%%Trailer
%%Pages: 1
%%EOF
