%!PS-Adobe-3.0 EPSF-3.0
%%Creator: (MATLAB, The Mathworks, Inc. Version 9.8.0.1359463 \(R2020a\) Update 1. Operating System: Windows 10)
%%Title: ./Loadings_SS_SRB4.eps
%%CreationDate: 2021-03-15T21:48:53
%%Pages: (atend)
%%BoundingBox:   128    55  1310   705
%%LanguageLevel: 3
%%EndComments
%%BeginProlog
%%BeginResource: procset (Apache XML Graphics Std ProcSet) 1.2 0
%%Version: 1.2 0
%%Copyright: (Copyright 2001-2003,2010 The Apache Software Foundation. License terms: http://www.apache.org/licenses/LICENSE-2.0)
/bd{bind def}bind def
/ld{load def}bd
/GR/grestore ld
/GS/gsave ld
/RM/rmoveto ld
/C/curveto ld
/t/show ld
/L/lineto ld
/ML/setmiterlimit ld
/CT/concat ld
/f/fill ld
/N/newpath ld
/S/stroke ld
/CC/setcmykcolor ld
/A/ashow ld
/cp/closepath ld
/RC/setrgbcolor ld
/LJ/setlinejoin ld
/GC/setgray ld
/LW/setlinewidth ld
/M/moveto ld
/re {4 2 roll M
1 index 0 rlineto
0 exch rlineto
neg 0 rlineto
cp } bd
/_ctm matrix def
/_tm matrix def
/BT { _ctm currentmatrix pop matrix _tm copy pop 0 0 moveto } bd
/ET { _ctm setmatrix } bd
/iTm { _ctm setmatrix _tm concat } bd
/Tm { _tm astore pop iTm 0 0 moveto } bd
/ux 0.0 def
/uy 0.0 def
/F {
  /Tp exch def
  /Tf exch def
  Tf findfont Tp scalefont setfont
  /cf Tf def  /cs Tp def
} bd
/ULS {currentpoint /uy exch def /ux exch def} bd
/ULE {
  /Tcx currentpoint pop def
  gsave
  newpath
  cf findfont cs scalefont dup
  /FontMatrix get 0 get /Ts exch def /FontInfo get dup
  /UnderlinePosition get Ts mul /To exch def
  /UnderlineThickness get Ts mul /Tt exch def
  ux uy To add moveto  Tcx uy To add lineto
  Tt setlinewidth stroke
  grestore
} bd
/OLE {
  /Tcx currentpoint pop def
  gsave
  newpath
  cf findfont cs scalefont dup
  /FontMatrix get 0 get /Ts exch def /FontInfo get dup
  /UnderlinePosition get Ts mul /To exch def
  /UnderlineThickness get Ts mul /Tt exch def
  ux uy To add cs add moveto Tcx uy To add cs add lineto
  Tt setlinewidth stroke
  grestore
} bd
/SOE {
  /Tcx currentpoint pop def
  gsave
  newpath
  cf findfont cs scalefont dup
  /FontMatrix get 0 get /Ts exch def /FontInfo get dup
  /UnderlinePosition get Ts mul /To exch def
  /UnderlineThickness get Ts mul /Tt exch def
  ux uy To add cs 10 mul 26 idiv add moveto Tcx uy To add cs 10 mul 26 idiv add lineto
  Tt setlinewidth stroke
  grestore
} bd
/QT {
/Y22 exch store
/X22 exch store
/Y21 exch store
/X21 exch store
currentpoint
/Y21 load 2 mul add 3 div exch
/X21 load 2 mul add 3 div exch
/X21 load 2 mul /X22 load add 3 div
/Y21 load 2 mul /Y22 load add 3 div
/X22 load /Y22 load curveto
} bd
/SSPD {
dup length /d exch dict def
{
/v exch def
/k exch def
currentpagedevice k known {
/cpdv currentpagedevice k get def
v cpdv ne {
/upd false def
/nullv v type /nulltype eq def
/nullcpdv cpdv type /nulltype eq def
nullv nullcpdv or
{
/upd true def
} {
/sametype v type cpdv type eq def
sametype {
v type /arraytype eq {
/vlen v length def
/cpdvlen cpdv length def
vlen cpdvlen eq {
0 1 vlen 1 sub {
/i exch def
/obj v i get def
/cpdobj cpdv i get def
obj cpdobj ne {
/upd true def
exit
} if
} for
} {
/upd true def
} ifelse
} {
v type /dicttype eq {
v {
/dv exch def
/dk exch def
/cpddv cpdv dk get def
dv cpddv ne {
/upd true def
exit
} if
} forall
} {
/upd true def
} ifelse
} ifelse
} if
} ifelse
upd true eq {
d k v put
} if
} if
} if
} forall
d length 0 gt {
d setpagedevice
} if
} bd
/RE { % /NewFontName [NewEncodingArray] /FontName RE -
  findfont dup length dict begin
  {
    1 index /FID ne
    {def} {pop pop} ifelse
  } forall
  /Encoding exch def
  /FontName 1 index def
  currentdict definefont pop
  end
} bind def
%%EndResource
%%BeginResource: procset (Apache XML Graphics EPS ProcSet) 1.0 0
%%Version: 1.0 0
%%Copyright: (Copyright 2002-2003 The Apache Software Foundation. License terms: http://www.apache.org/licenses/LICENSE-2.0)
/BeginEPSF { %def
/b4_Inc_state save def         % Save state for cleanup
/dict_count countdictstack def % Count objects on dict stack
/op_count count 1 sub def      % Count objects on operand stack
userdict begin                 % Push userdict on dict stack
/showpage { } def              % Redefine showpage, { } = null proc
0 setgray 0 setlinecap         % Prepare graphics state
1 setlinewidth 0 setlinejoin
10 setmiterlimit [ ] 0 setdash newpath
/languagelevel where           % If level not equal to 1 then
{pop languagelevel             % set strokeadjust and
1 ne                           % overprint to their defaults.
{false setstrokeadjust false setoverprint
} if
} if
} bd
/EndEPSF { %def
count op_count sub {pop} repeat            % Clean up stacks
countdictstack dict_count sub {end} repeat
b4_Inc_state restore
} bd
%%EndResource
%FOPBeginFontDict
%%IncludeResource: font Courier-Oblique
%%IncludeResource: font Courier-BoldOblique
%%IncludeResource: font Courier-Bold
%%IncludeResource: font ZapfDingbats
%%IncludeResource: font Symbol
%%IncludeResource: font Helvetica
%%IncludeResource: font Helvetica-Oblique
%%IncludeResource: font Helvetica-Bold
%%IncludeResource: font Helvetica-BoldOblique
%%IncludeResource: font Times-Roman
%%IncludeResource: font Times-Italic
%%IncludeResource: font Times-Bold
%%IncludeResource: font Times-BoldItalic
%%IncludeResource: font Courier
%FOPEndFontDict
%%BeginResource: encoding WinAnsiEncoding
/WinAnsiEncoding [
/.notdef /.notdef /.notdef /.notdef /.notdef
/.notdef /.notdef /.notdef /.notdef /.notdef
/.notdef /.notdef /.notdef /.notdef /.notdef
/.notdef /.notdef /.notdef /.notdef /.notdef
/.notdef /.notdef /.notdef /.notdef /.notdef
/.notdef /.notdef /.notdef /.notdef /.notdef
/.notdef /.notdef /space /exclam /quotedbl
/numbersign /dollar /percent /ampersand /quotesingle
/parenleft /parenright /asterisk /plus /comma
/hyphen /period /slash /zero /one
/two /three /four /five /six
/seven /eight /nine /colon /semicolon
/less /equal /greater /question /at
/A /B /C /D /E
/F /G /H /I /J
/K /L /M /N /O
/P /Q /R /S /T
/U /V /W /X /Y
/Z /bracketleft /backslash /bracketright /asciicircum
/underscore /quoteleft /a /b /c
/d /e /f /g /h
/i /j /k /l /m
/n /o /p /q /r
/s /t /u /v /w
/x /y /z /braceleft /bar
/braceright /asciitilde /bullet /Euro /bullet
/quotesinglbase /florin /quotedblbase /ellipsis /dagger
/daggerdbl /circumflex /perthousand /Scaron /guilsinglleft
/OE /bullet /Zcaron /bullet /bullet
/quoteleft /quoteright /quotedblleft /quotedblright /bullet
/endash /emdash /asciitilde /trademark /scaron
/guilsinglright /oe /bullet /zcaron /Ydieresis
/space /exclamdown /cent /sterling /currency
/yen /brokenbar /section /dieresis /copyright
/ordfeminine /guillemotleft /logicalnot /sfthyphen /registered
/macron /degree /plusminus /twosuperior /threesuperior
/acute /mu /paragraph /middot /cedilla
/onesuperior /ordmasculine /guillemotright /onequarter /onehalf
/threequarters /questiondown /Agrave /Aacute /Acircumflex
/Atilde /Adieresis /Aring /AE /Ccedilla
/Egrave /Eacute /Ecircumflex /Edieresis /Igrave
/Iacute /Icircumflex /Idieresis /Eth /Ntilde
/Ograve /Oacute /Ocircumflex /Otilde /Odieresis
/multiply /Oslash /Ugrave /Uacute /Ucircumflex
/Udieresis /Yacute /Thorn /germandbls /agrave
/aacute /acircumflex /atilde /adieresis /aring
/ae /ccedilla /egrave /eacute /ecircumflex
/edieresis /igrave /iacute /icircumflex /idieresis
/eth /ntilde /ograve /oacute /ocircumflex
/otilde /odieresis /divide /oslash /ugrave
/uacute /ucircumflex /udieresis /yacute /thorn
/ydieresis
] def
%%EndResource
%FOPBeginFontReencode
/Courier-Oblique findfont
dup length dict begin
  {1 index /FID ne {def} {pop pop} ifelse} forall
  /Encoding WinAnsiEncoding def
  currentdict
end
/Courier-Oblique exch definefont pop
/Courier-BoldOblique findfont
dup length dict begin
  {1 index /FID ne {def} {pop pop} ifelse} forall
  /Encoding WinAnsiEncoding def
  currentdict
end
/Courier-BoldOblique exch definefont pop
/Courier-Bold findfont
dup length dict begin
  {1 index /FID ne {def} {pop pop} ifelse} forall
  /Encoding WinAnsiEncoding def
  currentdict
end
/Courier-Bold exch definefont pop
/Helvetica findfont
dup length dict begin
  {1 index /FID ne {def} {pop pop} ifelse} forall
  /Encoding WinAnsiEncoding def
  currentdict
end
/Helvetica exch definefont pop
/Helvetica-Oblique findfont
dup length dict begin
  {1 index /FID ne {def} {pop pop} ifelse} forall
  /Encoding WinAnsiEncoding def
  currentdict
end
/Helvetica-Oblique exch definefont pop
/Helvetica-Bold findfont
dup length dict begin
  {1 index /FID ne {def} {pop pop} ifelse} forall
  /Encoding WinAnsiEncoding def
  currentdict
end
/Helvetica-Bold exch definefont pop
/Helvetica-BoldOblique findfont
dup length dict begin
  {1 index /FID ne {def} {pop pop} ifelse} forall
  /Encoding WinAnsiEncoding def
  currentdict
end
/Helvetica-BoldOblique exch definefont pop
/Times-Roman findfont
dup length dict begin
  {1 index /FID ne {def} {pop pop} ifelse} forall
  /Encoding WinAnsiEncoding def
  currentdict
end
/Times-Roman exch definefont pop
/Times-Italic findfont
dup length dict begin
  {1 index /FID ne {def} {pop pop} ifelse} forall
  /Encoding WinAnsiEncoding def
  currentdict
end
/Times-Italic exch definefont pop
/Times-Bold findfont
dup length dict begin
  {1 index /FID ne {def} {pop pop} ifelse} forall
  /Encoding WinAnsiEncoding def
  currentdict
end
/Times-Bold exch definefont pop
/Times-BoldItalic findfont
dup length dict begin
  {1 index /FID ne {def} {pop pop} ifelse} forall
  /Encoding WinAnsiEncoding def
  currentdict
end
/Times-BoldItalic exch definefont pop
/Courier findfont
dup length dict begin
  {1 index /FID ne {def} {pop pop} ifelse} forall
  /Encoding WinAnsiEncoding def
  currentdict
end
/Courier exch definefont pop
%FOPEndFontReencode
%%EndProlog
%%Page: 1 1
%%PageBoundingBox: 0 0 1430 748
%%BeginPageSetup
[1 0 0 -1 0 748] CT
%%EndPageSetup
GS
[0.375 0 0 0.375 0 0.25] CT
N
0 0 M
3814 0 L
3814 1994 L
0 1994 L
0 0 L
cp
clip
1 GC
N
0 0 3814 1994 re
f
GR
GS
[0.375 0 0 0.375 0 0.25] CT
1 GC
N
0 0 3814 1994 re
f
GR
GS
[0.375 0 0 0.375 0 0.25] CT
1 GC
N
496 580 M
3452 580 L
3452 176 L
496 176 L
cp
f
GR
GS
[0.375 0 0 0.375 0 0.25] CT
0.873 GC
1 LJ
1.333 LW
N
569.9 580 M
569.9 176 L
S
GR
GS
[0.375 0 0 0.375 0 0.25] CT
0.873 GC
1 LJ
1.333 LW
N
791.6 580 M
791.6 176 L
S
GR
GS
[0.375 0 0 0.375 0 0.25] CT
0.873 GC
1 LJ
1.333 LW
N
1087.2 580 M
1087.2 176 L
S
GR
GS
[0.375 0 0 0.375 0 0.25] CT
0.873 GC
1 LJ
1.333 LW
N
1382.8 580 M
1382.8 176 L
S
GR
GS
[0.375 0 0 0.375 0 0.25] CT
0.873 GC
1 LJ
1.333 LW
N
1678.4 580 M
1678.4 176 L
S
GR
GS
[0.375 0 0 0.375 0 0.25] CT
0.873 GC
1 LJ
1.333 LW
N
1974 580 M
1974 176 L
S
GR
GS
[0.375 0 0 0.375 0 0.25] CT
0.873 GC
1 LJ
1.333 LW
N
2269.6 580 M
2269.6 176 L
S
GR
GS
[0.375 0 0 0.375 0 0.25] CT
0.873 GC
1 LJ
1.333 LW
N
2565.2 580 M
2565.2 176 L
S
GR
GS
[0.375 0 0 0.375 0 0.25] CT
0.873 GC
1 LJ
1.333 LW
N
2860.8 580 M
2860.8 176 L
S
GR
GS
[0.375 0 0 0.375 0 0.25] CT
0.873 GC
1 LJ
1.333 LW
N
3156.4 580 M
3156.4 176 L
S
GR
GS
[0.375 0 0 0.375 0 0.25] CT
0.873 GC
1 LJ
1.333 LW
N
3452 580 M
3452 176 L
S
GR
GS
[0.375 0 0 0.375 0 0.25] CT
0.873 GC
1 LJ
1.333 LW
N
3452 580 M
496 580 L
S
GR
GS
[0.375 0 0 0.375 0 0.25] CT
0.873 GC
1 LJ
1.333 LW
N
3452 378 M
496 378 L
S
GR
GS
[0.375 0 0 0.375 0 0.25] CT
0.873 GC
1 LJ
1.333 LW
N
3452 176 M
496 176 L
S
GR
GS
[0.375 0 0 0.375 0 0.25] CT
0.149 GC
2 setlinecap
1 LJ
1.333 LW
N
496 580 M
3452 580 L
S
GR
GS
[0.375 0 0 0.375 0 0.25] CT
0.149 GC
2 setlinecap
1 LJ
1.333 LW
N
496 176 M
3452 176 L
S
GR
GS
[0.375 0 0 0.375 0 0.25] CT
0.149 GC
2 setlinecap
1 LJ
1.333 LW
N
569.9 580 M
569.9 550.44 L
S
GR
GS
[0.375 0 0 0.375 0 0.25] CT
0.149 GC
2 setlinecap
1 LJ
1.333 LW
N
791.6 580 M
791.6 550.44 L
S
GR
GS
[0.375 0 0 0.375 0 0.25] CT
0.149 GC
2 setlinecap
1 LJ
1.333 LW
N
1087.2 580 M
1087.2 550.44 L
S
GR
GS
[0.375 0 0 0.375 0 0.25] CT
0.149 GC
2 setlinecap
1 LJ
1.333 LW
N
1382.8 580 M
1382.8 550.44 L
S
GR
GS
[0.375 0 0 0.375 0 0.25] CT
0.149 GC
2 setlinecap
1 LJ
1.333 LW
N
1678.4 580 M
1678.4 550.44 L
S
GR
GS
[0.375 0 0 0.375 0 0.25] CT
0.149 GC
2 setlinecap
1 LJ
1.333 LW
N
1974 580 M
1974 550.44 L
S
GR
GS
[0.375 0 0 0.375 0 0.25] CT
0.149 GC
2 setlinecap
1 LJ
1.333 LW
N
2269.6 580 M
2269.6 550.44 L
S
GR
GS
[0.375 0 0 0.375 0 0.25] CT
0.149 GC
2 setlinecap
1 LJ
1.333 LW
N
2565.2 580 M
2565.2 550.44 L
S
GR
GS
[0.375 0 0 0.375 0 0.25] CT
0.149 GC
2 setlinecap
1 LJ
1.333 LW
N
2860.8 580 M
2860.8 550.44 L
S
GR
GS
[0.375 0 0 0.375 0 0.25] CT
0.149 GC
2 setlinecap
1 LJ
1.333 LW
N
3156.4 580 M
3156.4 550.44 L
S
GR
GS
[0.375 0 0 0.375 0 0.25] CT
0.149 GC
2 setlinecap
1 LJ
1.333 LW
N
3452 580 M
3452 550.44 L
S
GR
GS
[0.375 0 0 0.375 0 0.25] CT
0.149 GC
2 setlinecap
1 LJ
1.333 LW
N
569.9 176 M
569.9 205.56 L
S
GR
GS
[0.375 0 0 0.375 0 0.25] CT
0.149 GC
2 setlinecap
1 LJ
1.333 LW
N
791.6 176 M
791.6 205.56 L
S
GR
GS
[0.375 0 0 0.375 0 0.25] CT
0.149 GC
2 setlinecap
1 LJ
1.333 LW
N
1087.2 176 M
1087.2 205.56 L
S
GR
GS
[0.375 0 0 0.375 0 0.25] CT
0.149 GC
2 setlinecap
1 LJ
1.333 LW
N
1382.8 176 M
1382.8 205.56 L
S
GR
GS
[0.375 0 0 0.375 0 0.25] CT
0.149 GC
2 setlinecap
1 LJ
1.333 LW
N
1678.4 176 M
1678.4 205.56 L
S
GR
GS
[0.375 0 0 0.375 0 0.25] CT
0.149 GC
2 setlinecap
1 LJ
1.333 LW
N
1974 176 M
1974 205.56 L
S
GR
GS
[0.375 0 0 0.375 0 0.25] CT
0.149 GC
2 setlinecap
1 LJ
1.333 LW
N
2269.6 176 M
2269.6 205.56 L
S
GR
GS
[0.375 0 0 0.375 0 0.25] CT
0.149 GC
2 setlinecap
1 LJ
1.333 LW
N
2565.2 176 M
2565.2 205.56 L
S
GR
GS
[0.375 0 0 0.375 0 0.25] CT
0.149 GC
2 setlinecap
1 LJ
1.333 LW
N
2860.8 176 M
2860.8 205.56 L
S
GR
GS
[0.375 0 0 0.375 0 0.25] CT
0.149 GC
2 setlinecap
1 LJ
1.333 LW
N
3156.4 176 M
3156.4 205.56 L
S
GR
GS
[0.375 0 0 0.375 0 0.25] CT
0.149 GC
2 setlinecap
1 LJ
1.333 LW
N
3452 176 M
3452 205.56 L
S
GR
GS
[0.375 0 0 0.375 213.71251 223.75] CT
0.149 GC
/Helvetica 53.333 F
GS
[1 0 0 1 0 0] CT
-15 54 moveto 
1 -1 scale
(3) t 
GR
GR
GS
[0.375 0 0 0.375 296.84999 223.75] CT
0.149 GC
/Helvetica 53.333 F
GS
[1 0 0 1 0 0] CT
-30 54 moveto 
1 -1 scale
(12) t 
GR
GR
GS
[0.375 0 0 0.375 407.69998 223.75] CT
0.149 GC
/Helvetica 53.333 F
GS
[1 0 0 1 0 0] CT
-30 54 moveto 
1 -1 scale
(24) t 
GR
GR
GS
[0.375 0 0 0.375 518.55002 223.75] CT
0.149 GC
/Helvetica 53.333 F
GS
[1 0 0 1 0 0] CT
-30 54 moveto 
1 -1 scale
(36) t 
GR
GR
GS
[0.375 0 0 0.375 629.40001 223.75] CT
0.149 GC
/Helvetica 53.333 F
GS
[1 0 0 1 0 0] CT
-30 54 moveto 
1 -1 scale
(48) t 
GR
GR
GS
[0.375 0 0 0.375 740.25 223.75] CT
0.149 GC
/Helvetica 53.333 F
GS
[1 0 0 1 0 0] CT
-30 54 moveto 
1 -1 scale
(60) t 
GR
GR
GS
[0.375 0 0 0.375 851.10004 223.75] CT
0.149 GC
/Helvetica 53.333 F
GS
[1 0 0 1 0 0] CT
-30 54 moveto 
1 -1 scale
(72) t 
GR
GR
GS
[0.375 0 0 0.375 961.94998 223.75] CT
0.149 GC
/Helvetica 53.333 F
GS
[1 0 0 1 0 0] CT
-30 54 moveto 
1 -1 scale
(84) t 
GR
GR
GS
[0.375 0 0 0.375 1072.80002 223.75] CT
0.149 GC
/Helvetica 53.333 F
GS
[1 0 0 1 0 0] CT
-30 54 moveto 
1 -1 scale
(96) t 
GR
GR
GS
[0.375 0 0 0.375 1183.64996 223.75] CT
0.149 GC
/Helvetica 53.333 F
GS
[1 0 0 1 0 0] CT
-44.5 54 moveto 
1 -1 scale
(108) t 
GR
GR
GS
[0.375 0 0 0.375 1294.5 223.75] CT
0.149 GC
/Helvetica 53.333 F
GS
[1 0 0 1 0 0] CT
-44.5 54 moveto 
1 -1 scale
(120) t 
GR
GR
GS
[0.375 0 0 0.375 0 0.25] CT
0.149 GC
2 setlinecap
1 LJ
1.333 LW
N
496 580 M
496 176 L
S
GR
GS
[0.375 0 0 0.375 0 0.25] CT
0.149 GC
2 setlinecap
1 LJ
1.333 LW
N
3452 580 M
3452 176 L
S
GR
GS
[0.375 0 0 0.375 0 0.25] CT
0.149 GC
2 setlinecap
1 LJ
1.333 LW
N
496 580 M
525.56 580 L
S
GR
GS
[0.375 0 0 0.375 0 0.25] CT
0.149 GC
2 setlinecap
1 LJ
1.333 LW
N
496 378 M
525.56 378 L
S
GR
GS
[0.375 0 0 0.375 0 0.25] CT
0.149 GC
2 setlinecap
1 LJ
1.333 LW
N
496 176 M
525.56 176 L
S
GR
GS
[0.375 0 0 0.375 0 0.25] CT
0.149 GC
2 setlinecap
1 LJ
1.333 LW
N
3452 580 M
3422.44 580 L
S
GR
GS
[0.375 0 0 0.375 0 0.25] CT
0.149 GC
2 setlinecap
1 LJ
1.333 LW
N
3452 378 M
3422.44 378 L
S
GR
GS
[0.375 0 0 0.375 0 0.25] CT
0.149 GC
2 setlinecap
1 LJ
1.333 LW
N
3452 176 M
3422.44 176 L
S
GR
GS
[0.375 0 0 0.375 180 217.75] CT
0.149 GC
/Helvetica 53.333 F
GS
[1 0 0 1 0 0] CT
-30 21 moveto 
1 -1 scale
(0) t 
GR
GR
GS
[0.375 0 0 0.375 180 142] CT
0.149 GC
/Helvetica 53.333 F
GS
[1 0 0 1 0 0] CT
-75 21 moveto 
1 -1 scale
(0.5) t 
GR
GR
GS
[0.375 0 0 0.375 180 66.25] CT
0.149 GC
/Helvetica 53.333 F
GS
[1 0 0 1 0 0] CT
-30 21 moveto 
1 -1 scale
(1) t 
GR
GR
GS
[0 -0.375 0.375 0 148.875 141.99993] CT
0.149 GC
/Helvetica 58.667 F
GS
[1 0 0 1 0 0] CT
-75.5 -13 moveto 
1 -1 scale
(Value) t 
GR
GR
GS
[0.375 0 0 0.375 740.25069 64.18751] CT
/Helvetica-Bold 58.667 F
GS
[1 0 0 1 0 0] CT
-80 -13 moveto 
1 -1 scale
(Slope) t 
GR
GR
GS
[0.375 0 0 0.375 0 0.25] CT
0 0.447 0.741 RC
1 LJ
5.333 LW
N
520.633 572.401 M
545.267 564.991 L
569.9 557.766 L
594.533 550.721 L
619.167 543.85 L
643.8 537.149 L
668.433 530.613 L
693.067 524.237 L
717.7 518.017 L
742.333 511.948 L
766.967 506.026 L
791.6 500.248 L
816.233 494.609 L
840.867 489.106 L
865.5 483.734 L
890.133 478.491 L
914.767 473.372 L
939.4 468.374 L
964.033 463.495 L
988.667 458.73 L
1013.3 454.077 L
1037.933 449.532 L
1062.567 445.093 L
1087.2 440.757 L
1111.833 436.522 L
1136.467 432.383 L
1161.1 428.339 L
1185.733 424.388 L
1210.367 420.527 L
1235 416.753 L
1259.633 413.064 L
1284.267 409.458 L
1308.9 405.932 L
1333.533 402.486 L
1358.167 399.115 L
1382.8 395.82 L
1407.433 392.597 L
1432.067 389.444 L
1456.7 386.361 L
1481.333 383.345 L
1505.967 380.394 L
1530.6 377.506 L
1555.233 374.681 L
1579.867 371.916 L
1604.5 369.21 L
1629.133 366.561 L
1653.767 363.969 L
1678.4 361.43 L
1703.033 358.945 L
1727.667 356.512 L
1752.3 354.129 L
1776.933 351.796 L
1801.567 349.51 L
1826.2 347.272 L
1850.833 345.079 L
1875.467 342.93 L
1900.1 340.825 L
1924.733 338.762 L
1949.367 336.741 L
1974 334.76 L
1998.633 332.818 L
2023.267 330.914 L
2047.9 329.048 L
2072.533 327.218 L
2097.167 325.424 L
2121.8 323.665 L
2146.433 321.94 L
2171.067 320.247 L
2195.7 318.587 L
2220.333 316.959 L
2244.967 315.362 L
2269.6 313.794 L
2294.233 312.256 L
2318.867 310.747 L
2343.5 309.265 L
2368.133 307.811 L
2392.767 306.384 L
2417.4 304.983 L
2442.033 303.607 L
2466.667 302.256 L
2491.3 300.93 L
2515.933 299.627 L
2540.567 298.347 L
2565.2 297.091 L
2589.833 295.856 L
2614.467 294.643 L
2639.1 293.452 L
2663.733 292.281 L
2688.367 291.13 L
2713 289.999 L
2737.633 288.887 L
2762.267 287.795 L
2786.9 286.721 L
2811.533 285.665 L
2836.167 284.627 L
2860.8 283.606 L
2885.433 282.602 L
2910.067 281.615 L
2934.7 280.643 L
2959.333 279.688 L
2983.967 278.749 L
3008.6 277.824 L
3033.233 276.914 L
3057.867 276.019 L
3082.5 275.139 L
3107.133 274.272 L
3131.767 273.419 L
3156.4 272.579 L
3181.033 271.752 L
3205.667 270.938 L
3230.3 270.137 L
3254.933 269.348 L
3279.567 268.571 L
3304.2 267.806 L
3328.833 267.053 L
3353.467 266.31 L
3378.1 265.579 L
3402.733 264.859 L
3427.367 264.15 L
3452 263.451 L
S
GR
GS
[0.375 0 0 0.375 0 0.25] CT
0.851 0.325 0.098 RC
1 LJ
5.333 LW
N
520.633 580 M
545.267 568.89 L
569.9 558.187 L
594.533 547.875 L
619.167 537.938 L
643.8 528.359 L
668.433 519.125 L
693.067 510.222 L
717.7 501.635 L
742.333 493.353 L
766.967 485.362 L
791.6 477.652 L
816.233 470.21 L
840.867 463.026 L
865.5 456.091 L
890.133 449.393 L
914.767 442.923 L
939.4 436.674 L
964.033 430.635 L
988.667 424.798 L
1013.3 419.156 L
1037.933 413.702 L
1062.567 408.427 L
1087.2 403.325 L
1111.833 398.389 L
1136.467 393.613 L
1161.1 388.991 L
1185.733 384.517 L
1210.367 380.185 L
1235 375.989 L
1259.633 371.926 L
1284.267 367.989 L
1308.9 364.174 L
1333.533 360.477 L
1358.167 356.892 L
1382.8 353.417 L
1407.433 350.047 L
1432.067 346.778 L
1456.7 343.606 L
1481.333 340.528 L
1505.967 337.54 L
1530.6 334.64 L
1555.233 331.824 L
1579.867 329.088 L
1604.5 326.432 L
1629.133 323.85 L
1653.767 321.341 L
1678.4 318.903 L
1703.033 316.532 L
1727.667 314.227 L
1752.3 311.985 L
1776.933 309.803 L
1801.567 307.681 L
1826.2 305.616 L
1850.833 303.605 L
1875.467 301.648 L
1900.1 299.742 L
1924.733 297.885 L
1949.367 296.077 L
1974 294.315 L
1998.633 292.598 L
2023.267 290.924 L
2047.9 289.292 L
2072.533 287.7 L
2097.167 286.148 L
2121.8 284.634 L
2146.433 283.157 L
2171.067 281.715 L
2195.7 280.308 L
2220.333 278.935 L
2244.967 277.593 L
2269.6 276.283 L
2294.233 275.004 L
2318.867 273.754 L
2343.5 272.532 L
2368.133 271.338 L
2392.767 270.172 L
2417.4 269.031 L
2442.033 267.915 L
2466.667 266.824 L
2491.3 265.757 L
2515.933 264.713 L
2540.567 263.691 L
2565.2 262.691 L
2589.833 261.712 L
2614.467 260.754 L
2639.1 259.815 L
2663.733 258.896 L
2688.367 257.996 L
2713 257.114 L
2737.633 256.25 L
2762.267 255.403 L
2786.9 254.573 L
2811.533 253.76 L
2836.167 252.962 L
2860.8 252.18 L
2885.433 251.413 L
2910.067 250.66 L
2934.7 249.922 L
2959.333 249.198 L
2983.967 248.487 L
3008.6 247.79 L
3033.233 247.105 L
3057.867 246.433 L
3082.5 245.773 L
3107.133 245.124 L
3131.767 244.488 L
3156.4 243.862 L
3181.033 243.248 L
3205.667 242.644 L
3230.3 242.051 L
3254.933 241.468 L
3279.567 240.895 L
3304.2 240.332 L
3328.833 239.778 L
3353.467 239.233 L
3378.1 238.698 L
3402.733 238.171 L
3427.367 237.653 L
3452 237.143 L
S
GR
GS
[0.375 0 0 0.375 0 0.25] CT
1 GC
N
3431 559 M
3431 430 L
2899 430 L
2899 559 L
cp
f
GR
GS
[0.375 0 0 0.375 1122.375 174.25] CT
/Helvetica 48 F
GS
[1 0 0 1 0 0] CT
0 19 moveto 
1 -1 scale
(Svensson-Soderlind) t 
GR
GR
GS
[0.375 0 0 0.375 0 0.25] CT
0 0.447 0.741 RC
1 LJ
5.333 LW
N
2907 464 M
2987 464 L
S
GR
GS
[0.375 0 0 0.375 1122.375 197.125] CT
/Helvetica 48 F
GS
[1 0 0 1 0 0] CT
0 19 moveto 
1 -1 scale
(4-factor SRB) t 
GR
GR
GS
[0.375 0 0 0.375 0 0.25] CT
0.851 0.325 0.098 RC
1 LJ
5.333 LW
N
2907 525 M
2987 525 L
S
GR
GS
[0.375 0 0 0.375 0 0.25] CT
0.149 GC
10.0 ML
1.333 LW
N
2899 559 M
2899 430 L
3431 430 L
3431 559 L
cp
S
GR
GS
[0.375 0 0 0.375 0 0.25] CT
1 GC
N
496 1177 M
3452 1177 L
3452 774 L
496 774 L
cp
f
GR
GS
[0.375 0 0 0.375 0 0.25] CT
0.873 GC
1 LJ
1.333 LW
N
569.9 1177 M
569.9 774 L
S
GR
GS
[0.375 0 0 0.375 0 0.25] CT
0.873 GC
1 LJ
1.333 LW
N
791.6 1177 M
791.6 774 L
S
GR
GS
[0.375 0 0 0.375 0 0.25] CT
0.873 GC
1 LJ
1.333 LW
N
1087.2 1177 M
1087.2 774 L
S
GR
GS
[0.375 0 0 0.375 0 0.25] CT
0.873 GC
1 LJ
1.333 LW
N
1382.8 1177 M
1382.8 774 L
S
GR
GS
[0.375 0 0 0.375 0 0.25] CT
0.873 GC
1 LJ
1.333 LW
N
1678.4 1177 M
1678.4 774 L
S
GR
GS
[0.375 0 0 0.375 0 0.25] CT
0.873 GC
1 LJ
1.333 LW
N
1974 1177 M
1974 774 L
S
GR
GS
[0.375 0 0 0.375 0 0.25] CT
0.873 GC
1 LJ
1.333 LW
N
2269.6 1177 M
2269.6 774 L
S
GR
GS
[0.375 0 0 0.375 0 0.25] CT
0.873 GC
1 LJ
1.333 LW
N
2565.2 1177 M
2565.2 774 L
S
GR
GS
[0.375 0 0 0.375 0 0.25] CT
0.873 GC
1 LJ
1.333 LW
N
2860.8 1177 M
2860.8 774 L
S
GR
GS
[0.375 0 0 0.375 0 0.25] CT
0.873 GC
1 LJ
1.333 LW
N
3156.4 1177 M
3156.4 774 L
S
GR
GS
[0.375 0 0 0.375 0 0.25] CT
0.873 GC
1 LJ
1.333 LW
N
3452 1177 M
3452 774 L
S
GR
GS
[0.375 0 0 0.375 0 0.25] CT
0.873 GC
1 LJ
1.333 LW
N
3452 1177 M
496 1177 L
S
GR
GS
[0.375 0 0 0.375 0 0.25] CT
0.873 GC
1 LJ
1.333 LW
N
3452 1015.8 M
496 1015.8 L
S
GR
GS
[0.375 0 0 0.375 0 0.25] CT
0.873 GC
1 LJ
1.333 LW
N
3452 854.6 M
496 854.6 L
S
GR
GS
[0.375 0 0 0.375 0 0.25] CT
0.149 GC
2 setlinecap
1 LJ
1.333 LW
N
496 1177 M
3452 1177 L
S
GR
GS
[0.375 0 0 0.375 0 0.25] CT
0.149 GC
2 setlinecap
1 LJ
1.333 LW
N
496 774 M
3452 774 L
S
GR
GS
[0.375 0 0 0.375 0 0.25] CT
0.149 GC
2 setlinecap
1 LJ
1.333 LW
N
569.9 1177 M
569.9 1147.44 L
S
GR
GS
[0.375 0 0 0.375 0 0.25] CT
0.149 GC
2 setlinecap
1 LJ
1.333 LW
N
791.6 1177 M
791.6 1147.44 L
S
GR
GS
[0.375 0 0 0.375 0 0.25] CT
0.149 GC
2 setlinecap
1 LJ
1.333 LW
N
1087.2 1177 M
1087.2 1147.44 L
S
GR
GS
[0.375 0 0 0.375 0 0.25] CT
0.149 GC
2 setlinecap
1 LJ
1.333 LW
N
1382.8 1177 M
1382.8 1147.44 L
S
GR
GS
[0.375 0 0 0.375 0 0.25] CT
0.149 GC
2 setlinecap
1 LJ
1.333 LW
N
1678.4 1177 M
1678.4 1147.44 L
S
GR
GS
[0.375 0 0 0.375 0 0.25] CT
0.149 GC
2 setlinecap
1 LJ
1.333 LW
N
1974 1177 M
1974 1147.44 L
S
GR
GS
[0.375 0 0 0.375 0 0.25] CT
0.149 GC
2 setlinecap
1 LJ
1.333 LW
N
2269.6 1177 M
2269.6 1147.44 L
S
GR
GS
[0.375 0 0 0.375 0 0.25] CT
0.149 GC
2 setlinecap
1 LJ
1.333 LW
N
2565.2 1177 M
2565.2 1147.44 L
S
GR
GS
[0.375 0 0 0.375 0 0.25] CT
0.149 GC
2 setlinecap
1 LJ
1.333 LW
N
2860.8 1177 M
2860.8 1147.44 L
S
GR
GS
[0.375 0 0 0.375 0 0.25] CT
0.149 GC
2 setlinecap
1 LJ
1.333 LW
N
3156.4 1177 M
3156.4 1147.44 L
S
GR
GS
[0.375 0 0 0.375 0 0.25] CT
0.149 GC
2 setlinecap
1 LJ
1.333 LW
N
3452 1177 M
3452 1147.44 L
S
GR
GS
[0.375 0 0 0.375 0 0.25] CT
0.149 GC
2 setlinecap
1 LJ
1.333 LW
N
569.9 774 M
569.9 803.56 L
S
GR
GS
[0.375 0 0 0.375 0 0.25] CT
0.149 GC
2 setlinecap
1 LJ
1.333 LW
N
791.6 774 M
791.6 803.56 L
S
GR
GS
[0.375 0 0 0.375 0 0.25] CT
0.149 GC
2 setlinecap
1 LJ
1.333 LW
N
1087.2 774 M
1087.2 803.56 L
S
GR
GS
[0.375 0 0 0.375 0 0.25] CT
0.149 GC
2 setlinecap
1 LJ
1.333 LW
N
1382.8 774 M
1382.8 803.56 L
S
GR
GS
[0.375 0 0 0.375 0 0.25] CT
0.149 GC
2 setlinecap
1 LJ
1.333 LW
N
1678.4 774 M
1678.4 803.56 L
S
GR
GS
[0.375 0 0 0.375 0 0.25] CT
0.149 GC
2 setlinecap
1 LJ
1.333 LW
N
1974 774 M
1974 803.56 L
S
GR
GS
[0.375 0 0 0.375 0 0.25] CT
0.149 GC
2 setlinecap
1 LJ
1.333 LW
N
2269.6 774 M
2269.6 803.56 L
S
GR
GS
[0.375 0 0 0.375 0 0.25] CT
0.149 GC
2 setlinecap
1 LJ
1.333 LW
N
2565.2 774 M
2565.2 803.56 L
S
GR
GS
[0.375 0 0 0.375 0 0.25] CT
0.149 GC
2 setlinecap
1 LJ
1.333 LW
N
2860.8 774 M
2860.8 803.56 L
S
GR
GS
[0.375 0 0 0.375 0 0.25] CT
0.149 GC
2 setlinecap
1 LJ
1.333 LW
N
3156.4 774 M
3156.4 803.56 L
S
GR
GS
[0.375 0 0 0.375 0 0.25] CT
0.149 GC
2 setlinecap
1 LJ
1.333 LW
N
3452 774 M
3452 803.56 L
S
GR
GS
[0.375 0 0 0.375 213.71251 447.625] CT
0.149 GC
/Helvetica 53.333 F
GS
[1 0 0 1 0 0] CT
-15 54 moveto 
1 -1 scale
(3) t 
GR
GR
GS
[0.375 0 0 0.375 296.84999 447.625] CT
0.149 GC
/Helvetica 53.333 F
GS
[1 0 0 1 0 0] CT
-30 54 moveto 
1 -1 scale
(12) t 
GR
GR
GS
[0.375 0 0 0.375 407.69998 447.625] CT
0.149 GC
/Helvetica 53.333 F
GS
[1 0 0 1 0 0] CT
-30 54 moveto 
1 -1 scale
(24) t 
GR
GR
GS
[0.375 0 0 0.375 518.55002 447.625] CT
0.149 GC
/Helvetica 53.333 F
GS
[1 0 0 1 0 0] CT
-30 54 moveto 
1 -1 scale
(36) t 
GR
GR
GS
[0.375 0 0 0.375 629.40001 447.625] CT
0.149 GC
/Helvetica 53.333 F
GS
[1 0 0 1 0 0] CT
-30 54 moveto 
1 -1 scale
(48) t 
GR
GR
GS
[0.375 0 0 0.375 740.25 447.625] CT
0.149 GC
/Helvetica 53.333 F
GS
[1 0 0 1 0 0] CT
-30 54 moveto 
1 -1 scale
(60) t 
GR
GR
GS
[0.375 0 0 0.375 851.10004 447.625] CT
0.149 GC
/Helvetica 53.333 F
GS
[1 0 0 1 0 0] CT
-30 54 moveto 
1 -1 scale
(72) t 
GR
GR
GS
[0.375 0 0 0.375 961.94998 447.625] CT
0.149 GC
/Helvetica 53.333 F
GS
[1 0 0 1 0 0] CT
-30 54 moveto 
1 -1 scale
(84) t 
GR
GR
GS
[0.375 0 0 0.375 1072.80002 447.625] CT
0.149 GC
/Helvetica 53.333 F
GS
[1 0 0 1 0 0] CT
-30 54 moveto 
1 -1 scale
(96) t 
GR
GR
GS
[0.375 0 0 0.375 1183.64996 447.625] CT
0.149 GC
/Helvetica 53.333 F
GS
[1 0 0 1 0 0] CT
-44.5 54 moveto 
1 -1 scale
(108) t 
GR
GR
GS
[0.375 0 0 0.375 1294.5 447.625] CT
0.149 GC
/Helvetica 53.333 F
GS
[1 0 0 1 0 0] CT
-44.5 54 moveto 
1 -1 scale
(120) t 
GR
GR
GS
[0.375 0 0 0.375 0 0.25] CT
0.149 GC
2 setlinecap
1 LJ
1.333 LW
N
496 1177 M
496 774 L
S
GR
GS
[0.375 0 0 0.375 0 0.25] CT
0.149 GC
2 setlinecap
1 LJ
1.333 LW
N
3452 1177 M
3452 774 L
S
GR
GS
[0.375 0 0 0.375 0 0.25] CT
0.149 GC
2 setlinecap
1 LJ
1.333 LW
N
496 1177 M
525.56 1177 L
S
GR
GS
[0.375 0 0 0.375 0 0.25] CT
0.149 GC
2 setlinecap
1 LJ
1.333 LW
N
496 1015.8 M
525.56 1015.8 L
S
GR
GS
[0.375 0 0 0.375 0 0.25] CT
0.149 GC
2 setlinecap
1 LJ
1.333 LW
N
496 854.6 M
525.56 854.6 L
S
GR
GS
[0.375 0 0 0.375 0 0.25] CT
0.149 GC
2 setlinecap
1 LJ
1.333 LW
N
3452 1177 M
3422.44 1177 L
S
GR
GS
[0.375 0 0 0.375 0 0.25] CT
0.149 GC
2 setlinecap
1 LJ
1.333 LW
N
3452 1015.8 M
3422.44 1015.8 L
S
GR
GS
[0.375 0 0 0.375 0 0.25] CT
0.149 GC
2 setlinecap
1 LJ
1.333 LW
N
3452 854.6 M
3422.44 854.6 L
S
GR
GS
[0.375 0 0 0.375 180 441.625] CT
0.149 GC
/Helvetica 53.333 F
GS
[1 0 0 1 0 0] CT
-30 21 moveto 
1 -1 scale
(0) t 
GR
GR
GS
[0.375 0 0 0.375 180 381.175] CT
0.149 GC
/Helvetica 53.333 F
GS
[1 0 0 1 0 0] CT
-75 21 moveto 
1 -1 scale
(0.2) t 
GR
GR
GS
[0.375 0 0 0.375 180 320.72499] CT
0.149 GC
/Helvetica 53.333 F
GS
[1 0 0 1 0 0] CT
-75 21 moveto 
1 -1 scale
(0.4) t 
GR
GR
GS
[0 -0.375 0.375 0 148.875 366.06243] CT
0.149 GC
/Helvetica 58.667 F
GS
[1 0 0 1 0 0] CT
-75.5 -13 moveto 
1 -1 scale
(Value) t 
GR
GR
GS
[0.375 0 0 0.375 740.25069 288.4375] CT
/Helvetica-Bold 58.667 F
GS
[1 0 0 1 0 0] CT
-163 -13 moveto 
1 -1 scale
(Curvature 1) t 
GR
GR
GS
[0.375 0 0 0.375 0 0.25] CT
0 0.447 0.741 RC
1 LJ
5.333 LW
N
520.633 1162.03 M
545.267 1147.808 L
569.9 1134.301 L
594.533 1121.48 L
619.167 1109.316 L
643.8 1097.781 L
668.433 1086.847 L
693.067 1076.49 L
717.7 1066.686 L
742.333 1057.409 L
766.967 1048.638 L
791.6 1040.35 L
816.233 1032.525 L
840.867 1025.143 L
865.5 1018.185 L
890.133 1011.632 L
914.767 1005.466 L
939.4 999.67 L
964.033 994.229 L
988.667 989.126 L
1013.3 984.346 L
1037.933 979.875 L
1062.567 975.7 L
1087.2 971.806 L
1111.833 968.182 L
1136.467 964.814 L
1161.1 961.692 L
1185.733 958.804 L
1210.367 956.14 L
1235 953.689 L
1259.633 951.441 L
1284.267 949.386 L
1308.9 947.517 L
1333.533 945.823 L
1358.167 944.297 L
1382.8 942.931 L
1407.433 941.717 L
1432.067 940.648 L
1456.7 939.716 L
1481.333 938.915 L
1505.967 938.239 L
1530.6 937.681 L
1555.233 937.236 L
1579.867 936.897 L
1604.5 936.66 L
1629.133 936.519 L
1653.767 936.469 L
1678.4 936.506 L
1703.033 936.624 L
1727.667 936.82 L
1752.3 937.09 L
1776.933 937.429 L
1801.567 937.833 L
1826.2 938.3 L
1850.833 938.825 L
1875.467 939.405 L
1900.1 940.037 L
1924.733 940.718 L
1949.367 941.445 L
1974 942.215 L
1998.633 943.025 L
2023.267 943.874 L
2047.9 944.759 L
2072.533 945.676 L
2097.167 946.625 L
2121.8 947.603 L
2146.433 948.607 L
2171.067 949.637 L
2195.7 950.69 L
2220.333 951.765 L
2244.967 952.859 L
2269.6 953.971 L
2294.233 955.1 L
2318.867 956.245 L
2343.5 957.403 L
2368.133 958.574 L
2392.767 959.757 L
2417.4 960.949 L
2442.033 962.151 L
2466.667 963.36 L
2491.3 964.577 L
2515.933 965.8 L
2540.567 967.027 L
2565.2 968.259 L
2589.833 969.495 L
2614.467 970.733 L
2639.1 971.972 L
2663.733 973.213 L
2688.367 974.455 L
2713 975.696 L
2737.633 976.937 L
2762.267 978.176 L
2786.9 979.414 L
2811.533 980.649 L
2836.167 981.882 L
2860.8 983.111 L
2885.433 984.337 L
2910.067 985.559 L
2934.7 986.776 L
2959.333 987.988 L
2983.967 989.196 L
3008.6 990.398 L
3033.233 991.594 L
3057.867 992.784 L
3082.5 993.969 L
3107.133 995.146 L
3131.767 996.317 L
3156.4 997.482 L
3181.033 998.639 L
3205.667 999.789 L
3230.3 1000.931 L
3254.933 1002.067 L
3279.567 1003.194 L
3304.2 1004.314 L
3328.833 1005.426 L
3353.467 1006.53 L
3378.1 1007.625 L
3402.733 1008.713 L
3427.367 1009.793 L
3452 1010.864 L
S
GR
GS
[0.375 0 0 0.375 0 0.25] CT
0.851 0.325 0.098 RC
1 LJ
5.333 LW
N
520.633 1177 M
545.267 1154.835 L
569.9 1134.295 L
594.533 1115.281 L
619.167 1097.696 L
643.8 1081.453 L
668.433 1066.467 L
693.067 1052.659 L
717.7 1039.955 L
742.333 1028.285 L
766.967 1017.583 L
791.6 1007.789 L
816.233 998.842 L
840.867 990.689 L
865.5 983.279 L
890.133 976.562 L
914.767 970.494 L
939.4 965.032 L
964.033 960.135 L
988.667 955.766 L
1013.3 951.889 L
1037.933 948.472 L
1062.567 945.482 L
1087.2 942.89 L
1111.833 940.67 L
1136.467 938.794 L
1161.1 937.239 L
1185.733 935.981 L
1210.367 935 L
1235 934.275 L
1259.633 933.788 L
1284.267 933.52 L
1308.9 933.456 L
1333.533 933.579 L
1358.167 933.876 L
1382.8 934.332 L
1407.433 934.935 L
1432.067 935.673 L
1456.7 936.535 L
1481.333 937.511 L
1505.967 938.59 L
1530.6 939.763 L
1555.233 941.022 L
1579.867 942.36 L
1604.5 943.768 L
1629.133 945.239 L
1653.767 946.768 L
1678.4 948.348 L
1703.033 949.973 L
1727.667 951.638 L
1752.3 953.339 L
1776.933 955.071 L
1801.567 956.829 L
1826.2 958.61 L
1850.833 960.41 L
1875.467 962.225 L
1900.1 964.054 L
1924.733 965.891 L
1949.367 967.736 L
1974 969.585 L
1998.633 971.437 L
2023.267 973.288 L
2047.9 975.138 L
2072.533 976.984 L
2097.167 978.825 L
2121.8 980.659 L
2146.433 982.484 L
2171.067 984.301 L
2195.7 986.107 L
2220.333 987.901 L
2244.967 989.682 L
2269.6 991.451 L
2294.233 993.205 L
2318.867 994.944 L
2343.5 996.668 L
2368.133 998.375 L
2392.767 1000.067 L
2417.4 1001.741 L
2442.033 1003.398 L
2466.667 1005.037 L
2491.3 1006.658 L
2515.933 1008.261 L
2540.567 1009.846 L
2565.2 1011.413 L
2589.833 1012.96 L
2614.467 1014.49 L
2639.1 1016 L
2663.733 1017.491 L
2688.367 1018.964 L
2713 1020.418 L
2737.633 1021.854 L
2762.267 1023.27 L
2786.9 1024.669 L
2811.533 1026.048 L
2836.167 1027.41 L
2860.8 1028.753 L
2885.433 1030.078 L
2910.067 1031.385 L
2934.7 1032.674 L
2959.333 1033.946 L
2983.967 1035.2 L
3008.6 1036.437 L
3033.233 1037.656 L
3057.867 1038.859 L
3082.5 1040.045 L
3107.133 1041.215 L
3131.767 1042.369 L
3156.4 1043.506 L
3181.033 1044.627 L
3205.667 1045.733 L
3230.3 1046.823 L
3254.933 1047.899 L
3279.567 1048.959 L
3304.2 1050.004 L
3328.833 1051.035 L
3353.467 1052.051 L
3378.1 1053.053 L
3402.733 1054.042 L
3427.367 1055.016 L
3452 1055.977 L
S
GR
GS
[0.375 0 0 0.375 0 0.25] CT
1 GC
N
496 1775 M
3452 1775 L
3452 1371 L
496 1371 L
cp
f
GR
GS
[0.375 0 0 0.375 0 0.25] CT
0.873 GC
1 LJ
1.333 LW
N
569.9 1775 M
569.9 1371 L
S
GR
GS
[0.375 0 0 0.375 0 0.25] CT
0.873 GC
1 LJ
1.333 LW
N
791.6 1775 M
791.6 1371 L
S
GR
GS
[0.375 0 0 0.375 0 0.25] CT
0.873 GC
1 LJ
1.333 LW
N
1087.2 1775 M
1087.2 1371 L
S
GR
GS
[0.375 0 0 0.375 0 0.25] CT
0.873 GC
1 LJ
1.333 LW
N
1382.8 1775 M
1382.8 1371 L
S
GR
GS
[0.375 0 0 0.375 0 0.25] CT
0.873 GC
1 LJ
1.333 LW
N
1678.4 1775 M
1678.4 1371 L
S
GR
GS
[0.375 0 0 0.375 0 0.25] CT
0.873 GC
1 LJ
1.333 LW
N
1974 1775 M
1974 1371 L
S
GR
GS
[0.375 0 0 0.375 0 0.25] CT
0.873 GC
1 LJ
1.333 LW
N
2269.6 1775 M
2269.6 1371 L
S
GR
GS
[0.375 0 0 0.375 0 0.25] CT
0.873 GC
1 LJ
1.333 LW
N
2565.2 1775 M
2565.2 1371 L
S
GR
GS
[0.375 0 0 0.375 0 0.25] CT
0.873 GC
1 LJ
1.333 LW
N
2860.8 1775 M
2860.8 1371 L
S
GR
GS
[0.375 0 0 0.375 0 0.25] CT
0.873 GC
1 LJ
1.333 LW
N
3156.4 1775 M
3156.4 1371 L
S
GR
GS
[0.375 0 0 0.375 0 0.25] CT
0.873 GC
1 LJ
1.333 LW
N
3452 1775 M
3452 1371 L
S
GR
GS
[0.375 0 0 0.375 0 0.25] CT
0.873 GC
1 LJ
1.333 LW
N
3452 1775 M
496 1775 L
S
GR
GS
[0.375 0 0 0.375 0 0.25] CT
0.873 GC
1 LJ
1.333 LW
N
3452 1613.4 M
496 1613.4 L
S
GR
GS
[0.375 0 0 0.375 0 0.25] CT
0.873 GC
1 LJ
1.333 LW
N
3452 1451.8 M
496 1451.8 L
S
GR
GS
[0.375 0 0 0.375 0 0.25] CT
0.149 GC
2 setlinecap
1 LJ
1.333 LW
N
496 1775 M
3452 1775 L
S
GR
GS
[0.375 0 0 0.375 0 0.25] CT
0.149 GC
2 setlinecap
1 LJ
1.333 LW
N
496 1371 M
3452 1371 L
S
GR
GS
[0.375 0 0 0.375 0 0.25] CT
0.149 GC
2 setlinecap
1 LJ
1.333 LW
N
569.9 1775 M
569.9 1745.44 L
S
GR
GS
[0.375 0 0 0.375 0 0.25] CT
0.149 GC
2 setlinecap
1 LJ
1.333 LW
N
791.6 1775 M
791.6 1745.44 L
S
GR
GS
[0.375 0 0 0.375 0 0.25] CT
0.149 GC
2 setlinecap
1 LJ
1.333 LW
N
1087.2 1775 M
1087.2 1745.44 L
S
GR
GS
[0.375 0 0 0.375 0 0.25] CT
0.149 GC
2 setlinecap
1 LJ
1.333 LW
N
1382.8 1775 M
1382.8 1745.44 L
S
GR
GS
[0.375 0 0 0.375 0 0.25] CT
0.149 GC
2 setlinecap
1 LJ
1.333 LW
N
1678.4 1775 M
1678.4 1745.44 L
S
GR
GS
[0.375 0 0 0.375 0 0.25] CT
0.149 GC
2 setlinecap
1 LJ
1.333 LW
N
1974 1775 M
1974 1745.44 L
S
GR
GS
[0.375 0 0 0.375 0 0.25] CT
0.149 GC
2 setlinecap
1 LJ
1.333 LW
N
2269.6 1775 M
2269.6 1745.44 L
S
GR
GS
[0.375 0 0 0.375 0 0.25] CT
0.149 GC
2 setlinecap
1 LJ
1.333 LW
N
2565.2 1775 M
2565.2 1745.44 L
S
GR
GS
[0.375 0 0 0.375 0 0.25] CT
0.149 GC
2 setlinecap
1 LJ
1.333 LW
N
2860.8 1775 M
2860.8 1745.44 L
S
GR
GS
[0.375 0 0 0.375 0 0.25] CT
0.149 GC
2 setlinecap
1 LJ
1.333 LW
N
3156.4 1775 M
3156.4 1745.44 L
S
GR
GS
[0.375 0 0 0.375 0 0.25] CT
0.149 GC
2 setlinecap
1 LJ
1.333 LW
N
3452 1775 M
3452 1745.44 L
S
GR
GS
[0.375 0 0 0.375 0 0.25] CT
0.149 GC
2 setlinecap
1 LJ
1.333 LW
N
569.9 1371 M
569.9 1400.56 L
S
GR
GS
[0.375 0 0 0.375 0 0.25] CT
0.149 GC
2 setlinecap
1 LJ
1.333 LW
N
791.6 1371 M
791.6 1400.56 L
S
GR
GS
[0.375 0 0 0.375 0 0.25] CT
0.149 GC
2 setlinecap
1 LJ
1.333 LW
N
1087.2 1371 M
1087.2 1400.56 L
S
GR
GS
[0.375 0 0 0.375 0 0.25] CT
0.149 GC
2 setlinecap
1 LJ
1.333 LW
N
1382.8 1371 M
1382.8 1400.56 L
S
GR
GS
[0.375 0 0 0.375 0 0.25] CT
0.149 GC
2 setlinecap
1 LJ
1.333 LW
N
1678.4 1371 M
1678.4 1400.56 L
S
GR
GS
[0.375 0 0 0.375 0 0.25] CT
0.149 GC
2 setlinecap
1 LJ
1.333 LW
N
1974 1371 M
1974 1400.56 L
S
GR
GS
[0.375 0 0 0.375 0 0.25] CT
0.149 GC
2 setlinecap
1 LJ
1.333 LW
N
2269.6 1371 M
2269.6 1400.56 L
S
GR
GS
[0.375 0 0 0.375 0 0.25] CT
0.149 GC
2 setlinecap
1 LJ
1.333 LW
N
2565.2 1371 M
2565.2 1400.56 L
S
GR
GS
[0.375 0 0 0.375 0 0.25] CT
0.149 GC
2 setlinecap
1 LJ
1.333 LW
N
2860.8 1371 M
2860.8 1400.56 L
S
GR
GS
[0.375 0 0 0.375 0 0.25] CT
0.149 GC
2 setlinecap
1 LJ
1.333 LW
N
3156.4 1371 M
3156.4 1400.56 L
S
GR
GS
[0.375 0 0 0.375 0 0.25] CT
0.149 GC
2 setlinecap
1 LJ
1.333 LW
N
3452 1371 M
3452 1400.56 L
S
GR
GS
[0.375 0 0 0.375 213.71251 671.875] CT
0.149 GC
/Helvetica 53.333 F
GS
[1 0 0 1 0 0] CT
-15 54 moveto 
1 -1 scale
(3) t 
GR
GR
GS
[0.375 0 0 0.375 296.84999 671.875] CT
0.149 GC
/Helvetica 53.333 F
GS
[1 0 0 1 0 0] CT
-30 54 moveto 
1 -1 scale
(12) t 
GR
GR
GS
[0.375 0 0 0.375 407.69998 671.875] CT
0.149 GC
/Helvetica 53.333 F
GS
[1 0 0 1 0 0] CT
-30 54 moveto 
1 -1 scale
(24) t 
GR
GR
GS
[0.375 0 0 0.375 518.55002 671.875] CT
0.149 GC
/Helvetica 53.333 F
GS
[1 0 0 1 0 0] CT
-30 54 moveto 
1 -1 scale
(36) t 
GR
GR
GS
[0.375 0 0 0.375 629.40001 671.875] CT
0.149 GC
/Helvetica 53.333 F
GS
[1 0 0 1 0 0] CT
-30 54 moveto 
1 -1 scale
(48) t 
GR
GR
GS
[0.375 0 0 0.375 740.25 671.875] CT
0.149 GC
/Helvetica 53.333 F
GS
[1 0 0 1 0 0] CT
-30 54 moveto 
1 -1 scale
(60) t 
GR
GR
GS
[0.375 0 0 0.375 851.10004 671.875] CT
0.149 GC
/Helvetica 53.333 F
GS
[1 0 0 1 0 0] CT
-30 54 moveto 
1 -1 scale
(72) t 
GR
GR
GS
[0.375 0 0 0.375 961.94998 671.875] CT
0.149 GC
/Helvetica 53.333 F
GS
[1 0 0 1 0 0] CT
-30 54 moveto 
1 -1 scale
(84) t 
GR
GR
GS
[0.375 0 0 0.375 1072.80002 671.875] CT
0.149 GC
/Helvetica 53.333 F
GS
[1 0 0 1 0 0] CT
-30 54 moveto 
1 -1 scale
(96) t 
GR
GR
GS
[0.375 0 0 0.375 1183.64996 671.875] CT
0.149 GC
/Helvetica 53.333 F
GS
[1 0 0 1 0 0] CT
-44.5 54 moveto 
1 -1 scale
(108) t 
GR
GR
GS
[0.375 0 0 0.375 1294.5 671.875] CT
0.149 GC
/Helvetica 53.333 F
GS
[1 0 0 1 0 0] CT
-44.5 54 moveto 
1 -1 scale
(120) t 
GR
GR
GS
[0.375 0 0 0.375 0 0.25] CT
0.149 GC
2 setlinecap
1 LJ
1.333 LW
N
496 1775 M
496 1371 L
S
GR
GS
[0.375 0 0 0.375 0 0.25] CT
0.149 GC
2 setlinecap
1 LJ
1.333 LW
N
3452 1775 M
3452 1371 L
S
GR
GS
[0.375 0 0 0.375 0 0.25] CT
0.149 GC
2 setlinecap
1 LJ
1.333 LW
N
496 1775 M
525.56 1775 L
S
GR
GS
[0.375 0 0 0.375 0 0.25] CT
0.149 GC
2 setlinecap
1 LJ
1.333 LW
N
496 1613.4 M
525.56 1613.4 L
S
GR
GS
[0.375 0 0 0.375 0 0.25] CT
0.149 GC
2 setlinecap
1 LJ
1.333 LW
N
496 1451.8 M
525.56 1451.8 L
S
GR
GS
[0.375 0 0 0.375 0 0.25] CT
0.149 GC
2 setlinecap
1 LJ
1.333 LW
N
3452 1775 M
3422.44 1775 L
S
GR
GS
[0.375 0 0 0.375 0 0.25] CT
0.149 GC
2 setlinecap
1 LJ
1.333 LW
N
3452 1613.4 M
3422.44 1613.4 L
S
GR
GS
[0.375 0 0 0.375 0 0.25] CT
0.149 GC
2 setlinecap
1 LJ
1.333 LW
N
3452 1451.8 M
3422.44 1451.8 L
S
GR
GS
[0.375 0 0 0.375 180 665.875] CT
0.149 GC
/Helvetica 53.333 F
GS
[1 0 0 1 0 0] CT
-30 21 moveto 
1 -1 scale
(0) t 
GR
GR
GS
[0.375 0 0 0.375 180 605.27501] CT
0.149 GC
/Helvetica 53.333 F
GS
[1 0 0 1 0 0] CT
-75 21 moveto 
1 -1 scale
(0.2) t 
GR
GR
GS
[0.375 0 0 0.375 180 544.67502] CT
0.149 GC
/Helvetica 53.333 F
GS
[1 0 0 1 0 0] CT
-75 21 moveto 
1 -1 scale
(0.4) t 
GR
GR
GS
[0 -0.375 0.375 0 148.875 590.12491] CT
0.149 GC
/Helvetica 58.667 F
GS
[1 0 0 1 0 0] CT
-75.5 -13 moveto 
1 -1 scale
(Value) t 
GR
GR
GS
[0.375 0 0 0.375 740.25069 512.3125] CT
/Helvetica-Bold 58.667 F
GS
[1 0 0 1 0 0] CT
-163 -13 moveto 
1 -1 scale
(Curvature 2) t 
GR
GR
GS
[0.375 0 0 0.375 0 0.25] CT
0 0.447 0.741 RC
1 LJ
5.333 LW
N
520.633 1720.429 M
545.267 1675.999 L
569.9 1640.124 L
594.533 1611.453 L
619.167 1588.834 L
643.8 1571.291 L
668.433 1557.991 L
693.067 1548.228 L
717.7 1541.405 L
742.333 1537.012 L
766.967 1534.623 L
791.6 1533.873 L
816.233 1534.457 L
840.867 1536.117 L
865.5 1538.637 L
890.133 1541.836 L
914.767 1545.562 L
939.4 1549.687 L
964.033 1554.107 L
988.667 1558.735 L
1013.3 1563.498 L
1037.933 1568.338 L
1062.567 1573.207 L
1087.2 1578.065 L
1111.833 1582.881 L
1136.467 1587.632 L
1161.1 1592.296 L
1185.733 1596.86 L
1210.367 1601.312 L
1235 1605.644 L
1259.633 1609.851 L
1284.267 1613.929 L
1308.9 1617.877 L
1333.533 1621.693 L
1358.167 1625.38 L
1382.8 1628.939 L
1407.433 1632.372 L
1432.067 1635.681 L
1456.7 1638.871 L
1481.333 1641.945 L
1505.967 1644.906 L
1530.6 1647.759 L
1555.233 1650.507 L
1579.867 1653.155 L
1604.5 1655.706 L
1629.133 1658.164 L
1653.767 1660.534 L
1678.4 1662.818 L
1703.033 1665.021 L
1727.667 1667.146 L
1752.3 1669.197 L
1776.933 1671.177 L
1801.567 1673.088 L
1826.2 1674.934 L
1850.833 1676.718 L
1875.467 1678.443 L
1900.1 1680.111 L
1924.733 1681.724 L
1949.367 1683.286 L
1974 1684.797 L
1998.633 1686.262 L
2023.267 1687.68 L
2047.9 1689.056 L
2072.533 1690.389 L
2097.167 1691.683 L
2121.8 1692.939 L
2146.433 1694.157 L
2171.067 1695.341 L
2195.7 1696.491 L
2220.333 1697.609 L
2244.967 1698.696 L
2269.6 1699.753 L
2294.233 1700.781 L
2318.867 1701.782 L
2343.5 1702.756 L
2368.133 1703.706 L
2392.767 1704.63 L
2417.4 1705.531 L
2442.033 1706.409 L
2466.667 1707.266 L
2491.3 1708.101 L
2515.933 1708.917 L
2540.567 1709.712 L
2565.2 1710.489 L
2589.833 1711.248 L
2614.467 1711.989 L
2639.1 1712.713 L
2663.733 1713.42 L
2688.367 1714.112 L
2713 1714.788 L
2737.633 1715.45 L
2762.267 1716.097 L
2786.9 1716.73 L
2811.533 1717.35 L
2836.167 1717.957 L
2860.8 1718.551 L
2885.433 1719.133 L
2910.067 1719.703 L
2934.7 1720.261 L
2959.333 1720.808 L
2983.967 1721.345 L
3008.6 1721.871 L
3033.233 1722.387 L
3057.867 1722.893 L
3082.5 1723.389 L
3107.133 1723.876 L
3131.767 1724.354 L
3156.4 1724.823 L
3181.033 1725.283 L
3205.667 1725.735 L
3230.3 1726.179 L
3254.933 1726.615 L
3279.567 1727.043 L
3304.2 1727.463 L
3328.833 1727.877 L
3353.467 1728.283 L
3378.1 1728.682 L
3402.733 1729.075 L
3427.367 1729.461 L
3452 1729.84 L
S
GR
GS
[0.375 0 0 0.375 0 0.25] CT
0.851 0.325 0.098 RC
1 LJ
5.333 LW
N
520.633 1775 M
545.267 1752.78 L
569.9 1733.004 L
594.533 1715.471 L
619.167 1699.993 L
643.8 1686.398 L
668.433 1674.526 L
693.067 1664.227 L
717.7 1655.365 L
742.333 1647.813 L
766.967 1641.454 L
791.6 1636.179 L
816.233 1631.888 L
840.867 1628.489 L
865.5 1625.897 L
890.133 1624.033 L
914.767 1622.826 L
939.4 1622.208 L
964.033 1622.118 L
988.667 1622.5 L
1013.3 1623.302 L
1037.933 1624.478 L
1062.567 1625.983 L
1087.2 1627.778 L
1111.833 1629.827 L
1136.467 1632.095 L
1161.1 1634.553 L
1185.733 1637.173 L
1210.367 1639.929 L
1235 1642.8 L
1259.633 1645.763 L
1284.267 1648.8 L
1308.9 1651.894 L
1333.533 1655.029 L
1358.167 1658.192 L
1382.8 1661.37 L
1407.433 1664.552 L
1432.067 1667.727 L
1456.7 1670.887 L
1481.333 1674.024 L
1505.967 1677.131 L
1530.6 1680.202 L
1555.233 1683.231 L
1579.867 1686.213 L
1604.5 1689.145 L
1629.133 1692.023 L
1653.767 1694.844 L
1678.4 1697.606 L
1703.033 1700.307 L
1727.667 1702.945 L
1752.3 1705.518 L
1776.933 1708.026 L
1801.567 1710.469 L
1826.2 1712.845 L
1850.833 1715.156 L
1875.467 1717.4 L
1900.1 1719.578 L
1924.733 1721.691 L
1949.367 1723.739 L
1974 1725.723 L
1998.633 1727.644 L
2023.267 1729.503 L
2047.9 1731.301 L
2072.533 1733.038 L
2097.167 1734.716 L
2121.8 1736.337 L
2146.433 1737.902 L
2171.067 1739.411 L
2195.7 1740.866 L
2220.333 1742.269 L
2244.967 1743.621 L
2269.6 1744.923 L
2294.233 1746.177 L
2318.867 1747.384 L
2343.5 1748.546 L
2368.133 1749.663 L
2392.767 1750.737 L
2417.4 1751.77 L
2442.033 1752.762 L
2466.667 1753.716 L
2491.3 1754.632 L
2515.933 1755.512 L
2540.567 1756.356 L
2565.2 1757.167 L
2589.833 1757.945 L
2614.467 1758.691 L
2639.1 1759.406 L
2663.733 1760.093 L
2688.367 1760.751 L
2713 1761.381 L
2737.633 1761.986 L
2762.267 1762.565 L
2786.9 1763.12 L
2811.533 1763.651 L
2836.167 1764.16 L
2860.8 1764.647 L
2885.433 1765.114 L
2910.067 1765.56 L
2934.7 1765.987 L
2959.333 1766.396 L
2983.967 1766.787 L
3008.6 1767.161 L
3033.233 1767.519 L
3057.867 1767.861 L
3082.5 1768.188 L
3107.133 1768.501 L
3131.767 1768.8 L
3156.4 1769.086 L
3181.033 1769.359 L
3205.667 1769.62 L
3230.3 1769.869 L
3254.933 1770.107 L
3279.567 1770.335 L
3304.2 1770.552 L
3328.833 1770.759 L
3353.467 1770.957 L
3378.1 1771.146 L
3402.733 1771.327 L
3427.367 1771.499 L
3452 1771.664 L
S
GR
%%Trailer
%%Pages: 1
%%EOF
