%!PS-Adobe-3.0 EPSF-3.0
%%Creator: (MATLAB, The Mathworks, Inc. Version 9.6.0.1072779 \(R2019a\). Operating System: Windows 7)
%%Title: ./RotatedFactors2_5_10.eps
%%CreationDate: 2020-09-18T11:03:29
%%Pages: (atend)
%%BoundingBox:   119    38  1067   559
%%LanguageLevel: 3
%%EndComments
%%BeginProlog
%%BeginResource: procset (Apache XML Graphics Std ProcSet) 1.2 0
%%Version: 1.2 0
%%Copyright: (Copyright 2001-2003,2010 The Apache Software Foundation. License terms: http://www.apache.org/licenses/LICENSE-2.0)
/bd{bind def}bind def
/ld{load def}bd
/GR/grestore ld
/GS/gsave ld
/RM/rmoveto ld
/C/curveto ld
/t/show ld
/L/lineto ld
/ML/setmiterlimit ld
/CT/concat ld
/f/fill ld
/N/newpath ld
/S/stroke ld
/CC/setcmykcolor ld
/A/ashow ld
/cp/closepath ld
/RC/setrgbcolor ld
/LJ/setlinejoin ld
/GC/setgray ld
/LW/setlinewidth ld
/M/moveto ld
/re {4 2 roll M
1 index 0 rlineto
0 exch rlineto
neg 0 rlineto
cp } bd
/_ctm matrix def
/_tm matrix def
/BT { _ctm currentmatrix pop matrix _tm copy pop 0 0 moveto } bd
/ET { _ctm setmatrix } bd
/iTm { _ctm setmatrix _tm concat } bd
/Tm { _tm astore pop iTm 0 0 moveto } bd
/ux 0.0 def
/uy 0.0 def
/F {
  /Tp exch def
  /Tf exch def
  Tf findfont Tp scalefont setfont
  /cf Tf def  /cs Tp def
} bd
/ULS {currentpoint /uy exch def /ux exch def} bd
/ULE {
  /Tcx currentpoint pop def
  gsave
  newpath
  cf findfont cs scalefont dup
  /FontMatrix get 0 get /Ts exch def /FontInfo get dup
  /UnderlinePosition get Ts mul /To exch def
  /UnderlineThickness get Ts mul /Tt exch def
  ux uy To add moveto  Tcx uy To add lineto
  Tt setlinewidth stroke
  grestore
} bd
/OLE {
  /Tcx currentpoint pop def
  gsave
  newpath
  cf findfont cs scalefont dup
  /FontMatrix get 0 get /Ts exch def /FontInfo get dup
  /UnderlinePosition get Ts mul /To exch def
  /UnderlineThickness get Ts mul /Tt exch def
  ux uy To add cs add moveto Tcx uy To add cs add lineto
  Tt setlinewidth stroke
  grestore
} bd
/SOE {
  /Tcx currentpoint pop def
  gsave
  newpath
  cf findfont cs scalefont dup
  /FontMatrix get 0 get /Ts exch def /FontInfo get dup
  /UnderlinePosition get Ts mul /To exch def
  /UnderlineThickness get Ts mul /Tt exch def
  ux uy To add cs 10 mul 26 idiv add moveto Tcx uy To add cs 10 mul 26 idiv add lineto
  Tt setlinewidth stroke
  grestore
} bd
/QT {
/Y22 exch store
/X22 exch store
/Y21 exch store
/X21 exch store
currentpoint
/Y21 load 2 mul add 3 div exch
/X21 load 2 mul add 3 div exch
/X21 load 2 mul /X22 load add 3 div
/Y21 load 2 mul /Y22 load add 3 div
/X22 load /Y22 load curveto
} bd
/SSPD {
dup length /d exch dict def
{
/v exch def
/k exch def
currentpagedevice k known {
/cpdv currentpagedevice k get def
v cpdv ne {
/upd false def
/nullv v type /nulltype eq def
/nullcpdv cpdv type /nulltype eq def
nullv nullcpdv or
{
/upd true def
} {
/sametype v type cpdv type eq def
sametype {
v type /arraytype eq {
/vlen v length def
/cpdvlen cpdv length def
vlen cpdvlen eq {
0 1 vlen 1 sub {
/i exch def
/obj v i get def
/cpdobj cpdv i get def
obj cpdobj ne {
/upd true def
exit
} if
} for
} {
/upd true def
} ifelse
} {
v type /dicttype eq {
v {
/dv exch def
/dk exch def
/cpddv cpdv dk get def
dv cpddv ne {
/upd true def
exit
} if
} forall
} {
/upd true def
} ifelse
} ifelse
} if
} ifelse
upd true eq {
d k v put
} if
} if
} if
} forall
d length 0 gt {
d setpagedevice
} if
} bd
/RE { % /NewFontName [NewEncodingArray] /FontName RE -
  findfont dup length dict begin
  {
    1 index /FID ne
    {def} {pop pop} ifelse
  } forall
  /Encoding exch def
  /FontName 1 index def
  currentdict definefont pop
  end
} bind def
%%EndResource
%%BeginResource: procset (Apache XML Graphics EPS ProcSet) 1.0 0
%%Version: 1.0 0
%%Copyright: (Copyright 2002-2003 The Apache Software Foundation. License terms: http://www.apache.org/licenses/LICENSE-2.0)
/BeginEPSF { %def
/b4_Inc_state save def         % Save state for cleanup
/dict_count countdictstack def % Count objects on dict stack
/op_count count 1 sub def      % Count objects on operand stack
userdict begin                 % Push userdict on dict stack
/showpage { } def              % Redefine showpage, { } = null proc
0 setgray 0 setlinecap         % Prepare graphics state
1 setlinewidth 0 setlinejoin
10 setmiterlimit [ ] 0 setdash newpath
/languagelevel where           % If level not equal to 1 then
{pop languagelevel             % set strokeadjust and
1 ne                           % overprint to their defaults.
{false setstrokeadjust false setoverprint
} if
} if
} bd
/EndEPSF { %def
count op_count sub {pop} repeat            % Clean up stacks
countdictstack dict_count sub {end} repeat
b4_Inc_state restore
} bd
%%EndResource
%FOPBeginFontDict
%%IncludeResource: font Courier-Oblique
%%IncludeResource: font Courier-BoldOblique
%%IncludeResource: font Courier-Bold
%%IncludeResource: font ZapfDingbats
%%IncludeResource: font Symbol
%%IncludeResource: font Helvetica
%%IncludeResource: font Helvetica-Oblique
%%IncludeResource: font Helvetica-Bold
%%IncludeResource: font Helvetica-BoldOblique
%%IncludeResource: font Times-Roman
%%IncludeResource: font Times-Italic
%%IncludeResource: font Times-Bold
%%IncludeResource: font Times-BoldItalic
%%IncludeResource: font Courier
%FOPEndFontDict
%%BeginResource: encoding WinAnsiEncoding
/WinAnsiEncoding [
/.notdef /.notdef /.notdef /.notdef /.notdef
/.notdef /.notdef /.notdef /.notdef /.notdef
/.notdef /.notdef /.notdef /.notdef /.notdef
/.notdef /.notdef /.notdef /.notdef /.notdef
/.notdef /.notdef /.notdef /.notdef /.notdef
/.notdef /.notdef /.notdef /.notdef /.notdef
/.notdef /.notdef /space /exclam /quotedbl
/numbersign /dollar /percent /ampersand /quotesingle
/parenleft /parenright /asterisk /plus /comma
/hyphen /period /slash /zero /one
/two /three /four /five /six
/seven /eight /nine /colon /semicolon
/less /equal /greater /question /at
/A /B /C /D /E
/F /G /H /I /J
/K /L /M /N /O
/P /Q /R /S /T
/U /V /W /X /Y
/Z /bracketleft /backslash /bracketright /asciicircum
/underscore /quoteleft /a /b /c
/d /e /f /g /h
/i /j /k /l /m
/n /o /p /q /r
/s /t /u /v /w
/x /y /z /braceleft /bar
/braceright /asciitilde /bullet /Euro /bullet
/quotesinglbase /florin /quotedblbase /ellipsis /dagger
/daggerdbl /circumflex /perthousand /Scaron /guilsinglleft
/OE /bullet /Zcaron /bullet /bullet
/quoteleft /quoteright /quotedblleft /quotedblright /bullet
/endash /emdash /asciitilde /trademark /scaron
/guilsinglright /oe /bullet /zcaron /Ydieresis
/space /exclamdown /cent /sterling /currency
/yen /brokenbar /section /dieresis /copyright
/ordfeminine /guillemotleft /logicalnot /sfthyphen /registered
/macron /degree /plusminus /twosuperior /threesuperior
/acute /mu /paragraph /middot /cedilla
/onesuperior /ordmasculine /guillemotright /onequarter /onehalf
/threequarters /questiondown /Agrave /Aacute /Acircumflex
/Atilde /Adieresis /Aring /AE /Ccedilla
/Egrave /Eacute /Ecircumflex /Edieresis /Igrave
/Iacute /Icircumflex /Idieresis /Eth /Ntilde
/Ograve /Oacute /Ocircumflex /Otilde /Odieresis
/multiply /Oslash /Ugrave /Uacute /Ucircumflex
/Udieresis /Yacute /Thorn /germandbls /agrave
/aacute /acircumflex /atilde /adieresis /aring
/ae /ccedilla /egrave /eacute /ecircumflex
/edieresis /igrave /iacute /icircumflex /idieresis
/eth /ntilde /ograve /oacute /ocircumflex
/otilde /odieresis /divide /oslash /ugrave
/uacute /ucircumflex /udieresis /yacute /thorn
/ydieresis
] def
%%EndResource
%FOPBeginFontReencode
/Courier-Oblique findfont
dup length dict begin
  {1 index /FID ne {def} {pop pop} ifelse} forall
  /Encoding WinAnsiEncoding def
  currentdict
end
/Courier-Oblique exch definefont pop
/Courier-BoldOblique findfont
dup length dict begin
  {1 index /FID ne {def} {pop pop} ifelse} forall
  /Encoding WinAnsiEncoding def
  currentdict
end
/Courier-BoldOblique exch definefont pop
/Courier-Bold findfont
dup length dict begin
  {1 index /FID ne {def} {pop pop} ifelse} forall
  /Encoding WinAnsiEncoding def
  currentdict
end
/Courier-Bold exch definefont pop
/Helvetica findfont
dup length dict begin
  {1 index /FID ne {def} {pop pop} ifelse} forall
  /Encoding WinAnsiEncoding def
  currentdict
end
/Helvetica exch definefont pop
/Helvetica-Oblique findfont
dup length dict begin
  {1 index /FID ne {def} {pop pop} ifelse} forall
  /Encoding WinAnsiEncoding def
  currentdict
end
/Helvetica-Oblique exch definefont pop
/Helvetica-Bold findfont
dup length dict begin
  {1 index /FID ne {def} {pop pop} ifelse} forall
  /Encoding WinAnsiEncoding def
  currentdict
end
/Helvetica-Bold exch definefont pop
/Helvetica-BoldOblique findfont
dup length dict begin
  {1 index /FID ne {def} {pop pop} ifelse} forall
  /Encoding WinAnsiEncoding def
  currentdict
end
/Helvetica-BoldOblique exch definefont pop
/Times-Roman findfont
dup length dict begin
  {1 index /FID ne {def} {pop pop} ifelse} forall
  /Encoding WinAnsiEncoding def
  currentdict
end
/Times-Roman exch definefont pop
/Times-Italic findfont
dup length dict begin
  {1 index /FID ne {def} {pop pop} ifelse} forall
  /Encoding WinAnsiEncoding def
  currentdict
end
/Times-Italic exch definefont pop
/Times-Bold findfont
dup length dict begin
  {1 index /FID ne {def} {pop pop} ifelse} forall
  /Encoding WinAnsiEncoding def
  currentdict
end
/Times-Bold exch definefont pop
/Times-BoldItalic findfont
dup length dict begin
  {1 index /FID ne {def} {pop pop} ifelse} forall
  /Encoding WinAnsiEncoding def
  currentdict
end
/Times-BoldItalic exch definefont pop
/Courier findfont
dup length dict begin
  {1 index /FID ne {def} {pop pop} ifelse} forall
  /Encoding WinAnsiEncoding def
  currentdict
end
/Courier exch definefont pop
%FOPEndFontReencode
%%EndProlog
%%Page: 1 1
%%PageBoundingBox: 0 0 1147 594
%%BeginPageSetup
[1 0 0 -1 0 594] CT
%%EndPageSetup
GS
[0.6 0 0 0.6 0 0] CT
1 GC
N
0 0 1912 990 re
f
GR
GS
[0.6 0 0 0.6 0 0] CT
1 GC
N
0 0 1912 990 re
f
GR
GS
[0.6 0 0 0.6 0 0] CT
1 GC
N
249 288 M
1730 288 L
1730 100 L
249 100 L
cp
f
GR
GS
[0.6 0 0 0.6 0 0] CT
0.149 GC
2 setlinecap
1 LJ
0.833 LW
N
249 288 M
1730 288 L
S
GR
GS
[0.6 0 0 0.6 0 0] CT
0.149 GC
2 setlinecap
1 LJ
0.833 LW
N
249 100 M
1730 100 L
S
GR
GS
[0.6 0 0 0.6 0 0] CT
0.149 GC
2 setlinecap
1 LJ
0.833 LW
N
249 288 M
249 273.19 L
S
GR
GS
[0.6 0 0 0.6 0 0] CT
0.149 GC
2 setlinecap
1 LJ
0.833 LW
N
495.867 288 M
495.867 273.19 L
S
GR
GS
[0.6 0 0 0.6 0 0] CT
0.149 GC
2 setlinecap
1 LJ
0.833 LW
N
742.667 288 M
742.667 273.19 L
S
GR
GS
[0.6 0 0 0.6 0 0] CT
0.149 GC
2 setlinecap
1 LJ
0.833 LW
N
989.534 288 M
989.534 273.19 L
S
GR
GS
[0.6 0 0 0.6 0 0] CT
0.149 GC
2 setlinecap
1 LJ
0.833 LW
N
1236.333 288 M
1236.333 273.19 L
S
GR
GS
[0.6 0 0 0.6 0 0] CT
0.149 GC
2 setlinecap
1 LJ
0.833 LW
N
1483.2 288 M
1483.2 273.19 L
S
GR
GS
[0.6 0 0 0.6 0 0] CT
0.149 GC
2 setlinecap
1 LJ
0.833 LW
N
1730 288 M
1730 273.19 L
S
GR
GS
[0.6 0 0 0.6 0 0] CT
0.149 GC
2 setlinecap
1 LJ
0.833 LW
N
249 100 M
249 114.81 L
S
GR
GS
[0.6 0 0 0.6 0 0] CT
0.149 GC
2 setlinecap
1 LJ
0.833 LW
N
495.867 100 M
495.867 114.81 L
S
GR
GS
[0.6 0 0 0.6 0 0] CT
0.149 GC
2 setlinecap
1 LJ
0.833 LW
N
742.667 100 M
742.667 114.81 L
S
GR
GS
[0.6 0 0 0.6 0 0] CT
0.149 GC
2 setlinecap
1 LJ
0.833 LW
N
989.534 100 M
989.534 114.81 L
S
GR
GS
[0.6 0 0 0.6 0 0] CT
0.149 GC
2 setlinecap
1 LJ
0.833 LW
N
1236.333 100 M
1236.333 114.81 L
S
GR
GS
[0.6 0 0 0.6 0 0] CT
0.149 GC
2 setlinecap
1 LJ
0.833 LW
N
1483.2 100 M
1483.2 114.81 L
S
GR
GS
[0.6 0 0 0.6 0 0] CT
0.149 GC
2 setlinecap
1 LJ
0.833 LW
N
1730 100 M
1730 114.81 L
S
GR
GS
[0.6 0 0 0.6 149.39999 178.8] CT
0.149 GC
/Helvetica 33.333 F
GS
[1 0 0 1 0 0] CT
-51 34 moveto 
1 -1 scale
(Jan-60) t 
GR
GR
GS
[0.6 0 0 0.6 297.52026 178.8] CT
0.149 GC
/Helvetica 33.333 F
GS
[1 0 0 1 0 0] CT
-51 34 moveto 
1 -1 scale
(Jan-70) t 
GR
GR
GS
[0.6 0 0 0.6 445.59999 178.8] CT
0.149 GC
/Helvetica 33.333 F
GS
[1 0 0 1 0 0] CT
-51 34 moveto 
1 -1 scale
(Jan-80) t 
GR
GR
GS
[0.6 0 0 0.6 593.72026 178.8] CT
0.149 GC
/Helvetica 33.333 F
GS
[1 0 0 1 0 0] CT
-51 34 moveto 
1 -1 scale
(Jan-90) t 
GR
GR
GS
[0.6 0 0 0.6 741.79999 178.8] CT
0.149 GC
/Helvetica 33.333 F
GS
[1 0 0 1 0 0] CT
-51 34 moveto 
1 -1 scale
(Jan-00) t 
GR
GR
GS
[0.6 0 0 0.6 889.92023 178.8] CT
0.149 GC
/Helvetica 33.333 F
GS
[1 0 0 1 0 0] CT
-51 34 moveto 
1 -1 scale
(Jan-10) t 
GR
GR
GS
[0.6 0 0 0.6 1037.99996 178.8] CT
0.149 GC
/Helvetica 33.333 F
GS
[1 0 0 1 0 0] CT
-51 34 moveto 
1 -1 scale
(Jan-20) t 
GR
GR
GS
[0.6 0 0 0.6 0 0] CT
0.149 GC
2 setlinecap
1 LJ
0.833 LW
N
249 288 M
249 100 L
S
GR
GS
[0.6 0 0 0.6 0 0] CT
0.149 GC
2 setlinecap
1 LJ
0.833 LW
N
1730 288 M
1730 100 L
S
GR
GS
[0.6 0 0 0.6 0 0] CT
0.149 GC
2 setlinecap
1 LJ
0.833 LW
N
249 288 M
263.808 288 L
S
GR
GS
[0.6 0 0 0.6 0 0] CT
0.149 GC
2 setlinecap
1 LJ
0.833 LW
N
249 168.873 M
263.808 168.873 L
S
GR
GS
[0.6 0 0 0.6 0 0] CT
0.149 GC
2 setlinecap
1 LJ
0.833 LW
N
1730 288 M
1715.192 288 L
S
GR
GS
[0.6 0 0 0.6 0 0] CT
0.149 GC
2 setlinecap
1 LJ
0.833 LW
N
1730 168.873 M
1715.192 168.873 L
S
GR
GS
[0.6 0 0 0.6 143.39895 172.8] CT
0.149 GC
/Helvetica 33.333 F
GS
[1 0 0 1 0 0] CT
-19 13 moveto 
1 -1 scale
(0) t 
GR
GR
GS
[0.6 0 0 0.6 143.39895 101.32407] CT
0.149 GC
/Helvetica 33.333 F
GS
[1 0 0 1 0 0] CT
-38 13 moveto 
1 -1 scale
(10) t 
GR
GR
GS
[0.6 0 0 0.6 593.69997 56.7] CT
/Helvetica-Bold 36.667 F
GS
[1 0 0 1 0 0] CT
-53 -9 moveto 
1 -1 scale
(2 year) t 
GR
GR
GS
[0.6 0 0 0.6 0 0] CT
0 0.447 0.741 RC
1 LJ
3.333 LW
N
285.898 248.932 M
287.993 249.517 L
290.088 247.508 L
292.048 248.391 L
294.211 249.408 L
296.238 248.672 L
298.198 247.244 L
300.428 245.51 L
302.32 248.172 L
304.347 250.358 L
306.442 249.365 L
308.537 250.575 L
310.497 248.642 L
312.66 247.539 L
314.755 250.589 L
316.647 251.374 L
318.877 251.073 L
320.904 250.441 L
322.999 250.177 L
325.094 250.413 L
326.986 250.263 L
328.946 249.708 L
331.109 249.729 L
333.204 248.958 L
335.096 248.748 L
337.326 245.985 L
339.354 245.094 L
341.448 245.322 L
343.543 244.403 L
345.503 243.838 L
347.666 242.552 L
349.761 243.186 L
351.653 241.503 L
353.815 240.362 L
355.843 242.039 L
357.735 242.239 L
359.965 243.026 L
362.06 244.275 L
364.155 243.17 L
366.182 242.458 L
368.21 242.359 L
370.305 240.24 L
372.4 241.612 L
374.36 241.934 L
376.252 240.78 L
378.482 241.05 L
380.509 241.224 L
382.402 241.23 L
384.632 242.14 L
386.659 241.363 L
388.822 240.004 L
390.849 238.256 L
392.809 238.352 L
394.904 237.262 L
397.066 231.421 L
399.161 231.239 L
401.053 229.838 L
403.148 231.955 L
405.108 231.218 L
407.271 229.62 L
409.298 228.547 L
411.258 227.059 L
413.488 221.498 L
415.515 224.979 L
417.61 226.241 L
419.638 225.762 L
421.665 231.595 L
423.828 234.687 L
425.72 233.202 L
427.815 239.091 L
429.707 237.736 L
431.937 236.583 L
433.965 228.421 L
436.059 229.166 L
438.154 226.86 L
440.114 226.148 L
442.277 223.963 L
444.304 222.961 L
446.264 221.477 L
448.494 225.132 L
450.454 223.734 L
452.414 222.014 L
454.576 221.062 L
456.671 219.502 L
458.563 222.237 L
460.793 226.738 L
462.821 227.626 L
464.916 227.158 L
467.011 226.218 L
468.971 224.53 L
471.133 216.088 L
473.228 216.71 L
475.12 212.589 L
477.013 215.367 L
479.243 215.547 L
481.202 210.042 L
483.365 202.466 L
485.46 200.389 L
487.42 200.604 L
489.582 194.118 L
491.677 200.779 L
493.569 197.904 L
495.8 191.336 L
497.827 192.257 L
499.719 203.77 L
501.882 205.503 L
503.909 196.407 L
505.869 195.942 L
508.031 198.26 L
510.126 201.279 L
512.221 203.502 L
514.249 207.648 L
516.276 208.651 L
518.371 223.758 L
520.466 222.586 L
522.426 231.169 L
524.318 236.775 L
526.548 237.692 L
528.576 224.48 L
530.468 222.55 L
532.698 210.887 L
534.725 210.698 L
536.888 222.115 L
538.915 222.353 L
540.875 228.635 L
543.037 227.702 L
545.132 230.924 L
547.227 229.393 L
549.187 230.252 L
551.215 221.628 L
553.174 226.333 L
555.404 227.714 L
557.432 222.375 L
559.527 223.684 L
561.622 219.815 L
563.582 218.675 L
565.744 218.408 L
567.771 220.14 L
569.731 217.472 L
571.961 213.201 L
573.854 209.412 L
575.881 206.185 L
577.976 208.163 L
580.071 206.755 L
582.031 203.442 L
584.193 191.908 L
586.288 197.216 L
588.18 206.188 L
590.411 207.578 L
592.438 206.845 L
594.533 207.132 L
596.628 207.772 L
598.52 206.816 L
600.48 195.943 L
602.642 188.961 L
604.737 191.83 L
606.63 189.104 L
608.86 186.443 L
610.887 183.261 L
612.982 193.041 L
615.077 195.424 L
617.037 199.832 L
619.199 202.78 L
621.294 208.542 L
623.187 213.203 L
625.281 207.505 L
627.309 199.703 L
629.336 207.219 L
631.431 203.005 L
633.526 197.805 L
635.486 196.509 L
637.648 193.318 L
639.743 205.487 L
641.636 202.925 L
643.866 208.252 L
645.893 211.724 L
647.785 207.735 L
650.015 209.001 L
652.043 209.591 L
653.935 202.216 L
656.165 206.005 L
658.193 208.555 L
660.355 211.25 L
662.383 213.534 L
664.342 216.617 L
666.505 224.076 L
668.6 224.14 L
670.695 214.516 L
672.587 215.404 L
674.682 216.6 L
676.642 215.935 L
678.804 215.051 L
680.832 216.74 L
682.791 211.605 L
685.022 211.05 L
687.049 208.247 L
689.144 204.137 L
691.171 205.285 L
693.199 203.368 L
695.361 200.847 L
697.253 199.785 L
699.348 198.342 L
701.241 196.338 L
703.471 192.944 L
705.498 189.037 L
707.593 189.633 L
709.688 189.845 L
711.648 187.554 L
713.81 178.677 L
715.838 177.86 L
717.797 171.66 L
720.028 176.934 L
721.92 175.014 L
723.947 176.411 L
726.042 174.791 L
728.137 178.749 L
730.097 184.656 L
732.259 180.75 L
734.354 174.971 L
736.247 171.303 L
738.477 149.191 L
740.504 161.262 L
742.599 160.093 L
744.694 154.71 L
746.654 121.988 L
748.749 121.485 L
750.776 166.344 L
752.804 181.202 L
754.898 182.329 L
756.993 174.771 L
758.953 153.977 L
761.116 147.826 L
763.211 138.478 L
765.103 130.014 L
767.333 141.618 L
769.36 137.615 L
771.253 130.997 L
773.415 136.409 L
775.443 120.943 L
777.402 122.487 L
779.565 122.974 L
781.66 109.47 L
783.755 101.009 L
785.782 100 L
787.81 120.797 L
789.905 146.267 L
792 127.834 L
793.959 124.174 L
795.852 124.645 L
798.082 123.077 L
800.109 128.039 L
802.001 132.504 L
804.231 119.704 L
806.259 135 L
808.421 147.687 L
810.449 156.207 L
812.409 168.815 L
814.571 170.933 L
816.666 175.758 L
818.761 174.478 L
820.653 178.4 L
822.748 172.948 L
824.708 178.329 L
826.87 171.891 L
828.898 168.738 L
830.858 159.997 L
833.088 158.408 L
835.115 165.735 L
837.21 165.347 L
839.237 164.955 L
841.265 162.319 L
843.427 165.59 L
845.387 160.852 L
847.415 154.25 L
849.51 152.131 L
851.604 138.417 L
853.564 136.166 L
855.727 143.208 L
857.822 143.566 L
859.714 148.546 L
861.944 158.932 L
863.971 165.89 L
866.066 169.412 L
868.161 172.117 L
870.054 163.796 L
872.013 165.7 L
874.176 170.834 L
876.271 182.78 L
878.163 185.49 L
880.393 181.5 L
882.421 183.553 L
884.516 183.505 L
886.611 185.748 L
888.57 188.949 L
890.733 193.457 L
892.828 193.39 L
894.72 196.901 L
896.815 204.502 L
898.842 205.428 L
900.87 199.619 L
902.965 205.289 L
905.06 208.476 L
907.019 216.722 L
909.182 211.503 L
911.277 214.083 L
913.169 215.06 L
915.399 212.22 L
917.427 213.839 L
919.319 213.086 L
921.481 210.261 L
923.509 200.606 L
925.469 196.984 L
927.631 200.323 L
929.726 199.491 L
931.821 195.403 L
933.848 187.289 L
935.876 196.938 L
937.971 196.59 L
940.066 196.484 L
942.026 203.026 L
944.12 204.356 L
946.215 201.122 L
948.175 197.517 L
950.338 191.632 L
952.365 194.068 L
954.325 189.777 L
956.555 186.216 L
958.582 189.307 L
960.677 191.63 L
962.705 184.478 L
964.732 181.122 L
966.895 181.583 L
968.787 176.439 L
970.882 174.04 L
972.774 180.277 L
975.004 184.85 L
977.032 193.19 L
979.127 199.213 L
981.222 190.056 L
983.181 189.312 L
985.344 195.684 L
987.371 197.212 L
989.331 195.458 L
991.561 190.832 L
993.453 189.7 L
995.481 187.006 L
997.576 183.408 L
999.671 189.114 L
1001.63 191.574 L
1003.793 195.054 L
1005.888 192.523 L
1007.78 193.663 L
1010.01 196.41 L
1012.038 198.863 L
1014.133 202.864 L
1016.228 204.762 L
1018.12 205.428 L
1020.012 205.221 L
1022.242 207.216 L
1024.337 207.486 L
1026.229 205.487 L
1028.459 207.541 L
1030.487 212.996 L
1032.582 216.581 L
1034.677 220.091 L
1036.637 223.739 L
1038.799 230.647 L
1040.894 226.553 L
1042.786 225.24 L
1044.949 220.999 L
1046.976 223.795 L
1048.936 226.665 L
1051.099 230.108 L
1053.193 235.244 L
1055.288 237.858 L
1057.316 241.93 L
1059.343 234.897 L
1061.438 230.41 L
1063.466 234.331 L
1065.493 238.058 L
1067.385 241.252 L
1069.615 240.808 L
1071.575 242.819 L
1073.535 237.92 L
1075.765 240.071 L
1077.792 238.974 L
1079.955 242.175 L
1081.982 241.691 L
1083.942 240.777 L
1086.105 238.242 L
1088.2 237.883 L
1090.295 239.56 L
1092.187 232.61 L
1094.282 225.96 L
1096.241 219.819 L
1098.404 216.978 L
1100.431 215.24 L
1102.391 217.252 L
1104.621 215.867 L
1106.649 210.427 L
1108.744 207.9 L
1110.771 200.838 L
1112.798 197.905 L
1114.961 202.674 L
1116.853 208.369 L
1118.948 208.187 L
1120.84 210.598 L
1123.07 218.753 L
1125.098 219.382 L
1127.193 218.516 L
1129.288 219.214 L
1131.248 218.994 L
1133.41 221.389 L
1135.438 224.51 L
1137.397 226.682 L
1139.627 229.3 L
1141.587 224.177 L
1143.547 219.689 L
1145.709 216.841 L
1147.804 214.636 L
1149.697 215.612 L
1151.927 214.713 L
1153.954 213.293 L
1156.049 216.057 L
1158.144 220.141 L
1160.104 222.066 L
1162.266 218.598 L
1164.361 218.249 L
1166.254 216.563 L
1168.349 212.207 L
1170.376 214.2 L
1172.403 214.973 L
1174.498 216.239 L
1176.593 220.637 L
1178.553 217.525 L
1180.716 219.504 L
1182.811 221.325 L
1184.703 219.693 L
1186.933 221.101 L
1188.96 224.837 L
1190.852 222.436 L
1193.015 221.792 L
1195.042 221.863 L
1197.002 222.433 L
1199.165 222.797 L
1201.26 222.914 L
1203.355 228.556 L
1205.382 235.914 L
1207.409 236.731 L
1209.504 233.348 L
1211.599 233.405 L
1213.559 233.129 L
1215.451 226.994 L
1217.681 228.552 L
1219.709 227.741 L
1221.533 223.736 L
1223.831 222.721 L
1225.859 221.507 L
1228.021 220.054 L
1230.048 221.395 L
1232.008 219.359 L
1234.171 217.194 L
1236.266 214.342 L
1238.361 210.022 L
1240.321 211.111 L
1242.416 211.646 L
1244.308 209.566 L
1246.538 208.778 L
1248.565 212.438 L
1250.66 213.204 L
1252.755 215.166 L
1254.715 217.227 L
1256.877 217.622 L
1258.905 221.01 L
1260.865 226.7 L
1263.095 232.373 L
1264.987 234.815 L
1267.014 237.784 L
1269.109 236.349 L
1271.204 237.162 L
1273.164 236.835 L
1275.327 242.433 L
1277.422 244.212 L
1279.314 253.41 L
1281.544 258.334 L
1283.571 254.005 L
1285.666 251.515 L
1287.761 250.617 L
1289.653 251.889 L
1291.546 244.042 L
1293.776 249.475 L
1295.871 250.256 L
1297.763 254.101 L
1299.993 261.505 L
1302.02 262.854 L
1304.115 267.692 L
1306.21 267.858 L
1308.17 263.113 L
1310.333 269.005 L
1312.428 267.452 L
1314.32 269.806 L
1316.415 269.664 L
1318.442 269.743 L
1320.469 272.213 L
1322.564 272.187 L
1324.659 266.329 L
1326.619 264.836 L
1328.782 270.379 L
1330.877 265.969 L
1332.769 263.535 L
1334.999 266.259 L
1337.026 266.18 L
1338.919 268.402 L
1341.149 269.226 L
1343.176 260.066 L
1345.068 257.488 L
1347.298 255.746 L
1349.326 256.028 L
1351.488 259.49 L
1353.516 256.98 L
1355.476 257.679 L
1357.638 251.907 L
1359.733 251.485 L
1361.828 249.197 L
1363.72 245.299 L
1365.748 242.057 L
1367.775 244.839 L
1369.938 245.482 L
1371.965 244.883 L
1373.925 240.22 L
1376.155 242.648 L
1378.182 238.799 L
1380.277 235.569 L
1382.305 235.592 L
1384.332 235.804 L
1386.495 234.396 L
1388.387 232.501 L
1390.482 230.697 L
1392.374 230.365 L
1394.604 228.403 L
1396.631 226.883 L
1398.726 229.221 L
1400.821 231.505 L
1402.781 232.483 L
1404.944 232.52 L
1406.971 233.575 L
1408.931 231.131 L
1411.161 229.989 L
1413.053 233.183 L
1415.081 233.326 L
1417.176 233.499 L
1419.271 229.85 L
1421.23 230.253 L
1423.393 233.999 L
1425.488 238.551 L
1427.38 240.853 L
1429.61 241.421 L
1431.637 251.831 L
1433.732 251.901 L
1435.827 262.417 L
1437.787 268.685 L
1439.882 268.891 L
1441.91 261.673 L
1443.937 257.005 L
1446.032 257.063 L
1448.127 258.547 L
1450.087 260.141 L
1452.249 264.318 L
1454.344 271.198 L
1456.236 278.732 L
1458.466 281.194 L
1460.494 278.274 L
1462.386 276.542 L
1464.549 278.766 L
1466.576 277.135 L
1468.536 277.151 L
1470.698 275.009 L
1472.793 274.775 L
1474.888 276.464 L
1476.916 276.963 L
1478.943 277.216 L
1481.038 280.325 L
1483.133 274.4 L
1485.093 278.231 L
1486.985 278.443 L
1489.215 276.092 L
1491.242 276.697 L
1493.135 278.661 L
1495.365 280.752 L
1497.392 281.986 L
1499.555 282.655 L
1501.582 283.334 L
1503.542 284.508 L
1505.704 282.612 L
1507.799 280.905 L
1509.894 281.395 L
1511.786 280.116 L
1513.881 278.743 L
1515.841 281.083 L
1518.004 282.736 L
1520.031 282.27 L
1521.991 283.976 L
1524.221 285.742 L
1526.248 284.601 L
1528.343 285.077 L
1530.371 285.05 L
1532.398 285.112 L
1534.561 285.757 L
1536.521 284.481 L
1538.548 283.795 L
1540.643 284.82 L
1542.738 284.668 L
1544.698 284.171 L
1546.86 285.469 L
1548.955 285.486 L
1550.847 285.371 L
1553.077 284.674 L
1555.105 285.159 L
1557.2 285.04 L
1559.295 284.88 L
1561.187 285.23 L
1563.079 285.143 L
1565.309 285.612 L
1567.404 284.213 L
1569.297 283.394 L
1571.527 284.125 L
1573.554 282.904 L
1575.649 283.967 L
1577.744 284.214 L
1579.704 284.546 L
1581.866 283.291 L
1583.961 283.861 L
1585.853 283.958 L
1587.948 282.767 L
1589.976 282.943 L
1592.003 283.411 L
1594.098 282.588 L
1596.193 281.463 L
1598.153 281.724 L
1600.315 280.65 L
1602.41 281.585 L
1604.302 282.1 L
1606.533 279.585 L
1608.56 282.178 L
1610.452 280.116 L
1612.615 281.061 L
1614.642 280.78 L
1616.602 280.48 L
1618.765 280.162 L
1620.859 279.914 L
1622.954 278.83 L
1624.982 280.22 L
1627.009 278.917 L
1629.104 276.53 L
1631.199 275.187 L
1633.159 278.407 L
1635.254 278.591 L
1637.349 279.269 L
1639.309 278.887 L
1641.471 277.488 L
1643.499 280.911 L
1645.458 280.094 L
1647.688 278.31 L
1649.716 278.678 L
1651.811 277.629 L
1653.838 274.387 L
1655.865 273.684 L
1658.028 273.723 L
1659.92 273.268 L
1662.015 272.76 L
1663.907 272.772 L
1666.138 272.704 L
1668.165 271.386 L
1670.26 271.837 L
1672.355 272.242 L
1674.315 270.357 L
1676.477 268.981 L
1678.505 266.675 L
1680.464 265.542 L
1682.694 262.458 L
1684.587 261.04 L
1686.547 260.937 L
1688.709 258.392 L
1690.804 259.25 L
1692.764 257.972 L
1694.926 256.272 L
S
GR
GS
[0.6 0 0 0.6 0 0] CT
0.851 0.325 0.098 RC
1 LJ
3.333 LW
N
285.898 248.735 M
287.993 249.326 L
290.088 247.265 L
292.048 248.334 L
294.211 249.241 L
296.238 248.063 L
298.198 246.46 L
300.428 245.471 L
302.32 248.065 L
304.347 250.21 L
306.442 249.336 L
308.537 250.426 L
310.497 248.2 L
312.66 247.396 L
314.755 250.08 L
316.647 250.861 L
318.877 250.832 L
320.904 250.21 L
322.999 250.245 L
325.094 249.898 L
326.986 250.083 L
328.946 249.458 L
331.109 249.318 L
333.204 248.492 L
335.096 248.244 L
337.326 245.763 L
339.354 244.998 L
341.448 245.075 L
343.543 244.314 L
345.503 243.536 L
347.666 242.437 L
349.761 243.075 L
351.653 241.132 L
353.815 240.304 L
355.843 242.037 L
357.735 242.329 L
359.965 243.088 L
362.06 244.21 L
364.155 243.1 L
366.182 242.416 L
368.21 242.304 L
370.305 240.164 L
372.4 241.359 L
374.36 242.065 L
376.252 240.882 L
378.482 240.919 L
380.509 241.045 L
382.402 240.916 L
384.632 241.761 L
386.659 241.122 L
388.822 239.824 L
390.849 238.378 L
392.809 238.03 L
394.904 236.944 L
397.066 231.355 L
399.161 231.256 L
401.053 229.333 L
403.148 231.794 L
405.108 231.179 L
407.271 229.899 L
409.298 228.715 L
411.258 227.073 L
413.488 221.03 L
415.515 224.693 L
417.61 226.133 L
419.638 225.632 L
421.665 231.364 L
423.828 234.518 L
425.72 232.669 L
427.815 238.709 L
429.707 237.313 L
431.937 236.492 L
433.965 228.683 L
436.059 229.43 L
438.154 226.781 L
440.114 226.233 L
442.277 223.951 L
444.304 222.531 L
446.264 221.305 L
448.494 225.138 L
450.454 223.271 L
452.414 221.827 L
454.576 220.688 L
456.671 219.06 L
458.563 222.824 L
460.793 227.616 L
462.821 226.932 L
464.916 226.595 L
467.011 225.419 L
468.971 223.564 L
471.133 215.544 L
473.228 216.456 L
475.12 212.615 L
477.013 215.46 L
479.243 215.477 L
481.202 210.678 L
483.365 203.493 L
485.46 201.522 L
487.42 201.237 L
489.582 193.994 L
491.677 200.232 L
493.569 197.956 L
495.8 190.557 L
497.827 191.684 L
499.719 202.842 L
501.882 205.169 L
503.909 196.53 L
505.869 196.471 L
508.031 198.631 L
510.126 201.568 L
512.221 203.53 L
514.249 207.564 L
516.276 209.121 L
518.371 223.633 L
520.466 222.606 L
522.426 230.496 L
524.318 235.954 L
526.548 237.541 L
528.576 224.43 L
530.468 222.354 L
532.698 211.455 L
534.725 210.91 L
536.888 222.024 L
538.915 222.284 L
540.875 228.045 L
543.037 227.294 L
545.132 230.683 L
547.227 229.185 L
549.187 229.981 L
551.215 222.009 L
553.174 226.306 L
555.404 227.47 L
557.432 222.423 L
559.527 223.992 L
561.622 219.778 L
563.582 218.736 L
565.744 218.667 L
567.771 220.194 L
569.731 217.531 L
571.961 213.381 L
573.854 209.54 L
575.881 206.447 L
577.976 208.396 L
580.071 207.374 L
582.031 203.916 L
584.193 192.107 L
586.288 197.322 L
588.18 206.631 L
590.411 207.072 L
592.438 206.164 L
594.533 206.524 L
596.628 207.055 L
598.52 205.951 L
600.48 195.385 L
602.642 188.829 L
604.737 191.586 L
606.63 189.237 L
608.86 186.089 L
610.887 183.137 L
612.982 193.256 L
615.077 195.012 L
617.037 199.772 L
619.199 202.551 L
621.294 208.33 L
623.187 212.328 L
625.281 207.398 L
627.309 200.279 L
629.336 207.245 L
631.431 202.823 L
633.526 197.956 L
635.486 196.677 L
637.648 193.539 L
639.743 205.341 L
641.636 202.962 L
643.866 208.105 L
645.893 211.382 L
647.785 207.887 L
650.015 209.04 L
652.043 209.567 L
653.935 202.512 L
656.165 205.964 L
658.193 208.404 L
660.355 211.005 L
662.383 213.29 L
664.342 216.39 L
666.505 224.29 L
668.6 223.772 L
670.695 214.283 L
672.587 215.124 L
674.682 216.193 L
676.642 215.64 L
678.804 214.898 L
680.832 216.614 L
682.791 211.428 L
685.022 210.934 L
687.049 208.165 L
689.144 204.066 L
691.171 205.183 L
693.199 203.248 L
695.361 200.739 L
697.253 199.675 L
699.348 198.319 L
701.241 196.525 L
703.471 193.246 L
705.498 189.34 L
707.593 189.969 L
709.688 190.053 L
711.648 187.467 L
713.81 179.104 L
715.838 178.216 L
717.797 172.349 L
720.028 177.353 L
721.92 175.327 L
723.947 176.699 L
726.042 175.07 L
728.137 178.678 L
730.097 184.297 L
732.259 180.366 L
734.354 174.721 L
736.247 170.907 L
738.477 149.529 L
740.504 161.677 L
742.599 160.831 L
744.694 155.582 L
746.654 125.137 L
748.749 124.565 L
750.776 166.357 L
752.804 182.296 L
754.898 182.558 L
756.993 175.355 L
758.953 153.992 L
761.116 149.073 L
763.211 138.479 L
765.103 129.679 L
767.333 139.68 L
769.36 135.977 L
771.253 130.261 L
773.415 136.339 L
775.443 120.624 L
777.402 122.355 L
779.565 123.154 L
781.66 109.251 L
783.755 102.021 L
785.782 101.716 L
787.81 120.606 L
789.905 146.624 L
792 128.675 L
793.959 124.715 L
795.852 125.733 L
798.082 122.81 L
800.109 128.358 L
802.001 133.2 L
804.231 120.152 L
806.259 135.648 L
808.421 149.03 L
810.449 157.453 L
812.409 169.462 L
814.571 170.425 L
816.666 174.867 L
818.761 173.719 L
820.653 177.753 L
822.748 172.413 L
824.708 177.699 L
826.87 171.215 L
828.898 168.11 L
830.858 159.702 L
833.088 158.277 L
835.115 165.235 L
837.21 164.834 L
839.237 164.218 L
841.265 161.849 L
843.427 164.777 L
845.387 160.223 L
847.415 153.57 L
849.51 151.384 L
851.604 138.514 L
853.564 136.915 L
855.727 143.984 L
857.822 143.668 L
859.714 148.262 L
861.944 158.82 L
863.971 165.257 L
866.066 168.856 L
868.161 171.278 L
870.054 163.064 L
872.013 165.376 L
874.176 170.504 L
876.271 182.394 L
878.163 184.554 L
880.393 180.675 L
882.421 182.982 L
884.516 183.215 L
886.611 185.441 L
888.57 188.727 L
890.733 193.585 L
892.828 193.487 L
894.72 196.996 L
896.815 204.472 L
898.842 205.388 L
900.87 199.413 L
902.965 205.152 L
905.06 208.514 L
907.019 216.795 L
909.182 211.499 L
911.277 214.19 L
913.169 215.257 L
915.399 212.616 L
917.427 214.113 L
919.319 213.488 L
921.481 210.581 L
923.509 201.415 L
925.469 197.773 L
927.631 200.439 L
929.726 199.588 L
931.821 195.548 L
933.848 187.665 L
935.876 196.882 L
937.971 196.709 L
940.066 197.105 L
942.026 203.705 L
944.12 205.18 L
946.215 201.786 L
948.175 198.448 L
950.338 192.631 L
952.365 195.098 L
954.325 191.029 L
956.555 187.092 L
958.582 190.07 L
960.677 192.607 L
962.705 185.135 L
964.732 181.301 L
966.895 181.705 L
968.787 176.659 L
970.882 174.258 L
972.774 180.63 L
975.004 184.775 L
977.032 193.015 L
979.127 199.169 L
981.222 190.141 L
983.181 189.148 L
985.344 195.391 L
987.371 196.83 L
989.331 195.31 L
991.561 190.635 L
993.453 189.657 L
995.481 187.048 L
997.576 183.55 L
999.671 188.921 L
1001.63 191.48 L
1003.793 195.096 L
1005.888 192.558 L
1007.78 193.716 L
1010.01 196.524 L
1012.038 198.97 L
1014.133 202.925 L
1016.228 204.829 L
1018.12 205.332 L
1020.012 204.982 L
1022.242 207.104 L
1024.337 207.404 L
1026.229 205.302 L
1028.459 207.096 L
1030.487 212.692 L
1032.582 216.382 L
1034.677 220.086 L
1036.637 223.718 L
1038.799 230.488 L
1040.894 226.049 L
1042.786 224.575 L
1044.949 220.076 L
1046.976 222.876 L
1048.936 226.002 L
1051.099 229.895 L
1053.193 235.053 L
1055.288 238.033 L
1057.316 242.25 L
1059.343 234.34 L
1061.438 229.668 L
1063.466 233.232 L
1065.493 237.611 L
1067.385 240.944 L
1069.615 240.562 L
1071.575 242.474 L
1073.535 237.958 L
1075.765 240.218 L
1077.792 238.942 L
1079.955 242.272 L
1081.982 241.828 L
1083.942 240.906 L
1086.105 238.254 L
1088.2 237.968 L
1090.295 239.658 L
1092.187 232.786 L
1094.282 225.923 L
1096.241 220.087 L
1098.404 217.465 L
1100.431 215.761 L
1102.391 217.691 L
1104.621 216.26 L
1106.649 210.735 L
1108.744 208.248 L
1110.771 201.525 L
1112.798 198.67 L
1114.961 203.096 L
1116.853 208.841 L
1118.948 208.641 L
1120.84 210.915 L
1123.07 219.142 L
1125.098 219.829 L
1127.193 218.745 L
1129.288 219.504 L
1131.248 219.383 L
1133.41 221.664 L
1135.438 224.692 L
1137.397 226.85 L
1139.627 229.329 L
1141.587 224.49 L
1143.547 220.192 L
1145.709 217.312 L
1147.804 215.021 L
1149.697 216.131 L
1151.927 215.045 L
1153.954 213.939 L
1156.049 216.476 L
1158.144 220.294 L
1160.104 222.381 L
1162.266 218.738 L
1164.361 218.42 L
1166.254 216.756 L
1168.349 212.487 L
1170.376 214.514 L
1172.403 215.412 L
1174.498 216.504 L
1176.593 220.861 L
1178.553 217.841 L
1180.716 219.797 L
1182.811 221.632 L
1184.703 219.96 L
1186.933 221.32 L
1188.96 225.188 L
1190.852 222.713 L
1193.015 222.073 L
1195.042 222.415 L
1197.002 222.801 L
1199.165 223.24 L
1201.26 223.261 L
1203.355 228.957 L
1205.382 236.669 L
1207.409 237.54 L
1209.504 233.814 L
1211.599 233.875 L
1213.559 233.992 L
1215.451 227.587 L
1217.681 229.178 L
1219.709 228.449 L
1221.533 224.172 L
1223.831 223.514 L
1225.859 221.978 L
1228.021 220.768 L
1230.048 222.179 L
1232.008 220.203 L
1234.171 218.11 L
1236.266 215.261 L
1238.361 210.646 L
1240.321 211.322 L
1242.416 212.324 L
1244.308 210.154 L
1246.538 209.517 L
1248.565 213.187 L
1250.66 213.563 L
1252.755 215.543 L
1254.715 217.716 L
1256.877 217.833 L
1258.905 221.401 L
1260.865 227.015 L
1263.095 232.361 L
1264.987 234.802 L
1267.014 237.819 L
1269.109 236.37 L
1271.204 237.227 L
1273.164 236.875 L
1275.327 242.17 L
1277.422 243.972 L
1279.314 253.118 L
1281.544 257.806 L
1283.571 253.692 L
1285.666 251.015 L
1287.761 250.222 L
1289.653 251.753 L
1291.546 244.012 L
1293.776 249.206 L
1295.871 250.482 L
1297.763 253.989 L
1299.993 260.996 L
1302.02 262.83 L
1304.115 267.962 L
1306.21 268.019 L
1308.17 263.313 L
1310.333 269.042 L
1312.428 267.187 L
1314.32 269.753 L
1316.415 269.507 L
1318.442 269.321 L
1320.469 272.635 L
1322.564 272.35 L
1324.659 266.137 L
1326.619 264.436 L
1328.782 270.133 L
1330.877 265.807 L
1332.769 263.633 L
1334.999 266.042 L
1337.026 266.034 L
1338.919 267.986 L
1341.149 269.261 L
1343.176 260.219 L
1345.068 257.676 L
1347.298 256.096 L
1349.326 256.444 L
1351.488 259.921 L
1353.516 257.604 L
1355.476 258.19 L
1357.638 252.638 L
1359.733 252.275 L
1361.828 249.952 L
1363.72 246.034 L
1365.748 242.821 L
1367.775 245.707 L
1369.938 246.391 L
1371.965 245.73 L
1373.925 240.972 L
1376.155 243.344 L
1378.182 239.395 L
1380.277 236.328 L
1382.305 236.4 L
1384.332 236.39 L
1386.495 234.795 L
1388.387 232.839 L
1390.482 231.188 L
1392.374 230.815 L
1394.604 228.978 L
1396.631 227.51 L
1398.726 229.7 L
1400.821 231.848 L
1402.781 232.866 L
1404.944 232.914 L
1406.971 234.024 L
1408.931 231.603 L
1411.161 230.389 L
1413.053 233.618 L
1415.081 233.781 L
1417.176 233.915 L
1419.271 230.39 L
1421.23 230.619 L
1423.393 234.214 L
1425.488 239.139 L
1427.38 241.303 L
1429.61 241.855 L
1431.637 252.151 L
1433.732 252.292 L
1435.827 262.931 L
1437.787 268.717 L
1439.882 269.865 L
1441.91 262.123 L
1443.937 257.257 L
1446.032 257.373 L
1448.127 258.997 L
1450.087 260.709 L
1452.249 264.693 L
1454.344 271.595 L
1456.236 279.281 L
1458.466 281.707 L
1460.494 278.976 L
1462.386 277.185 L
1464.549 279.538 L
1466.576 277.785 L
1468.536 277.504 L
1470.698 274.995 L
1472.793 274.859 L
1474.888 276.474 L
1476.916 276.971 L
1478.943 277.313 L
1481.038 280.519 L
1483.133 274.491 L
1485.093 278.202 L
1486.985 278.512 L
1489.215 275.917 L
1491.242 276.465 L
1493.135 278.458 L
1495.365 280.796 L
1497.392 282.461 L
1499.555 283.144 L
1501.582 284.016 L
1503.542 285.492 L
1505.704 283.385 L
1507.799 280.682 L
1509.894 281.568 L
1511.786 279.775 L
1513.881 278.453 L
1515.841 281.176 L
1518.004 283.215 L
1520.031 282.863 L
1521.991 285 L
1524.221 286.791 L
1526.248 285.38 L
1528.343 285.895 L
1530.371 285.839 L
1532.398 285.939 L
1534.561 286.812 L
1536.521 285.46 L
1538.548 284.736 L
1540.643 285.854 L
1542.738 285.564 L
1544.698 285.086 L
1546.86 286.392 L
1548.955 286.474 L
1550.847 286.448 L
1553.077 285.639 L
1555.105 286.186 L
1557.2 286.054 L
1559.295 285.855 L
1561.187 286.319 L
1563.079 286.224 L
1565.309 286.639 L
1567.404 285.061 L
1569.297 283.458 L
1571.527 284.403 L
1573.554 282.735 L
1575.649 284.282 L
1577.744 284.678 L
1579.704 285.022 L
1581.866 282.966 L
1583.961 283.667 L
1585.853 283.605 L
1587.948 281.765 L
1589.976 282.005 L
1592.003 282.626 L
1594.098 281.765 L
1596.193 280.252 L
1598.153 280.623 L
1600.315 279.49 L
1602.41 280.567 L
1604.302 281.081 L
1606.533 278.582 L
1608.56 281.681 L
1610.452 279.383 L
1612.615 280.444 L
1614.642 280.35 L
1616.602 280.057 L
1618.765 279.597 L
1620.859 279.409 L
1622.954 278.55 L
1624.982 280.188 L
1627.009 278.604 L
1629.104 276.308 L
1631.199 274.94 L
1633.159 278.539 L
1635.254 278.73 L
1637.349 279.411 L
1639.309 278.927 L
1641.471 277.413 L
1643.499 280.918 L
1645.458 280.132 L
1647.688 278.237 L
1649.716 278.735 L
1651.811 277.685 L
1653.838 273.96 L
1655.865 273.259 L
1658.028 273.402 L
1659.92 272.932 L
1662.015 272.235 L
1663.907 272.507 L
1666.138 272.41 L
1668.165 271.157 L
1670.26 271.69 L
1672.355 272.191 L
1674.315 270.246 L
1676.477 268.889 L
1678.505 266.635 L
1680.464 265.44 L
1682.694 262.265 L
1684.587 260.875 L
1686.547 260.818 L
1688.709 258.273 L
1690.804 259.124 L
1692.764 258.173 L
1694.926 256.598 L
S
GR
GS
[0.6 0 0 0.6 0 0] CT
1 GC
N
390 276 M
390 194 L
262 194 L
262 276 L
cp
f
GR
GS
[0.6 0 0 0.6 192.51897 129.35926] CT
/Helvetica 30 F
GS
[1 0 0 1 0 0] CT
0 12 moveto 
1 -1 scale
(Obs.) t 
GR
GR
GS
[0.6 0 0 0.6 0 0] CT
0 0.447 0.741 RC
1 LJ
3.333 LW
N
267.01 215.599 M
317.108 215.599 L
S
GR
GS
[0.6 0 0 0.6 192.51897 152.64074] CT
/Helvetica 30 F
GS
[1 0 0 1 0 0] CT
0 12 moveto 
1 -1 scale
(Fit) t 
GR
GR
GS
[0.6 0 0 0.6 0 0] CT
0.851 0.325 0.098 RC
1 LJ
3.333 LW
N
267.01 254.401 M
317.108 254.401 L
S
GR
GS
[0.6 0 0 0.6 0 0] CT
0.149 GC
10.0 ML
0.833 LW
N
262 276 M
262 194 L
390 194 L
390 276 L
cp
S
GR
GS
[0.6 0 0 0.6 0 0] CT
1 GC
N
249 584 M
1730 584 L
1730 396 L
249 396 L
cp
f
GR
GS
[0.6 0 0 0.6 0 0] CT
0.149 GC
2 setlinecap
1 LJ
0.833 LW
N
249 584 M
1730 584 L
S
GR
GS
[0.6 0 0 0.6 0 0] CT
0.149 GC
2 setlinecap
1 LJ
0.833 LW
N
249 396 M
1730 396 L
S
GR
GS
[0.6 0 0 0.6 0 0] CT
0.149 GC
2 setlinecap
1 LJ
0.833 LW
N
249 584 M
249 569.19 L
S
GR
GS
[0.6 0 0 0.6 0 0] CT
0.149 GC
2 setlinecap
1 LJ
0.833 LW
N
495.867 584 M
495.867 569.19 L
S
GR
GS
[0.6 0 0 0.6 0 0] CT
0.149 GC
2 setlinecap
1 LJ
0.833 LW
N
742.667 584 M
742.667 569.19 L
S
GR
GS
[0.6 0 0 0.6 0 0] CT
0.149 GC
2 setlinecap
1 LJ
0.833 LW
N
989.534 584 M
989.534 569.19 L
S
GR
GS
[0.6 0 0 0.6 0 0] CT
0.149 GC
2 setlinecap
1 LJ
0.833 LW
N
1236.333 584 M
1236.333 569.19 L
S
GR
GS
[0.6 0 0 0.6 0 0] CT
0.149 GC
2 setlinecap
1 LJ
0.833 LW
N
1483.2 584 M
1483.2 569.19 L
S
GR
GS
[0.6 0 0 0.6 0 0] CT
0.149 GC
2 setlinecap
1 LJ
0.833 LW
N
1730 584 M
1730 569.19 L
S
GR
GS
[0.6 0 0 0.6 0 0] CT
0.149 GC
2 setlinecap
1 LJ
0.833 LW
N
249 396 M
249 410.81 L
S
GR
GS
[0.6 0 0 0.6 0 0] CT
0.149 GC
2 setlinecap
1 LJ
0.833 LW
N
495.867 396 M
495.867 410.81 L
S
GR
GS
[0.6 0 0 0.6 0 0] CT
0.149 GC
2 setlinecap
1 LJ
0.833 LW
N
742.667 396 M
742.667 410.81 L
S
GR
GS
[0.6 0 0 0.6 0 0] CT
0.149 GC
2 setlinecap
1 LJ
0.833 LW
N
989.534 396 M
989.534 410.81 L
S
GR
GS
[0.6 0 0 0.6 0 0] CT
0.149 GC
2 setlinecap
1 LJ
0.833 LW
N
1236.333 396 M
1236.333 410.81 L
S
GR
GS
[0.6 0 0 0.6 0 0] CT
0.149 GC
2 setlinecap
1 LJ
0.833 LW
N
1483.2 396 M
1483.2 410.81 L
S
GR
GS
[0.6 0 0 0.6 0 0] CT
0.149 GC
2 setlinecap
1 LJ
0.833 LW
N
1730 396 M
1730 410.81 L
S
GR
GS
[0.6 0 0 0.6 149.39999 356.4] CT
0.149 GC
/Helvetica 33.333 F
GS
[1 0 0 1 0 0] CT
-51 34 moveto 
1 -1 scale
(Jan-60) t 
GR
GR
GS
[0.6 0 0 0.6 297.52026 356.4] CT
0.149 GC
/Helvetica 33.333 F
GS
[1 0 0 1 0 0] CT
-51 34 moveto 
1 -1 scale
(Jan-70) t 
GR
GR
GS
[0.6 0 0 0.6 445.59999 356.4] CT
0.149 GC
/Helvetica 33.333 F
GS
[1 0 0 1 0 0] CT
-51 34 moveto 
1 -1 scale
(Jan-80) t 
GR
GR
GS
[0.6 0 0 0.6 593.72026 356.4] CT
0.149 GC
/Helvetica 33.333 F
GS
[1 0 0 1 0 0] CT
-51 34 moveto 
1 -1 scale
(Jan-90) t 
GR
GR
GS
[0.6 0 0 0.6 741.79999 356.4] CT
0.149 GC
/Helvetica 33.333 F
GS
[1 0 0 1 0 0] CT
-51 34 moveto 
1 -1 scale
(Jan-00) t 
GR
GR
GS
[0.6 0 0 0.6 889.92023 356.4] CT
0.149 GC
/Helvetica 33.333 F
GS
[1 0 0 1 0 0] CT
-51 34 moveto 
1 -1 scale
(Jan-10) t 
GR
GR
GS
[0.6 0 0 0.6 1037.99996 356.4] CT
0.149 GC
/Helvetica 33.333 F
GS
[1 0 0 1 0 0] CT
-51 34 moveto 
1 -1 scale
(Jan-20) t 
GR
GR
GS
[0.6 0 0 0.6 0 0] CT
0.149 GC
2 setlinecap
1 LJ
0.833 LW
N
249 584 M
249 396 L
S
GR
GS
[0.6 0 0 0.6 0 0] CT
0.149 GC
2 setlinecap
1 LJ
0.833 LW
N
1730 584 M
1730 396 L
S
GR
GS
[0.6 0 0 0.6 0 0] CT
0.149 GC
2 setlinecap
1 LJ
0.833 LW
N
249 584 M
263.808 584 L
S
GR
GS
[0.6 0 0 0.6 0 0] CT
0.149 GC
2 setlinecap
1 LJ
0.833 LW
N
249 461.183 M
263.808 461.183 L
S
GR
GS
[0.6 0 0 0.6 0 0] CT
0.149 GC
2 setlinecap
1 LJ
0.833 LW
N
1730 584 M
1715.192 584 L
S
GR
GS
[0.6 0 0 0.6 0 0] CT
0.149 GC
2 setlinecap
1 LJ
0.833 LW
N
1730 461.183 M
1715.192 461.183 L
S
GR
GS
[0.6 0 0 0.6 143.39895 350.4] CT
0.149 GC
/Helvetica 33.333 F
GS
[1 0 0 1 0 0] CT
-19 13 moveto 
1 -1 scale
(0) t 
GR
GR
GS
[0.6 0 0 0.6 143.39895 276.70988] CT
0.149 GC
/Helvetica 33.333 F
GS
[1 0 0 1 0 0] CT
-38 13 moveto 
1 -1 scale
(10) t 
GR
GR
GS
[0.6 0 0 0.6 593.69997 234.3] CT
/Helvetica-Bold 36.667 F
GS
[1 0 0 1 0 0] CT
-53 -9 moveto 
1 -1 scale
(5 year) t 
GR
GR
GS
[0.6 0 0 0.6 0 0] CT
0 0.447 0.741 RC
1 LJ
3.333 LW
N
285.898 538.424 M
287.993 537.444 L
290.088 536.332 L
292.048 538.015 L
294.211 538.439 L
296.238 537.544 L
298.198 536.676 L
300.428 535.677 L
302.32 538.529 L
304.347 539.847 L
306.442 539.92 L
308.537 539.747 L
310.497 537.923 L
312.66 537.352 L
314.755 539.21 L
316.647 539.391 L
318.877 539.537 L
320.904 539.76 L
322.999 540.631 L
325.094 539.265 L
326.986 538.839 L
328.946 538.714 L
331.109 538.711 L
333.204 538.174 L
335.096 537.566 L
337.326 536.877 L
339.354 536.397 L
341.448 536.17 L
343.543 535.636 L
345.503 535.615 L
347.666 534.758 L
349.761 534.722 L
351.653 534.114 L
353.815 533.102 L
355.843 533.629 L
357.735 534.347 L
359.965 534.969 L
362.06 535.099 L
364.155 534.655 L
366.182 534.654 L
368.21 534.676 L
370.305 533.774 L
372.4 534.017 L
374.36 534.583 L
376.252 533.956 L
378.482 533.611 L
380.509 533.89 L
382.402 533.814 L
384.632 534.092 L
386.659 533.612 L
388.822 532.857 L
390.849 531.829 L
392.809 530.942 L
394.904 530.287 L
397.066 525.517 L
399.161 524.829 L
401.053 522.649 L
403.148 525.533 L
405.108 525.012 L
407.271 523.916 L
409.298 522.234 L
411.258 520.302 L
413.488 515.038 L
415.515 519.179 L
417.61 520.702 L
419.638 519.787 L
421.665 526.038 L
423.828 527.943 L
425.72 526.611 L
427.815 530.781 L
429.707 527.469 L
431.937 527.058 L
433.965 520.68 L
436.059 522.673 L
438.154 519.797 L
440.114 519.46 L
442.277 515.666 L
444.304 514.812 L
446.264 514.123 L
448.494 517.06 L
450.454 516.323 L
452.414 514.403 L
454.576 512.867 L
456.671 513.164 L
458.563 515.154 L
460.793 518.712 L
462.821 518.151 L
464.916 517.765 L
467.011 516.617 L
468.971 515.341 L
471.133 508.641 L
473.228 509.495 L
475.12 507.46 L
477.013 508.49 L
479.243 508.711 L
481.202 504.912 L
483.365 501.502 L
485.46 501.51 L
487.42 499.414 L
489.582 489.624 L
491.677 497.641 L
493.569 495.133 L
495.8 488.688 L
497.827 486.347 L
499.719 496.303 L
501.882 497.037 L
503.909 488.408 L
505.869 490.247 L
508.031 490.365 L
510.126 492.594 L
512.221 493.671 L
514.249 497.043 L
516.276 498.843 L
518.371 509.489 L
520.466 510.149 L
522.426 512.162 L
524.318 516.523 L
526.548 521.295 L
528.576 510.051 L
530.468 508.235 L
532.698 500.882 L
534.725 499.802 L
536.888 510.405 L
538.915 511.222 L
540.875 514.422 L
543.037 513.568 L
545.132 516.205 L
547.227 513.123 L
549.187 513.767 L
551.215 510.038 L
553.174 511.903 L
555.404 513.15 L
557.432 510.89 L
559.527 510.974 L
561.622 508.201 L
563.582 507.888 L
565.744 508.191 L
567.771 509.382 L
569.731 508.114 L
571.961 505.827 L
573.854 502.875 L
575.881 502.156 L
577.976 502.703 L
580.071 501.974 L
582.031 500.776 L
584.193 491.832 L
586.288 497.541 L
588.18 503.24 L
590.411 502.302 L
592.438 503.058 L
594.533 502.024 L
596.628 500.484 L
598.52 499.82 L
600.48 492.64 L
602.642 487.38 L
604.737 488.752 L
606.63 486.657 L
608.86 483.505 L
610.887 482.579 L
612.982 487.517 L
615.077 489.024 L
617.037 493.484 L
619.199 496.067 L
621.294 496.545 L
623.187 498.832 L
625.281 494.766 L
627.309 487.856 L
629.336 492.546 L
631.431 491.491 L
633.526 488.496 L
635.486 487.036 L
637.648 483.591 L
639.743 491.42 L
641.636 489.27 L
643.866 493.537 L
645.893 493.986 L
647.785 493.924 L
650.015 494.761 L
652.043 495.158 L
653.935 490.639 L
656.165 492.717 L
658.193 493.714 L
660.355 495.924 L
662.383 498.035 L
664.342 500.611 L
666.505 508.12 L
668.6 507.967 L
670.695 499.506 L
672.587 499.193 L
674.682 499.575 L
676.642 499.448 L
678.804 500.184 L
680.832 502.136 L
682.791 498.519 L
685.022 499.338 L
687.049 497.65 L
689.144 494.308 L
691.171 495.148 L
693.199 492.321 L
695.361 490.181 L
697.253 488.905 L
699.348 487.859 L
701.241 486.623 L
703.471 484.455 L
705.498 481.272 L
707.593 482.082 L
709.688 483.281 L
711.648 482.114 L
713.81 475.679 L
715.838 477.11 L
717.797 472.691 L
720.028 476.353 L
721.92 473.428 L
723.947 474.084 L
726.042 472.168 L
728.137 475.533 L
730.097 479.341 L
732.259 476.451 L
734.354 472.976 L
736.247 470.271 L
738.477 452.652 L
740.504 461.176 L
742.599 461.519 L
744.694 453.53 L
746.654 431.444 L
748.749 435.418 L
750.776 459.204 L
752.804 468.398 L
754.898 469.188 L
756.993 461.743 L
758.953 446.51 L
761.116 443.921 L
763.211 434.555 L
765.103 431.567 L
767.333 436.642 L
769.36 434.58 L
771.253 425.431 L
773.415 426.645 L
775.443 416.801 L
777.402 423.352 L
779.565 420.418 L
781.66 409.383 L
783.755 401.699 L
785.782 397.593 L
787.81 410.706 L
789.905 432.799 L
792 418.502 L
793.959 416.414 L
795.852 419.036 L
798.082 415.895 L
800.109 421.327 L
802.001 423.038 L
804.231 413.519 L
806.259 423.749 L
808.421 435.171 L
810.449 443.016 L
812.409 454.894 L
814.571 453.916 L
816.666 457.731 L
818.761 454.87 L
820.653 460.662 L
822.748 456.987 L
824.708 461.303 L
826.87 454.832 L
828.898 452.69 L
830.858 443.639 L
833.088 442.235 L
835.115 448.106 L
837.21 446.058 L
839.237 446.697 L
841.265 444.601 L
843.427 446.894 L
845.387 442.399 L
847.415 436.485 L
849.51 433.123 L
851.604 420.875 L
853.564 420.815 L
855.727 431.023 L
857.822 431.408 L
859.714 434.985 L
861.944 444.399 L
863.971 446.766 L
866.066 448.214 L
868.161 452.102 L
870.054 443.593 L
872.013 446.313 L
874.176 449.937 L
876.271 462.987 L
878.163 463.106 L
880.393 459.554 L
882.421 462.645 L
884.516 463.071 L
886.611 466.527 L
888.57 470.979 L
890.733 478.638 L
892.828 477.781 L
894.72 486.228 L
896.815 494.315 L
898.842 493.847 L
900.87 485.179 L
902.965 492.308 L
905.06 494.245 L
907.019 501.324 L
909.182 494.722 L
911.277 497.972 L
913.169 500.144 L
915.399 499.149 L
917.427 500.371 L
919.319 500.508 L
921.481 497.166 L
923.509 487.442 L
925.469 484.292 L
927.631 485.517 L
929.726 483.283 L
931.821 479.455 L
933.848 471.475 L
935.876 479.651 L
937.971 479.436 L
940.066 481.227 L
942.026 488.866 L
944.12 490.436 L
946.215 485.496 L
948.175 482.32 L
950.338 477.693 L
952.365 481.609 L
954.325 478.158 L
956.555 475.629 L
958.582 479.572 L
960.677 482.636 L
962.705 476.261 L
964.732 473.42 L
966.895 474.863 L
968.787 470.375 L
970.882 469.567 L
972.774 474.46 L
975.004 478.911 L
977.032 486.013 L
979.127 491.682 L
981.222 483.543 L
983.181 482.484 L
985.344 487.997 L
987.371 489.091 L
989.331 487.836 L
991.561 482.155 L
993.453 480.733 L
995.481 478.749 L
997.576 474.579 L
999.671 479.752 L
1001.63 482.164 L
1003.793 484.922 L
1005.888 480.061 L
1007.78 480.819 L
1010.01 483.605 L
1012.038 487.267 L
1014.133 489.525 L
1016.228 490.633 L
1018.12 490.344 L
1020.012 489.042 L
1022.242 490.384 L
1024.337 490.198 L
1026.229 487.428 L
1028.459 489.115 L
1030.487 494.108 L
1032.582 498.487 L
1034.677 500.545 L
1036.637 502.397 L
1038.799 509.342 L
1040.894 502.559 L
1042.786 501.472 L
1044.949 497.229 L
1046.976 498.183 L
1048.936 502.146 L
1051.099 505.946 L
1053.193 511.305 L
1055.288 513.671 L
1057.316 517.38 L
1059.343 509.76 L
1061.438 505.873 L
1063.466 508.914 L
1065.493 514.425 L
1067.385 518.851 L
1069.615 518.504 L
1071.575 520.219 L
1073.535 517.686 L
1075.765 521.639 L
1077.792 520.479 L
1079.955 525.023 L
1081.982 524.916 L
1083.942 524.274 L
1086.105 520.265 L
1088.2 520.032 L
1090.295 522.293 L
1092.187 515.073 L
1094.282 507.049 L
1096.241 502.827 L
1098.404 501.45 L
1100.431 499.068 L
1102.391 502.119 L
1104.621 501.109 L
1106.649 495.42 L
1108.744 493.036 L
1110.771 489.688 L
1112.798 488.918 L
1114.961 492.62 L
1116.853 498.165 L
1118.948 498.144 L
1120.84 500.577 L
1123.07 510.189 L
1125.098 511.018 L
1127.193 508.414 L
1129.288 509.911 L
1131.248 510.801 L
1133.41 513.101 L
1135.438 516.326 L
1137.397 518.265 L
1139.627 519.502 L
1141.587 513.416 L
1143.547 509.346 L
1145.709 505.822 L
1147.804 503.172 L
1149.697 505.232 L
1151.927 504.197 L
1153.954 502.275 L
1156.049 505.117 L
1158.144 509.616 L
1160.104 513.041 L
1162.266 508.347 L
1164.361 507.641 L
1166.254 506.224 L
1168.349 501.638 L
1170.376 504.114 L
1172.403 504.959 L
1174.498 506.326 L
1176.593 512.307 L
1178.553 508.304 L
1180.716 510.662 L
1182.811 513.723 L
1184.703 513.001 L
1186.933 514.444 L
1188.96 518.132 L
1190.852 515.754 L
1193.015 515.032 L
1195.042 515.135 L
1197.002 515.923 L
1199.165 517.048 L
1201.26 516.704 L
1203.355 522.98 L
1205.382 531.076 L
1207.409 530.288 L
1209.504 527.101 L
1211.599 526.715 L
1213.559 527.488 L
1215.451 519.378 L
1217.681 520.099 L
1219.709 519.59 L
1221.533 514.545 L
1223.831 513.831 L
1225.859 511.754 L
1228.021 510.979 L
1230.048 512.266 L
1232.008 510.827 L
1234.171 509.333 L
1236.266 505.968 L
1238.361 502.617 L
1240.321 503.546 L
1242.416 507.423 L
1244.308 504.952 L
1246.538 504.568 L
1248.565 508.454 L
1250.66 508.922 L
1252.755 511.517 L
1254.715 512.895 L
1256.877 513.423 L
1258.905 517.6 L
1260.865 522.049 L
1263.095 523.404 L
1264.987 525.788 L
1267.014 526.706 L
1269.109 522.858 L
1271.204 522.187 L
1273.164 522.005 L
1275.327 527.246 L
1277.422 529.006 L
1279.314 534.682 L
1281.544 538.768 L
1283.571 532.133 L
1285.666 528.026 L
1287.761 528.433 L
1289.653 530.369 L
1291.546 522.609 L
1293.776 527.559 L
1295.871 529.551 L
1297.763 532.555 L
1299.993 539.418 L
1302.02 543.491 L
1304.115 550.106 L
1306.21 548.074 L
1308.17 542.516 L
1310.333 549.048 L
1312.428 546.411 L
1314.32 550.425 L
1316.415 549.133 L
1318.442 548.564 L
1320.469 555.424 L
1322.564 553.479 L
1324.659 542.607 L
1326.619 541.272 L
1328.782 548.887 L
1330.877 543.65 L
1332.769 542.407 L
1334.999 544.127 L
1337.026 544.87 L
1338.919 547.002 L
1341.149 549.411 L
1343.176 538.977 L
1345.068 536.798 L
1347.298 536.847 L
1349.326 538.044 L
1351.488 542.925 L
1353.516 542.204 L
1355.476 543.301 L
1357.638 538.412 L
1359.733 539.483 L
1361.828 538.819 L
1363.72 535.172 L
1365.748 532.092 L
1367.775 536.583 L
1369.938 538.399 L
1371.965 538.706 L
1373.925 533.84 L
1376.155 537.009 L
1378.182 532.634 L
1380.277 529.858 L
1382.305 530.464 L
1384.332 531.255 L
1386.495 529.504 L
1388.387 528.023 L
1390.482 525.536 L
1392.374 524.368 L
1394.604 523.129 L
1396.631 522.498 L
1398.726 524.73 L
1400.821 527.359 L
1402.781 528.637 L
1404.944 528.89 L
1406.971 530.536 L
1408.931 527.497 L
1411.161 525.899 L
1413.053 529.616 L
1415.081 529.2 L
1417.176 529.551 L
1419.271 525.441 L
1421.23 524.466 L
1423.393 528.177 L
1425.488 532.293 L
1427.38 532.721 L
1429.61 533.834 L
1431.637 541.933 L
1433.732 541.846 L
1435.827 549.129 L
1437.787 552.389 L
1439.882 554.031 L
1441.91 546.491 L
1443.937 541.493 L
1446.032 542.533 L
1448.127 543.846 L
1450.087 546.165 L
1452.249 547.451 L
1454.344 548.783 L
1456.236 560.32 L
1458.466 564.88 L
1460.494 559.484 L
1462.386 557.874 L
1464.549 562.564 L
1466.576 557.905 L
1468.536 555.088 L
1470.698 552.333 L
1472.793 552.587 L
1474.888 554.156 L
1476.916 555.276 L
1478.943 555.166 L
1481.038 559.124 L
1483.133 551.056 L
1485.093 554.729 L
1486.985 555.281 L
1489.215 552.029 L
1491.242 553.604 L
1493.135 557.203 L
1495.365 561.441 L
1497.392 563.76 L
1499.555 567.091 L
1501.582 567.736 L
1503.542 568.82 L
1505.704 565.753 L
1507.799 559.279 L
1509.894 559.908 L
1511.786 557.674 L
1513.881 556.312 L
1515.841 559.683 L
1518.004 563.47 L
1520.031 562.481 L
1521.991 567.562 L
1524.221 572.084 L
1526.248 572.309 L
1528.343 571.491 L
1530.371 571.908 L
1532.398 573.219 L
1534.561 574.872 L
1536.521 572.877 L
1538.548 570.67 L
1540.643 573.484 L
1542.738 575.37 L
1544.698 574.538 L
1546.86 576.296 L
1548.955 576.219 L
1550.847 575.99 L
1553.077 574.733 L
1555.105 575.904 L
1557.2 574.741 L
1559.295 572.989 L
1561.187 574.315 L
1563.079 574.359 L
1565.309 575.55 L
1567.404 571.069 L
1569.297 566.651 L
1571.527 566.912 L
1573.554 563.823 L
1575.649 566.565 L
1577.744 567.576 L
1579.704 566.808 L
1581.866 562.351 L
1583.961 565.213 L
1585.853 565.089 L
1587.948 562.336 L
1589.976 562.879 L
1592.003 564.768 L
1594.098 563.768 L
1596.193 561.797 L
1598.153 563.465 L
1600.315 561.515 L
1602.41 563.455 L
1604.302 565.067 L
1606.533 563.229 L
1608.56 568.993 L
1610.452 565.034 L
1612.615 566.648 L
1614.642 565.956 L
1616.602 565.303 L
1618.765 563.556 L
1620.859 564.562 L
1622.954 564.215 L
1624.982 566.576 L
1627.009 564.665 L
1629.104 563.135 L
1631.199 561.941 L
1633.159 567.111 L
1635.254 568.421 L
1637.349 568.686 L
1639.309 567.849 L
1641.471 566.74 L
1643.499 571.261 L
1645.458 571.051 L
1647.688 568.834 L
1649.716 569.342 L
1651.811 567.227 L
1653.838 560.62 L
1655.865 559.7 L
1658.028 559.945 L
1659.92 560.16 L
1662.015 559.834 L
1663.907 561.31 L
1666.138 562.027 L
1668.165 560.655 L
1670.26 561.228 L
1672.355 562.804 L
1674.315 560.186 L
1676.477 559.177 L
1678.505 557.638 L
1680.464 557.088 L
1682.694 552.989 L
1684.587 551.404 L
1686.547 552.499 L
1688.709 549.646 L
1690.804 551.022 L
1692.764 550.456 L
1694.926 549.173 L
S
GR
GS
[0.6 0 0 0.6 0 0] CT
0.851 0.325 0.098 RC
1 LJ
3.333 LW
N
285.898 538.814 M
287.993 537.741 L
290.088 536.776 L
292.048 538.192 L
294.211 538.671 L
296.238 538.2 L
298.198 537.511 L
300.428 535.819 L
302.32 538.687 L
304.347 540.028 L
306.442 540.018 L
308.537 539.925 L
310.497 538.415 L
312.66 537.534 L
314.755 539.698 L
316.647 539.899 L
318.877 539.791 L
320.904 539.984 L
322.999 540.552 L
325.094 539.849 L
326.986 539.072 L
328.946 538.98 L
331.109 539.155 L
333.204 538.693 L
335.096 538.157 L
337.326 537.301 L
339.354 536.522 L
341.448 536.444 L
343.543 535.743 L
345.503 536.095 L
347.666 535.114 L
349.761 535.07 L
351.653 536.077 L
353.815 534.075 L
355.843 533.765 L
357.735 534.31 L
359.965 534.961 L
362.06 535.173 L
364.155 534.737 L
366.182 534.729 L
368.21 534.758 L
370.305 533.976 L
372.4 534.572 L
374.36 534.44 L
376.252 533.845 L
378.482 533.767 L
380.509 534.125 L
382.402 534.252 L
384.632 534.542 L
386.659 533.93 L
388.822 533.235 L
390.849 531.699 L
392.809 531.318 L
394.904 530.949 L
397.066 525.776 L
399.161 524.999 L
401.053 524.774 L
403.148 526.339 L
405.108 525.332 L
407.271 523.006 L
409.298 521.926 L
411.258 520.394 L
413.488 516.657 L
415.515 519.995 L
417.61 520.87 L
419.638 520.099 L
421.665 526.664 L
423.828 528.369 L
425.72 528.622 L
427.815 531.39 L
429.707 528.019 L
431.937 527.262 L
433.965 520.715 L
436.059 522.161 L
438.154 520.561 L
440.114 519.543 L
442.277 515.723 L
444.304 515.318 L
446.264 514.35 L
448.494 517.099 L
450.454 518.342 L
452.414 515.672 L
454.576 513.447 L
456.671 514.625 L
458.563 514.542 L
460.793 517.793 L
462.821 518.966 L
464.916 518.593 L
467.011 517.473 L
468.971 516.593 L
471.133 510.056 L
473.228 510.215 L
475.12 507.459 L
477.013 508.366 L
479.243 509.19 L
481.202 503.94 L
483.365 500.018 L
485.46 500.431 L
487.42 498.783 L
489.582 489.831 L
491.677 498.222 L
493.569 495.021 L
495.8 489.519 L
497.827 486.95 L
499.719 497.332 L
501.882 497.44 L
503.909 488.367 L
505.869 489.823 L
508.031 490.117 L
510.126 492.433 L
512.221 493.74 L
514.249 497.181 L
516.276 498.392 L
518.371 509.631 L
520.466 510.244 L
522.426 512.893 L
524.318 517.412 L
526.548 521.465 L
528.576 510.239 L
530.468 508.529 L
532.698 500.307 L
534.725 499.687 L
536.888 510.577 L
538.915 511.366 L
540.875 515.168 L
543.037 514.035 L
545.132 516.495 L
547.227 513.468 L
549.187 514.157 L
551.215 509.775 L
553.174 512.074 L
555.404 513.476 L
557.432 510.944 L
559.527 510.81 L
561.622 508.328 L
563.582 507.916 L
565.744 508.018 L
567.771 509.416 L
569.731 508.118 L
571.961 505.674 L
573.854 502.82 L
575.881 501.819 L
577.976 502.363 L
580.071 499.452 L
582.031 497.912 L
584.193 490.651 L
586.288 497.238 L
588.18 502.652 L
590.411 502.785 L
592.438 503.947 L
594.533 502.485 L
596.628 501.102 L
598.52 500.9 L
600.48 493.205 L
602.642 487.401 L
604.737 488.912 L
606.63 486.488 L
608.86 483.887 L
610.887 482.007 L
612.982 487.009 L
615.077 489.454 L
617.037 493.547 L
619.199 496.803 L
621.294 497.144 L
623.187 499.892 L
625.281 495.26 L
627.309 487.758 L
629.336 492.784 L
631.431 491.769 L
633.526 488.481 L
635.486 486.976 L
637.648 483.506 L
639.743 491.863 L
641.636 489.368 L
643.866 493.809 L
645.893 494.753 L
647.785 494.005 L
650.015 494.863 L
652.043 495.318 L
653.935 490.475 L
656.165 492.869 L
658.193 493.979 L
660.355 496.258 L
662.383 498.328 L
664.342 500.876 L
666.505 507.878 L
668.6 508.361 L
670.695 499.831 L
672.587 499.566 L
674.682 500.066 L
676.642 499.822 L
678.804 500.359 L
680.832 502.278 L
682.791 498.731 L
685.022 499.473 L
687.049 497.743 L
689.144 494.42 L
691.171 495.275 L
693.199 492.466 L
695.361 490.313 L
697.253 489.058 L
699.348 487.943 L
701.241 486.497 L
703.471 484.109 L
705.498 480.914 L
707.593 481.551 L
709.688 483.029 L
711.648 481.955 L
713.81 474.781 L
715.838 476.35 L
717.797 471.664 L
720.028 475.398 L
721.92 472.699 L
723.947 473.665 L
726.042 471.724 L
728.137 475.355 L
730.097 479.634 L
732.259 476.517 L
734.354 472.819 L
736.247 469.961 L
738.477 452.178 L
740.504 460.584 L
742.599 460.581 L
744.694 452.478 L
746.654 428.225 L
748.749 432.119 L
750.776 458.984 L
752.804 467.28 L
754.898 469.044 L
756.993 461.272 L
758.953 446.631 L
761.116 442.685 L
763.211 434.246 L
765.103 431.863 L
767.333 438.492 L
769.36 436.198 L
771.253 425.901 L
773.415 427.314 L
775.443 417.143 L
777.402 424.103 L
779.565 420.683 L
781.66 409.581 L
783.755 400.636 L
785.782 396 L
787.81 410.875 L
789.905 432.601 L
792 417.471 L
793.959 415.888 L
795.852 418.031 L
798.082 416.207 L
800.109 421.088 L
802.001 422.429 L
804.231 413.171 L
806.259 422.528 L
808.421 433.298 L
810.449 441.248 L
812.409 454.485 L
814.571 454.551 L
816.666 458.748 L
818.761 455.735 L
820.653 461.432 L
822.748 457.601 L
824.708 462.009 L
826.87 455.612 L
828.898 453.406 L
830.858 444.048 L
833.088 442.5 L
835.115 448.727 L
837.21 446.704 L
839.237 447.563 L
841.265 445.192 L
843.427 447.807 L
845.387 443.142 L
847.415 437.266 L
849.51 433.991 L
851.604 420.454 L
853.564 420.234 L
855.727 430.325 L
857.822 431.451 L
859.714 435.428 L
861.944 444.664 L
863.971 447.582 L
866.066 448.94 L
868.161 453.104 L
870.054 444.47 L
872.013 446.797 L
874.176 450.418 L
876.271 463.536 L
878.163 464.185 L
880.393 460.501 L
882.421 463.392 L
884.516 463.508 L
886.611 466.934 L
888.57 471.259 L
890.733 478.519 L
892.828 477.684 L
894.72 486.163 L
896.815 494.367 L
898.842 493.952 L
900.87 485.508 L
902.965 492.518 L
905.06 494.232 L
907.019 501.276 L
909.182 494.774 L
911.277 497.879 L
913.169 499.933 L
915.399 498.729 L
917.427 500.071 L
919.319 500.098 L
921.481 496.836 L
923.509 486.633 L
925.469 483.584 L
927.631 485.456 L
929.726 483.254 L
931.821 479.389 L
933.848 471.205 L
935.876 479.71 L
937.971 479.347 L
940.066 480.379 L
942.026 488.181 L
944.12 489.62 L
946.215 484.832 L
948.175 481.426 L
950.338 476.696 L
952.365 480.569 L
954.325 476.922 L
956.555 474.765 L
958.582 478.784 L
960.677 481.621 L
962.705 475.55 L
964.732 472.953 L
966.895 474.715 L
968.787 470.074 L
970.882 469.152 L
972.774 474.019 L
975.004 478.876 L
977.032 485.972 L
979.127 491.59 L
981.222 483.322 L
983.181 482.42 L
985.344 488.176 L
987.371 489.429 L
989.331 487.947 L
991.561 482.368 L
993.453 480.916 L
995.481 478.828 L
997.576 474.534 L
999.671 480.075 L
1001.63 482.289 L
1003.793 484.88 L
1005.888 480.063 L
1007.78 480.747 L
1010.01 483.466 L
1012.038 487.139 L
1014.133 489.441 L
1016.228 490.567 L
1018.12 490.469 L
1020.012 489.363 L
1022.242 490.558 L
1024.337 490.327 L
1026.229 487.682 L
1028.459 489.61 L
1030.487 494.416 L
1032.582 498.685 L
1034.677 500.519 L
1036.637 502.385 L
1038.799 509.485 L
1040.894 503.08 L
1042.786 502.183 L
1044.949 498.265 L
1046.976 499.194 L
1048.936 502.862 L
1051.099 506.141 L
1053.193 511.477 L
1055.288 513.436 L
1057.316 516.99 L
1059.343 510.319 L
1061.438 506.682 L
1063.466 510.052 L
1065.493 514.858 L
1067.385 519.107 L
1069.615 518.7 L
1071.575 520.484 L
1073.535 517.639 L
1075.765 521.47 L
1077.792 520.515 L
1079.955 524.891 L
1081.982 524.774 L
1083.942 524.137 L
1086.105 520.261 L
1088.2 519.963 L
1090.295 522.211 L
1092.187 514.931 L
1094.282 507.146 L
1096.241 502.668 L
1098.404 501.083 L
1100.431 498.562 L
1102.391 501.712 L
1104.621 500.852 L
1106.649 495.23 L
1108.744 492.792 L
1110.771 489.061 L
1112.798 487.676 L
1114.961 492.283 L
1116.853 497.756 L
1118.948 497.748 L
1120.84 500.307 L
1123.07 509.763 L
1125.098 510.555 L
1127.193 508.182 L
1129.288 509.624 L
1131.248 510.422 L
1133.41 512.802 L
1135.438 516.09 L
1137.397 517.921 L
1139.627 519.412 L
1141.587 513.089 L
1143.547 508.881 L
1145.709 505.414 L
1147.804 502.884 L
1149.697 504.78 L
1151.927 503.924 L
1153.954 501.726 L
1156.049 504.699 L
1158.144 509.479 L
1160.104 512.737 L
1162.266 508.248 L
1164.361 507.513 L
1166.254 506.094 L
1168.349 501.435 L
1170.376 503.865 L
1172.403 504.595 L
1174.498 506.124 L
1176.593 512.09 L
1178.553 508.022 L
1180.716 510.223 L
1182.811 513.424 L
1184.703 512.758 L
1186.933 514.235 L
1188.96 517.745 L
1190.852 515.47 L
1193.015 514.762 L
1195.042 514.591 L
1197.002 515.479 L
1199.165 516.618 L
1201.26 516.377 L
1203.355 522.541 L
1205.382 530.246 L
1207.409 529.39 L
1209.504 526.594 L
1211.599 526.203 L
1213.559 526.584 L
1215.451 518.796 L
1217.681 519.472 L
1219.709 518.892 L
1221.533 514.167 L
1223.831 513.067 L
1225.859 511.327 L
1228.021 510.281 L
1230.048 511.491 L
1232.008 510 L
1234.171 508.425 L
1236.266 505.01 L
1238.361 502.064 L
1240.321 503.362 L
1242.416 506.788 L
1244.308 504.404 L
1246.538 503.567 L
1248.565 507.626 L
1250.66 508.511 L
1252.755 511.081 L
1254.715 512.266 L
1256.877 512.986 L
1258.905 517.088 L
1260.865 521.6 L
1263.095 523.334 L
1264.987 525.713 L
1267.014 526.603 L
1269.109 522.913 L
1271.204 522.38 L
1273.164 522.12 L
1275.327 527.632 L
1277.422 529.433 L
1279.314 534.988 L
1281.544 539.384 L
1283.571 532.717 L
1285.666 529.037 L
1287.761 529.152 L
1289.653 530.865 L
1291.546 522.873 L
1293.776 528.284 L
1295.871 529.66 L
1297.763 532.948 L
1299.993 539.992 L
1302.02 543.497 L
1304.115 549.69 L
1306.21 547.807 L
1308.17 542.359 L
1310.333 548.932 L
1312.428 546.63 L
1314.32 550.354 L
1316.415 549.193 L
1318.442 548.868 L
1320.469 554.842 L
1322.564 553.181 L
1324.659 542.72 L
1326.619 541.678 L
1328.782 549.025 L
1330.877 543.796 L
1332.769 542.341 L
1334.999 544.342 L
1337.026 545.021 L
1338.919 547.38 L
1341.149 549.304 L
1343.176 538.96 L
1345.068 536.664 L
1347.298 536.61 L
1349.326 537.721 L
1351.488 542.458 L
1353.516 541.553 L
1355.476 542.733 L
1357.638 537.672 L
1359.733 538.675 L
1361.828 538.076 L
1363.72 534.479 L
1365.748 531.393 L
1367.775 535.743 L
1369.938 537.513 L
1371.965 537.869 L
1373.925 533.119 L
1376.155 536.31 L
1378.182 531.79 L
1380.277 529.104 L
1382.305 529.644 L
1384.332 530.659 L
1386.495 529.078 L
1388.387 527.682 L
1390.482 525.03 L
1392.374 523.875 L
1394.604 522.524 L
1396.631 521.836 L
1398.726 524.194 L
1400.821 526.931 L
1402.781 528.169 L
1404.944 528.412 L
1406.971 529.998 L
1408.931 526.96 L
1411.161 525.452 L
1413.053 529.088 L
1415.081 528.639 L
1417.176 529.022 L
1419.271 524.865 L
1421.23 524.05 L
1423.393 527.846 L
1425.488 531.596 L
1427.38 532.161 L
1429.61 533.276 L
1431.637 541.421 L
1433.732 541.246 L
1435.827 548.429 L
1437.787 552.127 L
1439.882 552.88 L
1441.91 545.971 L
1443.937 541.196 L
1446.032 542.171 L
1448.127 543.324 L
1450.087 545.494 L
1452.249 546.903 L
1454.344 548.021 L
1456.236 559.448 L
1458.466 564.185 L
1460.494 558.588 L
1462.386 557.024 L
1464.549 561.62 L
1466.576 557.127 L
1468.536 554.566 L
1470.698 552.24 L
1472.793 552.42 L
1474.888 554.038 L
1476.916 555.167 L
1478.943 554.963 L
1481.038 558.764 L
1483.133 550.875 L
1485.093 554.616 L
1486.985 555.054 L
1489.215 552.094 L
1491.242 553.713 L
1493.135 557.256 L
1495.365 561.225 L
1497.392 563.076 L
1499.555 566.432 L
1501.582 566.856 L
1503.542 567.593 L
1505.704 564.776 L
1507.799 559.313 L
1509.894 559.522 L
1511.786 557.859 L
1513.881 556.479 L
1515.841 559.415 L
1518.004 562.789 L
1520.031 561.683 L
1521.991 566.291 L
1524.221 570.836 L
1526.248 571.394 L
1528.343 570.492 L
1530.371 570.952 L
1532.398 572.253 L
1534.561 573.661 L
1536.521 571.757 L
1538.548 569.574 L
1540.643 572.299 L
1542.738 574.365 L
1544.698 573.518 L
1546.86 575.257 L
1548.955 575.103 L
1550.847 574.784 L
1553.077 573.651 L
1555.105 574.753 L
1557.2 573.599 L
1559.295 571.868 L
1561.187 573.077 L
1563.079 573.142 L
1565.309 574.397 L
1567.404 570.089 L
1569.297 566.435 L
1571.527 566.459 L
1573.554 563.84 L
1575.649 566.082 L
1577.744 566.934 L
1579.704 566.11 L
1581.866 562.476 L
1583.961 565.234 L
1585.853 565.273 L
1587.948 563.215 L
1589.976 563.701 L
1592.003 565.442 L
1594.098 564.499 L
1596.193 562.978 L
1598.153 564.552 L
1600.315 562.681 L
1602.41 564.437 L
1604.302 566.052 L
1606.533 564.243 L
1608.56 569.496 L
1610.452 565.785 L
1612.615 567.235 L
1614.642 566.361 L
1616.602 565.696 L
1618.765 564.071 L
1620.859 565.033 L
1622.954 564.469 L
1624.982 566.575 L
1627.009 564.946 L
1629.104 563.332 L
1631.199 562.168 L
1633.159 566.921 L
1635.254 568.225 L
1637.349 568.481 L
1639.309 567.766 L
1641.471 566.776 L
1643.499 571.198 L
1645.458 570.966 L
1647.688 568.885 L
1649.716 569.25 L
1651.811 567.135 L
1653.838 561.023 L
1655.865 560.106 L
1658.028 560.257 L
1659.92 560.5 L
1662.015 560.328 L
1663.907 561.531 L
1666.138 562.261 L
1668.165 560.84 L
1670.26 561.322 L
1672.355 562.808 L
1674.315 560.265 L
1676.477 559.249 L
1678.505 557.672 L
1680.464 557.184 L
1682.694 553.212 L
1684.587 551.587 L
1686.547 552.638 L
1688.709 549.809 L
1690.804 551.172 L
1692.764 550.217 L
1694.926 548.901 L
S
GR
GS
[0.6 0 0 0.6 0 0] CT
1 GC
N
390 572 M
390 490 L
262 490 L
262 572 L
cp
f
GR
GS
[0.6 0 0 0.6 192.51897 306.95927] CT
/Helvetica 30 F
GS
[1 0 0 1 0 0] CT
0 12 moveto 
1 -1 scale
(Obs.) t 
GR
GR
GS
[0.6 0 0 0.6 0 0] CT
0 0.447 0.741 RC
1 LJ
3.333 LW
N
267.01 511.599 M
317.108 511.599 L
S
GR
GS
[0.6 0 0 0.6 192.51897 330.24075] CT
/Helvetica 30 F
GS
[1 0 0 1 0 0] CT
0 12 moveto 
1 -1 scale
(Fit) t 
GR
GR
GS
[0.6 0 0 0.6 0 0] CT
0.851 0.325 0.098 RC
1 LJ
3.333 LW
N
267.01 550.401 M
317.108 550.401 L
S
GR
GS
[0.6 0 0 0.6 0 0] CT
0.149 GC
10.0 ML
0.833 LW
N
262 572 M
262 490 L
390 490 L
390 572 L
cp
S
GR
GS
[0.6 0 0 0.6 0 0] CT
1 GC
N
249 881 M
1730 881 L
1730 693 L
249 693 L
cp
f
GR
GS
[0.6 0 0 0.6 0 0] CT
0.149 GC
2 setlinecap
1 LJ
0.833 LW
N
249 881 M
1730 881 L
S
GR
GS
[0.6 0 0 0.6 0 0] CT
0.149 GC
2 setlinecap
1 LJ
0.833 LW
N
249 693 M
1730 693 L
S
GR
GS
[0.6 0 0 0.6 0 0] CT
0.149 GC
2 setlinecap
1 LJ
0.833 LW
N
249 881 M
249 866.19 L
S
GR
GS
[0.6 0 0 0.6 0 0] CT
0.149 GC
2 setlinecap
1 LJ
0.833 LW
N
495.867 881 M
495.867 866.19 L
S
GR
GS
[0.6 0 0 0.6 0 0] CT
0.149 GC
2 setlinecap
1 LJ
0.833 LW
N
742.667 881 M
742.667 866.19 L
S
GR
GS
[0.6 0 0 0.6 0 0] CT
0.149 GC
2 setlinecap
1 LJ
0.833 LW
N
989.534 881 M
989.534 866.19 L
S
GR
GS
[0.6 0 0 0.6 0 0] CT
0.149 GC
2 setlinecap
1 LJ
0.833 LW
N
1236.333 881 M
1236.333 866.19 L
S
GR
GS
[0.6 0 0 0.6 0 0] CT
0.149 GC
2 setlinecap
1 LJ
0.833 LW
N
1483.2 881 M
1483.2 866.19 L
S
GR
GS
[0.6 0 0 0.6 0 0] CT
0.149 GC
2 setlinecap
1 LJ
0.833 LW
N
1730 881 M
1730 866.19 L
S
GR
GS
[0.6 0 0 0.6 0 0] CT
0.149 GC
2 setlinecap
1 LJ
0.833 LW
N
249 693 M
249 707.81 L
S
GR
GS
[0.6 0 0 0.6 0 0] CT
0.149 GC
2 setlinecap
1 LJ
0.833 LW
N
495.867 693 M
495.867 707.81 L
S
GR
GS
[0.6 0 0 0.6 0 0] CT
0.149 GC
2 setlinecap
1 LJ
0.833 LW
N
742.667 693 M
742.667 707.81 L
S
GR
GS
[0.6 0 0 0.6 0 0] CT
0.149 GC
2 setlinecap
1 LJ
0.833 LW
N
989.534 693 M
989.534 707.81 L
S
GR
GS
[0.6 0 0 0.6 0 0] CT
0.149 GC
2 setlinecap
1 LJ
0.833 LW
N
1236.333 693 M
1236.333 707.81 L
S
GR
GS
[0.6 0 0 0.6 0 0] CT
0.149 GC
2 setlinecap
1 LJ
0.833 LW
N
1483.2 693 M
1483.2 707.81 L
S
GR
GS
[0.6 0 0 0.6 0 0] CT
0.149 GC
2 setlinecap
1 LJ
0.833 LW
N
1730 693 M
1730 707.81 L
S
GR
GS
[0.6 0 0 0.6 149.39999 534.6] CT
0.149 GC
/Helvetica 33.333 F
GS
[1 0 0 1 0 0] CT
-51 34 moveto 
1 -1 scale
(Jan-60) t 
GR
GR
GS
[0.6 0 0 0.6 297.52026 534.6] CT
0.149 GC
/Helvetica 33.333 F
GS
[1 0 0 1 0 0] CT
-51 34 moveto 
1 -1 scale
(Jan-70) t 
GR
GR
GS
[0.6 0 0 0.6 445.59999 534.6] CT
0.149 GC
/Helvetica 33.333 F
GS
[1 0 0 1 0 0] CT
-51 34 moveto 
1 -1 scale
(Jan-80) t 
GR
GR
GS
[0.6 0 0 0.6 593.72026 534.6] CT
0.149 GC
/Helvetica 33.333 F
GS
[1 0 0 1 0 0] CT
-51 34 moveto 
1 -1 scale
(Jan-90) t 
GR
GR
GS
[0.6 0 0 0.6 741.79999 534.6] CT
0.149 GC
/Helvetica 33.333 F
GS
[1 0 0 1 0 0] CT
-51 34 moveto 
1 -1 scale
(Jan-00) t 
GR
GR
GS
[0.6 0 0 0.6 889.92023 534.6] CT
0.149 GC
/Helvetica 33.333 F
GS
[1 0 0 1 0 0] CT
-51 34 moveto 
1 -1 scale
(Jan-10) t 
GR
GR
GS
[0.6 0 0 0.6 1037.99996 534.6] CT
0.149 GC
/Helvetica 33.333 F
GS
[1 0 0 1 0 0] CT
-51 34 moveto 
1 -1 scale
(Jan-20) t 
GR
GR
GS
[0.6 0 0 0.6 0 0] CT
0.149 GC
2 setlinecap
1 LJ
0.833 LW
N
249 881 M
249 693 L
S
GR
GS
[0.6 0 0 0.6 0 0] CT
0.149 GC
2 setlinecap
1 LJ
0.833 LW
N
1730 881 M
1730 693 L
S
GR
GS
[0.6 0 0 0.6 0 0] CT
0.149 GC
2 setlinecap
1 LJ
0.833 LW
N
249 881 M
263.808 881 L
S
GR
GS
[0.6 0 0 0.6 0 0] CT
0.149 GC
2 setlinecap
1 LJ
0.833 LW
N
249 817.879 M
263.808 817.879 L
S
GR
GS
[0.6 0 0 0.6 0 0] CT
0.149 GC
2 setlinecap
1 LJ
0.833 LW
N
249 754.759 M
263.808 754.759 L
S
GR
GS
[0.6 0 0 0.6 0 0] CT
0.149 GC
2 setlinecap
1 LJ
0.833 LW
N
1730 881 M
1715.192 881 L
S
GR
GS
[0.6 0 0 0.6 0 0] CT
0.149 GC
2 setlinecap
1 LJ
0.833 LW
N
1730 817.879 M
1715.192 817.879 L
S
GR
GS
[0.6 0 0 0.6 0 0] CT
0.149 GC
2 setlinecap
1 LJ
0.833 LW
N
1730 754.759 M
1715.192 754.759 L
S
GR
GS
[0.6 0 0 0.6 143.39895 528.6] CT
0.149 GC
/Helvetica 33.333 F
GS
[1 0 0 1 0 0] CT
-19 13 moveto 
1 -1 scale
(0) t 
GR
GR
GS
[0.6 0 0 0.6 143.39895 490.72767] CT
0.149 GC
/Helvetica 33.333 F
GS
[1 0 0 1 0 0] CT
-19 13 moveto 
1 -1 scale
(5) t 
GR
GR
GS
[0.6 0 0 0.6 143.39895 452.85538] CT
0.149 GC
/Helvetica 33.333 F
GS
[1 0 0 1 0 0] CT
-38 13 moveto 
1 -1 scale
(10) t 
GR
GR
GS
[0.6 0 0 0.6 593.69997 412.5] CT
/Helvetica-Bold 36.667 F
GS
[1 0 0 1 0 0] CT
-63.5 -9 moveto 
1 -1 scale
(10 year) t 
GR
GR
GS
[0.6 0 0 0.6 0 0] CT
0 0.447 0.741 RC
1 LJ
3.333 LW
N
285.898 832.139 M
287.993 830.199 L
290.088 829.728 L
292.048 831.736 L
294.211 831.391 L
296.238 832.256 L
298.198 833.02 L
300.428 830.166 L
302.32 832.119 L
304.347 832.334 L
306.442 833.898 L
308.537 831.868 L
310.497 830.971 L
312.66 830.295 L
314.755 830.717 L
316.647 830.722 L
318.877 830.952 L
320.904 831.396 L
322.999 831.949 L
325.094 832.218 L
326.986 831.151 L
328.946 830.709 L
331.109 831.372 L
333.204 831.207 L
335.096 830.581 L
337.326 831.137 L
339.354 830.227 L
341.448 829.874 L
343.543 829.083 L
345.503 830.174 L
347.666 829.534 L
349.761 829.241 L
351.653 829.055 L
353.815 828.071 L
355.843 828.14 L
357.735 829.04 L
359.965 829.583 L
362.06 827.853 L
364.155 828.104 L
366.182 829.195 L
368.21 829.199 L
370.305 829.022 L
372.4 828.847 L
374.36 827.524 L
376.252 827.605 L
378.482 828.299 L
380.509 828.717 L
382.402 828.632 L
384.632 828.549 L
386.659 828.262 L
388.822 827.83 L
390.849 825.725 L
392.809 825.628 L
394.904 825.286 L
397.066 820.834 L
399.161 819.956 L
401.053 817.463 L
403.148 820.668 L
405.108 820.214 L
407.271 819.276 L
409.298 817.35 L
411.258 815.224 L
413.488 809.978 L
415.515 814.424 L
417.61 816.066 L
419.638 814.98 L
421.665 821.487 L
423.828 822.995 L
425.72 821.705 L
427.815 825.234 L
429.707 820.941 L
431.937 820.961 L
433.965 815.266 L
436.059 817.733 L
438.154 814.606 L
440.114 814.396 L
442.277 809.841 L
444.304 808.929 L
446.264 808.647 L
448.494 811.367 L
450.454 810.949 L
452.414 808.926 L
454.576 807.07 L
456.671 808.114 L
458.563 805.321 L
460.793 806.003 L
462.821 811.707 L
464.916 811.55 L
467.011 809.882 L
468.971 809.063 L
471.133 803.115 L
473.228 804.067 L
475.12 803.944 L
477.013 801.653 L
479.243 803.409 L
481.202 800.217 L
483.365 798.436 L
485.46 801.385 L
487.42 797.297 L
489.582 788.737 L
491.677 799.242 L
493.569 791.412 L
495.8 792.377 L
497.827 785.492 L
499.719 797.108 L
501.882 793.145 L
503.909 783.409 L
505.869 786.694 L
508.031 785.721 L
510.126 787.626 L
512.221 787.757 L
514.249 789.711 L
516.276 792.311 L
518.371 798.016 L
520.466 802.498 L
522.426 799.444 L
524.318 803.316 L
526.548 808.052 L
528.576 801.435 L
530.468 799.131 L
532.698 794.319 L
534.725 792.802 L
536.888 802.822 L
538.915 803.958 L
540.875 805.898 L
543.037 804.207 L
545.132 805.663 L
547.227 803.323 L
549.187 803.524 L
551.215 802.993 L
553.174 803.361 L
555.404 803.582 L
557.432 803.688 L
559.527 803.469 L
561.622 800.766 L
563.582 800.948 L
565.744 801.615 L
567.771 802.469 L
569.731 801.771 L
571.961 800.332 L
573.854 798.942 L
575.881 797.914 L
577.976 797.835 L
580.071 797.282 L
582.031 796.81 L
584.193 788.674 L
586.288 792.929 L
588.18 795.625 L
590.411 797.28 L
592.438 798.736 L
594.533 795.943 L
596.628 793.699 L
598.52 794.168 L
600.48 788.315 L
602.642 783.78 L
604.737 784.502 L
606.63 783.576 L
608.86 784.009 L
610.887 779.036 L
612.982 782.331 L
615.077 786.59 L
617.037 788.717 L
619.199 790.59 L
621.294 789.101 L
623.187 789.98 L
625.281 787.026 L
627.309 780.421 L
629.336 783.971 L
631.431 784.789 L
633.526 783.615 L
635.486 781.238 L
637.648 778.111 L
639.743 783.046 L
641.636 780.927 L
643.866 784.461 L
645.893 784.189 L
647.785 785.74 L
650.015 786.143 L
652.043 786.363 L
653.935 783.478 L
656.165 784.336 L
658.193 784.395 L
660.355 785.833 L
662.383 786.774 L
664.342 788.555 L
666.505 792.381 L
668.6 795.985 L
670.695 789.729 L
672.587 788.572 L
674.682 788.384 L
676.642 788.24 L
678.804 788.421 L
680.832 790.354 L
682.791 788.821 L
685.022 790.225 L
687.049 789.242 L
689.144 787.283 L
691.171 787.573 L
693.199 783.988 L
695.361 782.097 L
697.253 781.164 L
699.348 780.62 L
701.241 779.874 L
703.471 778.149 L
705.498 775.19 L
707.593 776.074 L
709.688 777.695 L
711.648 776.848 L
713.81 771.254 L
715.838 773.59 L
717.797 769.978 L
720.028 772.852 L
721.92 769.506 L
723.947 770.084 L
726.042 767.956 L
728.137 770.987 L
730.097 774.07 L
732.259 771.489 L
734.354 768.799 L
736.247 766.371 L
738.477 751.526 L
740.504 755.482 L
742.599 755.233 L
744.694 744.7 L
746.654 729.383 L
748.749 730.6 L
750.776 747.934 L
752.804 753.138 L
754.898 757.339 L
756.993 749.218 L
758.953 742.183 L
761.116 735.632 L
763.211 729.067 L
765.103 728.996 L
767.333 731.513 L
769.36 729.074 L
771.253 719.139 L
773.415 718.892 L
775.443 712.304 L
777.402 720.674 L
779.565 716.168 L
781.66 708.794 L
783.755 698.574 L
785.782 693 L
787.81 702.478 L
789.905 723.27 L
792 710.411 L
793.959 708.664 L
795.852 711.646 L
798.082 712.2 L
800.109 716.651 L
802.001 715.969 L
804.231 709.413 L
806.259 715.397 L
808.421 726.605 L
810.449 734.336 L
812.409 746.155 L
814.571 744.222 L
816.666 748.578 L
818.761 743.209 L
820.653 750.279 L
822.748 747.009 L
824.708 750.874 L
826.87 744.986 L
828.898 743.306 L
830.858 733.42 L
833.088 731.879 L
835.115 737.728 L
837.21 734.547 L
839.237 736.513 L
841.265 734 L
843.427 736.059 L
845.387 731.615 L
847.415 726.434 L
849.51 722.7 L
851.604 709.716 L
853.564 711.024 L
855.727 721.993 L
857.822 724.298 L
859.714 728.408 L
861.944 736.113 L
863.971 736.893 L
866.066 736.108 L
868.161 741.651 L
870.054 732.145 L
872.013 734.524 L
874.176 736.522 L
876.271 750.47 L
878.163 750.431 L
880.393 746.334 L
882.421 750.122 L
884.516 749.069 L
886.611 752.748 L
888.57 757.362 L
890.733 765.098 L
892.828 763.562 L
894.72 777.218 L
896.815 786.204 L
898.842 785.475 L
900.87 776.354 L
902.965 783.322 L
905.06 782.226 L
907.019 788.043 L
909.182 781.096 L
911.277 783.718 L
913.169 785.949 L
915.399 785.526 L
917.427 786.83 L
919.319 787.732 L
921.481 784.259 L
923.509 775.436 L
925.469 773.049 L
927.631 773.693 L
929.726 770.485 L
931.821 767.041 L
933.848 759.28 L
935.876 767.731 L
937.971 766.639 L
940.066 768.043 L
942.026 773.896 L
944.12 775.45 L
946.215 770.376 L
948.175 766.515 L
950.338 763.876 L
952.365 768.709 L
954.325 763.798 L
956.555 764.293 L
958.582 769.019 L
960.677 771.471 L
962.705 767.41 L
964.732 767.302 L
966.895 769.567 L
968.787 765.526 L
970.882 766.45 L
972.774 768.63 L
975.004 773.504 L
977.032 778.969 L
979.127 782.746 L
981.222 777.645 L
983.181 776.835 L
985.344 781.157 L
987.371 782.563 L
989.331 781.134 L
991.561 775.497 L
993.453 774.17 L
995.481 772.887 L
997.576 768.348 L
999.671 773.394 L
1001.63 775.143 L
1003.793 775.813 L
1005.888 768.789 L
1007.78 769.09 L
1010.01 771.475 L
1012.038 776.337 L
1014.133 777.239 L
1016.228 778.197 L
1018.12 778.295 L
1020.012 777.801 L
1022.242 777.804 L
1024.337 776.917 L
1026.229 774.451 L
1028.459 776.205 L
1030.487 779.226 L
1032.582 783.632 L
1034.677 782.817 L
1036.637 783.058 L
1038.799 791.051 L
1040.894 784.292 L
1042.786 784.737 L
1044.949 783.042 L
1046.976 781.921 L
1048.936 784.812 L
1051.099 785.327 L
1053.193 790.737 L
1055.288 790.212 L
1057.316 792.574 L
1059.343 789.802 L
1061.438 788.746 L
1063.466 791.435 L
1065.493 795.002 L
1067.385 799.017 L
1069.615 798.552 L
1071.575 799.625 L
1073.535 799.377 L
1075.765 804.108 L
1077.792 804.35 L
1079.955 808.662 L
1081.982 809.306 L
1083.942 808.951 L
1086.105 804.548 L
1088.2 804.331 L
1090.295 806.98 L
1092.187 799.934 L
1094.282 792.889 L
1096.241 790.193 L
1098.404 788.851 L
1100.431 786.104 L
1102.391 789.796 L
1104.621 789.241 L
1106.649 783.844 L
1108.744 782.132 L
1110.771 781.902 L
1112.798 782.386 L
1114.961 785.391 L
1116.853 789.109 L
1118.948 789.231 L
1120.84 791.488 L
1123.07 800.15 L
1125.098 801.347 L
1127.193 798.475 L
1129.288 800.519 L
1131.248 802.128 L
1133.41 804.169 L
1135.438 806.984 L
1137.397 809.251 L
1139.627 808.743 L
1141.587 802.286 L
1143.547 799.09 L
1145.709 795.805 L
1147.804 793.967 L
1149.697 795.823 L
1151.927 795.175 L
1153.954 792.788 L
1156.049 795.733 L
1158.144 800.089 L
1160.104 803.998 L
1162.266 799.736 L
1164.361 798.56 L
1166.254 797.767 L
1168.349 793.168 L
1170.376 795.605 L
1172.403 796.316 L
1174.498 798.018 L
1176.593 804.281 L
1178.553 799.864 L
1180.716 802.524 L
1182.811 806.034 L
1184.703 806.684 L
1186.933 808.036 L
1188.96 810.04 L
1190.852 808.675 L
1193.015 808.28 L
1195.042 807.661 L
1197.002 809.182 L
1199.165 811.046 L
1201.26 810.495 L
1203.355 815.621 L
1205.382 821.781 L
1207.409 819.027 L
1209.504 818.699 L
1211.599 817.861 L
1213.559 818.11 L
1215.451 810.64 L
1217.681 810.187 L
1219.709 809.904 L
1221.533 806.214 L
1223.831 804.039 L
1225.859 802.608 L
1228.021 801.221 L
1230.048 801.826 L
1232.008 801.021 L
1234.171 799.536 L
1236.266 796.407 L
1238.361 796.588 L
1240.321 798.59 L
1242.416 803.1 L
1244.308 801.287 L
1246.538 800.323 L
1248.565 803.062 L
1250.66 804.132 L
1252.755 806.584 L
1254.715 805.381 L
1256.877 806.712 L
1258.905 810.382 L
1260.865 813.553 L
1263.095 813.124 L
1264.987 815.169 L
1267.014 814.479 L
1269.109 810.062 L
1271.204 809.179 L
1273.164 809.156 L
1275.327 813.806 L
1277.422 815.516 L
1279.314 817.304 L
1281.544 821.634 L
1283.571 814.759 L
1285.666 811.434 L
1287.761 812.286 L
1289.653 813.624 L
1291.546 807.467 L
1293.776 811.884 L
1295.871 812.55 L
1297.763 814.821 L
1299.993 818.98 L
1302.02 823.449 L
1304.115 829.114 L
1306.21 825.518 L
1308.17 822.064 L
1310.333 827.364 L
1312.428 825.73 L
1314.32 829.512 L
1316.415 827.779 L
1318.442 827.687 L
1320.469 834.667 L
1322.564 832.545 L
1324.659 819.537 L
1326.619 820.279 L
1328.782 826.971 L
1330.877 822.442 L
1332.769 822.371 L
1334.999 823.505 L
1337.026 824.892 L
1338.919 827.038 L
1341.149 828.8 L
1343.176 820.141 L
1345.068 818.489 L
1347.298 819.351 L
1349.326 820.98 L
1351.488 825.495 L
1353.516 825.861 L
1355.476 827.024 L
1357.638 823.341 L
1359.733 825.365 L
1361.828 827.075 L
1363.72 824.529 L
1365.748 822.109 L
1367.775 826.784 L
1369.938 829.384 L
1371.965 830.416 L
1373.925 826.26 L
1376.155 829.439 L
1378.182 825.269 L
1380.277 822.342 L
1382.305 822.824 L
1384.332 824.921 L
1386.495 823.178 L
1388.387 822.937 L
1390.482 818.925 L
1392.374 816.443 L
1394.604 815.71 L
1396.631 815.725 L
1398.726 817.731 L
1400.821 820.59 L
1402.781 821.962 L
1404.944 822.395 L
1406.971 824.235 L
1408.931 821.106 L
1411.161 819.803 L
1413.053 822.806 L
1415.081 821.439 L
1417.176 821.929 L
1419.271 818.774 L
1421.23 816.997 L
1423.393 819.686 L
1425.488 822.105 L
1427.38 821.503 L
1429.61 822.876 L
1431.637 827.809 L
1433.732 826.894 L
1435.827 831.028 L
1437.787 831.972 L
1439.882 832.731 L
1441.91 829.565 L
1443.937 825.774 L
1446.032 827.281 L
1448.127 827.346 L
1450.087 829.157 L
1452.249 827.482 L
1454.344 819.957 L
1456.236 835.11 L
1458.466 844.654 L
1460.494 835.822 L
1462.386 834.352 L
1464.549 841.175 L
1466.576 835.219 L
1468.536 830.548 L
1470.698 830.271 L
1472.793 830.99 L
1474.888 832.28 L
1476.916 834.102 L
1478.943 833.096 L
1481.038 835.918 L
1483.133 828.2 L
1485.093 831.058 L
1486.985 831.095 L
1489.215 829.007 L
1491.242 831.346 L
1493.135 835.513 L
1495.365 840.098 L
1497.392 840.936 L
1499.555 847.382 L
1501.582 846.487 L
1503.542 845.043 L
1505.704 842.679 L
1507.799 836.25 L
1509.894 834.93 L
1511.786 835.067 L
1513.881 834.32 L
1515.841 836.152 L
1518.004 839.719 L
1520.031 837.697 L
1521.991 842.908 L
1524.221 850.764 L
1526.248 854.986 L
1528.343 851.885 L
1530.371 853.148 L
1532.398 855.95 L
1534.561 856.998 L
1536.521 855.02 L
1538.548 851.386 L
1540.643 855.389 L
1542.738 860.618 L
1544.698 859.447 L
1546.86 861.405 L
1548.955 860.685 L
1550.847 859.841 L
1553.077 858.88 L
1555.105 860.222 L
1557.2 858.104 L
1559.295 854.792 L
1561.187 856.354 L
1563.079 856.775 L
1565.309 859.089 L
1567.404 852.649 L
1569.297 847.685 L
1571.527 846.338 L
1573.554 843.961 L
1575.649 845.905 L
1577.744 846.82 L
1579.704 844.069 L
1581.866 840.481 L
1583.961 845.376 L
1585.853 845.69 L
1587.948 844.895 L
1589.976 845.792 L
1592.003 848.392 L
1594.098 847.74 L
1596.193 847.22 L
1598.153 850.155 L
1600.315 847.986 L
1602.41 849.968 L
1604.302 852.322 L
1606.533 852.682 L
1608.56 858.602 L
1610.452 854.535 L
1612.615 855.499 L
1614.642 853.968 L
1616.602 852.824 L
1618.765 849.988 L
1620.859 852.344 L
1622.954 851.904 L
1624.982 854.033 L
1627.009 852.72 L
1629.104 851.779 L
1631.199 850.986 L
1633.159 855.472 L
1635.254 857.761 L
1637.349 857.542 L
1639.309 857.101 L
1641.471 856.857 L
1643.499 861.63 L
1645.458 862.084 L
1647.688 860.486 L
1649.716 860.177 L
1651.811 857.106 L
1653.838 849.83 L
1655.865 848.851 L
1658.028 849.114 L
1659.92 850.235 L
1662.015 849.822 L
1663.907 851.312 L
1666.138 852.383 L
1668.165 851.261 L
1670.26 851.363 L
1672.355 853.744 L
1674.315 851.159 L
1676.477 850.69 L
1678.505 850.048 L
1680.464 850.298 L
1682.694 846.568 L
1684.587 844.416 L
1686.547 846.386 L
1688.709 843.886 L
1690.804 845.267 L
1692.764 844.83 L
1694.926 843.703 L
S
GR
GS
[0.6 0 0 0.6 0 0] CT
0.851 0.325 0.098 RC
1 LJ
3.333 LW
N
285.898 831.745 M
287.993 829.895 L
290.088 829.278 L
292.048 831.562 L
294.211 831.137 L
296.238 831.222 L
298.198 831.638 L
300.428 830.04 L
302.32 831.947 L
304.347 832.122 L
306.442 833.799 L
308.537 831.656 L
310.497 830.454 L
312.66 830.087 L
314.755 830.151 L
316.647 830.141 L
318.877 830.641 L
320.904 831.112 L
322.999 832.073 L
325.094 831.609 L
326.986 830.887 L
328.946 830.392 L
331.109 830.891 L
333.204 830.662 L
335.096 829.969 L
337.326 830.701 L
339.354 830.085 L
341.448 829.579 L
343.543 828.956 L
345.503 829.678 L
347.666 829.161 L
349.761 828.881 L
351.653 826.945 L
353.815 827.021 L
355.843 828.003 L
357.735 829.084 L
359.965 829.596 L
362.06 827.763 L
364.155 828.005 L
366.182 829.115 L
368.21 829.11 L
370.305 828.81 L
372.4 828.264 L
374.36 827.755 L
376.252 827.789 L
378.482 828.137 L
380.509 828.474 L
382.402 828.179 L
384.632 828.085 L
386.659 827.935 L
388.822 827.434 L
390.849 825.953 L
392.809 825.239 L
394.904 824.587 L
397.066 820.556 L
399.161 819.772 L
401.053 815.182 L
403.148 819.802 L
405.108 819.869 L
407.271 820.252 L
409.298 817.678 L
411.258 815.126 L
413.488 808.241 L
415.515 813.55 L
417.61 815.888 L
419.638 814.648 L
421.665 820.816 L
423.828 822.545 L
425.72 819.546 L
427.815 824.602 L
429.707 820.377 L
431.937 820.756 L
433.965 815.221 L
436.059 818.279 L
438.154 813.782 L
440.114 814.305 L
442.277 809.787 L
444.304 808.406 L
446.264 808.414 L
448.494 811.331 L
450.454 808.78 L
452.414 807.56 L
454.576 806.467 L
456.671 806.547 L
458.563 806.456 L
460.793 807.677 L
462.821 810.865 L
464.916 810.692 L
467.011 808.991 L
468.971 807.761 L
471.133 801.608 L
473.228 803.3 L
475.12 803.965 L
477.013 801.794 L
479.243 802.894 L
481.202 801.236 L
483.365 799.977 L
485.46 802.571 L
487.42 797.982 L
489.582 788.537 L
491.677 798.233 L
493.569 791.529 L
495.8 790.953 L
497.827 784.418 L
499.719 795.59 L
501.882 792.649 L
503.909 783.49 L
505.869 787.194 L
508.031 786.035 L
510.126 787.847 L
512.221 787.715 L
514.249 789.564 L
516.276 792.79 L
518.371 797.844 L
520.466 802.408 L
522.426 798.611 L
524.318 802.319 L
526.548 807.847 L
528.576 801.245 L
530.468 798.812 L
532.698 794.93 L
534.725 792.932 L
536.888 802.641 L
538.915 803.808 L
540.875 805.131 L
543.037 803.692 L
545.132 805.32 L
547.227 802.955 L
549.187 803.097 L
551.215 803.282 L
553.174 803.192 L
555.404 803.217 L
557.432 803.64 L
559.527 803.655 L
561.622 800.638 L
563.582 800.927 L
565.744 801.804 L
567.771 802.441 L
569.731 801.772 L
571.961 800.494 L
573.854 799.042 L
575.881 798.26 L
577.976 798.189 L
580.071 799.989 L
582.031 799.888 L
584.193 789.924 L
586.288 793.194 L
588.18 796.28 L
590.411 796.773 L
592.438 797.793 L
594.533 795.409 L
596.628 793.016 L
598.52 793.039 L
600.48 787.716 L
602.642 783.748 L
604.737 784.326 L
606.63 783.769 L
608.86 783.364 L
610.887 779.64 L
612.982 782.867 L
615.077 785.807 L
617.037 788.604 L
619.199 789.801 L
621.294 788.482 L
623.187 788.889 L
625.281 786.517 L
627.309 780.517 L
629.336 783.741 L
631.431 784.502 L
633.526 783.69 L
635.486 781.34 L
637.648 778.254 L
639.743 782.599 L
641.636 780.841 L
643.866 784.182 L
645.893 783.414 L
647.785 785.672 L
650.015 786.048 L
652.043 786.204 L
653.935 783.67 L
656.165 784.183 L
658.193 784.115 L
660.355 785.462 L
662.383 786.427 L
664.342 788.236 L
666.505 792.76 L
668.6 795.504 L
670.695 789.371 L
672.587 788.154 L
674.682 787.833 L
676.642 787.811 L
678.804 788.209 L
680.832 790.182 L
682.791 788.57 L
685.022 790.063 L
687.049 789.128 L
689.144 787.163 L
691.171 787.426 L
693.199 783.817 L
695.361 781.942 L
697.253 780.995 L
699.348 780.535 L
701.241 780.012 L
703.471 778.515 L
705.498 775.565 L
707.593 776.637 L
709.688 777.957 L
711.648 777.019 L
713.81 772.191 L
715.838 774.373 L
717.797 771.031 L
720.028 773.843 L
721.92 770.26 L
723.947 770.511 L
726.042 768.409 L
728.137 771.169 L
730.097 773.763 L
732.259 771.425 L
734.354 768.962 L
736.247 766.704 L
738.477 752.043 L
740.504 756.11 L
742.599 756.314 L
744.694 745.993 L
746.654 732.723 L
748.749 734.638 L
750.776 748.067 L
752.804 754.267 L
754.898 758.203 L
756.993 750.603 L
758.953 742.688 L
761.116 737.451 L
763.211 729.385 L
765.103 728.695 L
767.333 729.639 L
769.36 727.371 L
771.253 718.655 L
773.415 718.172 L
775.443 711.999 L
777.402 719.865 L
779.565 715.875 L
781.66 708.705 L
783.755 699.7 L
785.782 694.828 L
787.81 702.166 L
789.905 723.82 L
792 711.465 L
793.959 709.213 L
795.852 713.215 L
798.082 711.816 L
800.109 716.968 L
802.001 716.624 L
804.231 709.858 L
806.259 716.702 L
808.421 728.589 L
810.449 736.214 L
812.409 746.59 L
814.571 743.524 L
816.666 747.363 L
818.761 742.192 L
820.653 749.55 L
822.748 746.326 L
824.708 749.984 L
826.87 744.111 L
828.898 742.463 L
830.858 732.976 L
833.088 731.611 L
835.115 737.026 L
837.21 733.82 L
839.237 735.608 L
841.265 733.34 L
843.427 735.048 L
845.387 730.767 L
847.415 725.41 L
849.51 721.583 L
851.604 710.196 L
853.564 711.646 L
855.727 722.7 L
857.822 724.309 L
859.714 727.961 L
861.944 735.873 L
863.971 736.089 L
866.066 735.3 L
868.161 740.603 L
870.054 731.212 L
872.013 734.065 L
874.176 736.091 L
876.271 750.192 L
878.163 749.219 L
880.393 745.259 L
882.421 749.598 L
884.516 748.957 L
886.611 752.528 L
888.57 757.126 L
890.733 765.394 L
892.828 763.764 L
894.72 777.442 L
896.815 786.191 L
898.842 785.487 L
900.87 776.13 L
902.965 783.182 L
905.06 782.321 L
907.019 788.198 L
909.182 781.138 L
911.277 783.89 L
913.169 786.234 L
915.399 786.082 L
917.427 787.228 L
919.319 788.274 L
921.481 784.68 L
923.509 776.14 L
925.469 773.765 L
927.631 773.751 L
929.726 770.557 L
931.821 767.135 L
933.848 759.556 L
935.876 767.603 L
937.971 766.627 L
940.066 768.753 L
942.026 774.698 L
944.12 776.432 L
946.215 770.963 L
948.175 767.611 L
950.338 764.832 L
952.365 769.729 L
954.325 765.307 L
956.555 765.194 L
958.582 769.833 L
960.677 772.494 L
962.705 768.086 L
964.732 767.639 L
966.895 769.586 L
968.787 765.693 L
970.882 766.819 L
972.774 768.97 L
975.004 773.5 L
977.032 778.884 L
979.127 782.817 L
981.222 777.823 L
983.181 776.843 L
985.344 780.908 L
987.371 782.145 L
989.331 780.966 L
991.561 775.275 L
993.453 773.981 L
995.481 772.825 L
997.576 768.414 L
999.671 773.042 L
1001.63 774.947 L
1003.793 775.86 L
1005.888 768.794 L
1007.78 769.142 L
1010.01 771.628 L
1012.038 776.488 L
1014.133 777.294 L
1016.228 778.266 L
1018.12 778.184 L
1020.012 777.514 L
1022.242 777.6 L
1024.337 776.676 L
1026.229 774.055 L
1028.459 775.527 L
1030.487 778.684 L
1032.582 783.282 L
1034.677 782.743 L
1036.637 782.949 L
1038.799 790.744 L
1040.894 783.433 L
1042.786 783.665 L
1044.949 781.679 L
1046.976 780.518 L
1048.936 783.771 L
1051.099 784.911 L
1053.193 790.367 L
1055.288 790.41 L
1057.316 793.024 L
1059.343 789.075 L
1061.438 787.783 L
1063.466 790.114 L
1065.493 794.419 L
1067.385 798.628 L
1069.615 798.243 L
1071.575 799.205 L
1073.535 799.48 L
1075.765 804.384 L
1077.792 804.346 L
1079.955 808.832 L
1081.982 809.592 L
1083.942 809.197 L
1086.105 804.595 L
1088.2 804.477 L
1090.295 807.18 L
1092.187 800.101 L
1094.282 792.679 L
1096.241 790.397 L
1098.404 789.472 L
1100.431 786.637 L
1102.391 790.245 L
1104.621 789.609 L
1106.649 784.302 L
1108.744 782.44 L
1110.771 782.606 L
1112.798 783.718 L
1114.961 785.823 L
1116.853 789.684 L
1118.948 789.772 L
1120.84 792.075 L
1123.07 800.801 L
1125.098 802.114 L
1127.193 798.913 L
1129.288 801.056 L
1131.248 802.824 L
1133.41 804.642 L
1135.438 807.362 L
1137.397 809.745 L
1139.627 808.956 L
1141.587 802.824 L
1143.547 799.872 L
1145.709 796.504 L
1147.804 794.53 L
1149.697 796.53 L
1151.927 795.665 L
1153.954 793.552 L
1156.049 796.26 L
1158.144 800.41 L
1160.104 804.573 L
1162.266 800.05 L
1164.361 798.93 L
1166.254 798.173 L
1168.349 793.616 L
1170.376 796.112 L
1172.403 796.947 L
1174.498 798.496 L
1176.593 804.699 L
1178.553 800.362 L
1180.716 803.062 L
1182.811 806.563 L
1184.703 807.167 L
1186.933 808.443 L
1188.96 810.608 L
1190.852 809.164 L
1193.015 808.781 L
1195.042 808.355 L
1197.002 809.703 L
1199.165 811.593 L
1201.26 811.049 L
1203.355 816.275 L
1205.382 823.014 L
1207.409 820.32 L
1209.504 819.485 L
1211.599 818.648 L
1213.559 819.371 L
1215.451 811.524 L
1217.681 811.121 L
1219.709 810.933 L
1221.533 806.868 L
1223.831 804.985 L
1225.859 803.236 L
1228.021 802.014 L
1230.048 802.758 L
1232.008 801.995 L
1234.171 800.62 L
1236.266 797.329 L
1238.361 797.125 L
1240.321 798.592 L
1242.416 803.777 L
1244.308 801.786 L
1246.538 801.254 L
1248.565 803.868 L
1250.66 804.486 L
1252.755 806.998 L
1254.715 805.998 L
1256.877 807.139 L
1258.905 810.972 L
1260.865 814.09 L
1263.095 813.25 L
1264.987 815.315 L
1267.014 814.667 L
1269.109 810.048 L
1271.204 808.986 L
1273.164 809.021 L
1275.327 813.442 L
1277.422 815.108 L
1279.314 817.06 L
1281.544 821.027 L
1283.571 814.152 L
1285.666 810.36 L
1287.761 811.511 L
1289.653 813.1 L
1291.546 807.168 L
1293.776 811.134 L
1295.871 812.471 L
1297.763 814.499 L
1299.993 818.485 L
1302.02 823.534 L
1304.115 829.716 L
1306.21 825.962 L
1308.17 822.327 L
1310.333 827.625 L
1312.428 825.619 L
1314.32 829.728 L
1316.415 827.873 L
1318.442 827.443 L
1320.469 835.423 L
1322.564 832.985 L
1324.659 819.488 L
1326.619 819.932 L
1328.782 826.949 L
1330.877 822.404 L
1332.769 822.575 L
1334.999 823.404 L
1337.026 824.867 L
1338.919 826.776 L
1341.149 829.075 L
1343.176 820.284 L
1345.068 818.72 L
1347.298 819.707 L
1349.326 821.452 L
1351.488 826.195 L
1353.516 826.796 L
1355.476 827.833 L
1357.638 824.375 L
1359.733 826.469 L
1361.828 828.107 L
1363.72 825.51 L
1365.748 823.098 L
1367.775 827.932 L
1369.938 830.587 L
1371.965 831.546 L
1373.925 827.263 L
1376.155 830.405 L
1378.182 826.217 L
1380.277 823.32 L
1382.305 823.878 L
1384.332 825.758 L
1386.495 823.792 L
1388.387 823.454 L
1390.482 819.642 L
1392.374 817.122 L
1394.604 816.538 L
1396.631 816.538 L
1398.726 818.443 L
1400.821 821.104 L
1402.781 822.529 L
1404.944 822.977 L
1406.971 824.898 L
1408.931 821.813 L
1411.161 820.423 L
1413.053 823.446 L
1415.081 822.115 L
1417.176 822.558 L
1419.271 819.565 L
1421.23 817.533 L
1423.393 820.021 L
1425.488 822.915 L
1427.38 822.07 L
1429.61 823.414 L
1431.637 828.133 L
1433.732 827.293 L
1435.827 831.712 L
1437.787 832.213 L
1439.882 834.091 L
1441.91 830.245 L
1443.937 826.157 L
1446.032 827.745 L
1448.127 828.016 L
1450.087 829.952 L
1452.249 827.79 L
1454.344 819.925 L
1456.236 835.445 L
1458.466 845.139 L
1460.494 836.618 L
1462.386 835.036 L
1464.549 842.183 L
1466.576 836.105 L
1468.536 830.842 L
1470.698 830.058 L
1472.793 830.972 L
1474.888 832.104 L
1476.916 833.939 L
1478.943 833.089 L
1481.038 836.049 L
1483.133 828.194 L
1485.093 830.842 L
1486.985 831.02 L
1489.215 828.698 L
1491.242 830.98 L
1493.135 835.248 L
1495.365 840.176 L
1497.392 841.497 L
1499.555 848.026 L
1501.582 847.409 L
1503.542 846.415 L
1505.704 843.788 L
1507.799 836.083 L
1509.894 835.225 L
1511.786 834.788 L
1513.881 834.099 L
1515.841 836.293 L
1518.004 840.326 L
1520.031 838.454 L
1521.991 844.318 L
1524.221 852.301 L
1526.248 856.129 L
1528.343 853.021 L
1530.371 854.256 L
1532.398 857.175 L
1534.561 858.597 L
1536.521 856.514 L
1538.548 852.783 L
1540.643 856.964 L
1542.738 862.038 L
1544.698 860.915 L
1546.86 862.855 L
1548.955 862.229 L
1550.847 861.549 L
1553.077 860.41 L
1555.105 861.851 L
1557.2 859.697 L
1559.295 856.271 L
1561.187 858.036 L
1563.079 858.478 L
1565.309 860.714 L
1567.404 853.931 L
1569.297 847.939 L
1571.527 846.754 L
1573.554 843.785 L
1575.649 846.349 L
1577.744 847.427 L
1579.704 844.641 L
1581.866 840.014 L
1583.961 845.169 L
1585.853 845.313 L
1587.948 843.813 L
1589.976 844.753 L
1592.003 847.58 L
1594.098 846.896 L
1596.193 845.983 L
1598.153 849.053 L
1600.315 846.788 L
1602.41 848.905 L
1604.302 851.307 L
1606.533 851.565 L
1608.56 858.13 L
1610.452 853.786 L
1612.615 854.856 L
1614.642 853.516 L
1616.602 852.398 L
1618.765 849.313 L
1620.859 851.72 L
1622.954 851.587 L
1624.982 854.011 L
1627.009 852.347 L
1629.104 851.506 L
1631.199 850.661 L
1633.159 855.654 L
1635.254 857.968 L
1637.349 857.736 L
1639.309 857.186 L
1641.471 856.777 L
1643.499 861.658 L
1645.458 862.143 L
1647.688 860.434 L
1649.716 860.322 L
1651.811 857.233 L
1653.838 849.29 L
1655.865 848.295 L
1658.028 848.695 L
1659.92 849.828 L
1662.015 849.237 L
1663.907 851.037 L
1666.138 852.125 L
1668.165 850.995 L
1670.26 851.225 L
1672.355 853.732 L
1674.315 851.041 L
1676.477 850.593 L
1678.505 850.007 L
1680.464 850.157 L
1682.694 846.297 L
1684.587 844.176 L
1686.547 846.225 L
1688.709 843.722 L
1690.804 845.095 L
1692.764 845.061 L
1694.926 844.009 L
S
GR
GS
[0.6 0 0 0.6 0 0] CT
1 GC
N
390 869 M
390 787 L
262 787 L
262 869 L
cp
f
GR
GS
[0.6 0 0 0.6 192.51897 485.15925] CT
/Helvetica 30 F
GS
[1 0 0 1 0 0] CT
0 12 moveto 
1 -1 scale
(Obs.) t 
GR
GR
GS
[0.6 0 0 0.6 0 0] CT
0 0.447 0.741 RC
1 LJ
3.333 LW
N
267.01 808.599 M
317.108 808.599 L
S
GR
GS
[0.6 0 0 0.6 192.51897 508.44075] CT
/Helvetica 30 F
GS
[1 0 0 1 0 0] CT
0 12 moveto 
1 -1 scale
(Fit) t 
GR
GR
GS
[0.6 0 0 0.6 0 0] CT
0.851 0.325 0.098 RC
1 LJ
3.333 LW
N
267.01 847.401 M
317.108 847.401 L
S
GR
GS
[0.6 0 0 0.6 0 0] CT
0.149 GC
10.0 ML
0.833 LW
N
262 869 M
262 787 L
390 787 L
390 869 L
cp
S
GR
%%Trailer
%%Pages: 1
%%EOF
