%!PS-Adobe-3.0 EPSF-3.0
%%Creator: (MATLAB, The Mathworks, Inc. Version 9.8.0.1359463 \(R2020a\) Update 1. Operating System: Windows 10)
%%Title: ./Yslices.eps
%%CreationDate: 2021-03-15T21:54:36
%%Pages: (atend)
%%BoundingBox:   138    28  1322   713
%%LanguageLevel: 3
%%EndComments
%%BeginProlog
%%BeginResource: procset (Apache XML Graphics Std ProcSet) 1.2 0
%%Version: 1.2 0
%%Copyright: (Copyright 2001-2003,2010 The Apache Software Foundation. License terms: http://www.apache.org/licenses/LICENSE-2.0)
/bd{bind def}bind def
/ld{load def}bd
/GR/grestore ld
/GS/gsave ld
/RM/rmoveto ld
/C/curveto ld
/t/show ld
/L/lineto ld
/ML/setmiterlimit ld
/CT/concat ld
/f/fill ld
/N/newpath ld
/S/stroke ld
/CC/setcmykcolor ld
/A/ashow ld
/cp/closepath ld
/RC/setrgbcolor ld
/LJ/setlinejoin ld
/GC/setgray ld
/LW/setlinewidth ld
/M/moveto ld
/re {4 2 roll M
1 index 0 rlineto
0 exch rlineto
neg 0 rlineto
cp } bd
/_ctm matrix def
/_tm matrix def
/BT { _ctm currentmatrix pop matrix _tm copy pop 0 0 moveto } bd
/ET { _ctm setmatrix } bd
/iTm { _ctm setmatrix _tm concat } bd
/Tm { _tm astore pop iTm 0 0 moveto } bd
/ux 0.0 def
/uy 0.0 def
/F {
  /Tp exch def
  /Tf exch def
  Tf findfont Tp scalefont setfont
  /cf Tf def  /cs Tp def
} bd
/ULS {currentpoint /uy exch def /ux exch def} bd
/ULE {
  /Tcx currentpoint pop def
  gsave
  newpath
  cf findfont cs scalefont dup
  /FontMatrix get 0 get /Ts exch def /FontInfo get dup
  /UnderlinePosition get Ts mul /To exch def
  /UnderlineThickness get Ts mul /Tt exch def
  ux uy To add moveto  Tcx uy To add lineto
  Tt setlinewidth stroke
  grestore
} bd
/OLE {
  /Tcx currentpoint pop def
  gsave
  newpath
  cf findfont cs scalefont dup
  /FontMatrix get 0 get /Ts exch def /FontInfo get dup
  /UnderlinePosition get Ts mul /To exch def
  /UnderlineThickness get Ts mul /Tt exch def
  ux uy To add cs add moveto Tcx uy To add cs add lineto
  Tt setlinewidth stroke
  grestore
} bd
/SOE {
  /Tcx currentpoint pop def
  gsave
  newpath
  cf findfont cs scalefont dup
  /FontMatrix get 0 get /Ts exch def /FontInfo get dup
  /UnderlinePosition get Ts mul /To exch def
  /UnderlineThickness get Ts mul /Tt exch def
  ux uy To add cs 10 mul 26 idiv add moveto Tcx uy To add cs 10 mul 26 idiv add lineto
  Tt setlinewidth stroke
  grestore
} bd
/QT {
/Y22 exch store
/X22 exch store
/Y21 exch store
/X21 exch store
currentpoint
/Y21 load 2 mul add 3 div exch
/X21 load 2 mul add 3 div exch
/X21 load 2 mul /X22 load add 3 div
/Y21 load 2 mul /Y22 load add 3 div
/X22 load /Y22 load curveto
} bd
/SSPD {
dup length /d exch dict def
{
/v exch def
/k exch def
currentpagedevice k known {
/cpdv currentpagedevice k get def
v cpdv ne {
/upd false def
/nullv v type /nulltype eq def
/nullcpdv cpdv type /nulltype eq def
nullv nullcpdv or
{
/upd true def
} {
/sametype v type cpdv type eq def
sametype {
v type /arraytype eq {
/vlen v length def
/cpdvlen cpdv length def
vlen cpdvlen eq {
0 1 vlen 1 sub {
/i exch def
/obj v i get def
/cpdobj cpdv i get def
obj cpdobj ne {
/upd true def
exit
} if
} for
} {
/upd true def
} ifelse
} {
v type /dicttype eq {
v {
/dv exch def
/dk exch def
/cpddv cpdv dk get def
dv cpddv ne {
/upd true def
exit
} if
} forall
} {
/upd true def
} ifelse
} ifelse
} if
} ifelse
upd true eq {
d k v put
} if
} if
} if
} forall
d length 0 gt {
d setpagedevice
} if
} bd
/RE { % /NewFontName [NewEncodingArray] /FontName RE -
  findfont dup length dict begin
  {
    1 index /FID ne
    {def} {pop pop} ifelse
  } forall
  /Encoding exch def
  /FontName 1 index def
  currentdict definefont pop
  end
} bind def
%%EndResource
%%BeginResource: procset (Apache XML Graphics EPS ProcSet) 1.0 0
%%Version: 1.0 0
%%Copyright: (Copyright 2002-2003 The Apache Software Foundation. License terms: http://www.apache.org/licenses/LICENSE-2.0)
/BeginEPSF { %def
/b4_Inc_state save def         % Save state for cleanup
/dict_count countdictstack def % Count objects on dict stack
/op_count count 1 sub def      % Count objects on operand stack
userdict begin                 % Push userdict on dict stack
/showpage { } def              % Redefine showpage, { } = null proc
0 setgray 0 setlinecap         % Prepare graphics state
1 setlinewidth 0 setlinejoin
10 setmiterlimit [ ] 0 setdash newpath
/languagelevel where           % If level not equal to 1 then
{pop languagelevel             % set strokeadjust and
1 ne                           % overprint to their defaults.
{false setstrokeadjust false setoverprint
} if
} if
} bd
/EndEPSF { %def
count op_count sub {pop} repeat            % Clean up stacks
countdictstack dict_count sub {end} repeat
b4_Inc_state restore
} bd
%%EndResource
%FOPBeginFontDict
%%IncludeResource: font Courier-Oblique
%%IncludeResource: font Courier-BoldOblique
%%IncludeResource: font Courier-Bold
%%IncludeResource: font ZapfDingbats
%%IncludeResource: font Symbol
%%IncludeResource: font Helvetica
%%IncludeResource: font Helvetica-Oblique
%%IncludeResource: font Helvetica-Bold
%%IncludeResource: font Helvetica-BoldOblique
%%IncludeResource: font Times-Roman
%%IncludeResource: font Times-Italic
%%IncludeResource: font Times-Bold
%%IncludeResource: font Times-BoldItalic
%%IncludeResource: font Courier
%FOPEndFontDict
%%BeginResource: encoding WinAnsiEncoding
/WinAnsiEncoding [
/.notdef /.notdef /.notdef /.notdef /.notdef
/.notdef /.notdef /.notdef /.notdef /.notdef
/.notdef /.notdef /.notdef /.notdef /.notdef
/.notdef /.notdef /.notdef /.notdef /.notdef
/.notdef /.notdef /.notdef /.notdef /.notdef
/.notdef /.notdef /.notdef /.notdef /.notdef
/.notdef /.notdef /space /exclam /quotedbl
/numbersign /dollar /percent /ampersand /quotesingle
/parenleft /parenright /asterisk /plus /comma
/hyphen /period /slash /zero /one
/two /three /four /five /six
/seven /eight /nine /colon /semicolon
/less /equal /greater /question /at
/A /B /C /D /E
/F /G /H /I /J
/K /L /M /N /O
/P /Q /R /S /T
/U /V /W /X /Y
/Z /bracketleft /backslash /bracketright /asciicircum
/underscore /quoteleft /a /b /c
/d /e /f /g /h
/i /j /k /l /m
/n /o /p /q /r
/s /t /u /v /w
/x /y /z /braceleft /bar
/braceright /asciitilde /bullet /Euro /bullet
/quotesinglbase /florin /quotedblbase /ellipsis /dagger
/daggerdbl /circumflex /perthousand /Scaron /guilsinglleft
/OE /bullet /Zcaron /bullet /bullet
/quoteleft /quoteright /quotedblleft /quotedblright /bullet
/endash /emdash /asciitilde /trademark /scaron
/guilsinglright /oe /bullet /zcaron /Ydieresis
/space /exclamdown /cent /sterling /currency
/yen /brokenbar /section /dieresis /copyright
/ordfeminine /guillemotleft /logicalnot /sfthyphen /registered
/macron /degree /plusminus /twosuperior /threesuperior
/acute /mu /paragraph /middot /cedilla
/onesuperior /ordmasculine /guillemotright /onequarter /onehalf
/threequarters /questiondown /Agrave /Aacute /Acircumflex
/Atilde /Adieresis /Aring /AE /Ccedilla
/Egrave /Eacute /Ecircumflex /Edieresis /Igrave
/Iacute /Icircumflex /Idieresis /Eth /Ntilde
/Ograve /Oacute /Ocircumflex /Otilde /Odieresis
/multiply /Oslash /Ugrave /Uacute /Ucircumflex
/Udieresis /Yacute /Thorn /germandbls /agrave
/aacute /acircumflex /atilde /adieresis /aring
/ae /ccedilla /egrave /eacute /ecircumflex
/edieresis /igrave /iacute /icircumflex /idieresis
/eth /ntilde /ograve /oacute /ocircumflex
/otilde /odieresis /divide /oslash /ugrave
/uacute /ucircumflex /udieresis /yacute /thorn
/ydieresis
] def
%%EndResource
%FOPBeginFontReencode
/Courier-Oblique findfont
dup length dict begin
  {1 index /FID ne {def} {pop pop} ifelse} forall
  /Encoding WinAnsiEncoding def
  currentdict
end
/Courier-Oblique exch definefont pop
/Courier-BoldOblique findfont
dup length dict begin
  {1 index /FID ne {def} {pop pop} ifelse} forall
  /Encoding WinAnsiEncoding def
  currentdict
end
/Courier-BoldOblique exch definefont pop
/Courier-Bold findfont
dup length dict begin
  {1 index /FID ne {def} {pop pop} ifelse} forall
  /Encoding WinAnsiEncoding def
  currentdict
end
/Courier-Bold exch definefont pop
/Helvetica findfont
dup length dict begin
  {1 index /FID ne {def} {pop pop} ifelse} forall
  /Encoding WinAnsiEncoding def
  currentdict
end
/Helvetica exch definefont pop
/Helvetica-Oblique findfont
dup length dict begin
  {1 index /FID ne {def} {pop pop} ifelse} forall
  /Encoding WinAnsiEncoding def
  currentdict
end
/Helvetica-Oblique exch definefont pop
/Helvetica-Bold findfont
dup length dict begin
  {1 index /FID ne {def} {pop pop} ifelse} forall
  /Encoding WinAnsiEncoding def
  currentdict
end
/Helvetica-Bold exch definefont pop
/Helvetica-BoldOblique findfont
dup length dict begin
  {1 index /FID ne {def} {pop pop} ifelse} forall
  /Encoding WinAnsiEncoding def
  currentdict
end
/Helvetica-BoldOblique exch definefont pop
/Times-Roman findfont
dup length dict begin
  {1 index /FID ne {def} {pop pop} ifelse} forall
  /Encoding WinAnsiEncoding def
  currentdict
end
/Times-Roman exch definefont pop
/Times-Italic findfont
dup length dict begin
  {1 index /FID ne {def} {pop pop} ifelse} forall
  /Encoding WinAnsiEncoding def
  currentdict
end
/Times-Italic exch definefont pop
/Times-Bold findfont
dup length dict begin
  {1 index /FID ne {def} {pop pop} ifelse} forall
  /Encoding WinAnsiEncoding def
  currentdict
end
/Times-Bold exch definefont pop
/Times-BoldItalic findfont
dup length dict begin
  {1 index /FID ne {def} {pop pop} ifelse} forall
  /Encoding WinAnsiEncoding def
  currentdict
end
/Times-BoldItalic exch definefont pop
/Courier findfont
dup length dict begin
  {1 index /FID ne {def} {pop pop} ifelse} forall
  /Encoding WinAnsiEncoding def
  currentdict
end
/Courier exch definefont pop
%FOPEndFontReencode
%%EndProlog
%%Page: 1 1
%%PageBoundingBox: 0 0 1430 748
%%BeginPageSetup
[1 0 0 -1 0 748] CT
%%EndPageSetup
GS
[0.375 0 0 0.375 0 0.25] CT
N
0 0 M
3814 0 L
3814 1994 L
0 1994 L
0 0 L
cp
clip
1 GC
N
0 0 3814 1994 re
f
GR
GS
[0.375 0 0 0.375 0 0.25] CT
1 GC
N
0 0 3814 1994 re
f
GR
GS
[0.375 0 0 0.375 0 0.25] CT
1 GC
N
496 830 M
3452 830 L
3452 150 L
496 150 L
cp
f
GR
GS
[0.375 0 0 0.375 0 0.25] CT
0.149 GC
2 setlinecap
1 LJ
1.333 LW
N
496 830 M
3452 830 L
S
GR
GS
[0.375 0 0 0.375 0 0.25] CT
0.149 GC
2 setlinecap
1 LJ
1.333 LW
N
496 150 M
3452 150 L
S
GR
GS
[0.375 0 0 0.375 0 0.25] CT
0.149 GC
2 setlinecap
1 LJ
1.333 LW
N
496 830 M
496 800.44 L
S
GR
GS
[0.375 0 0 0.375 0 0.25] CT
0.149 GC
2 setlinecap
1 LJ
1.333 LW
N
619.217 830 M
619.217 800.44 L
S
GR
GS
[0.375 0 0 0.375 0 0.25] CT
0.149 GC
2 setlinecap
1 LJ
1.333 LW
N
742.435 830 M
742.435 800.44 L
S
GR
GS
[0.375 0 0 0.375 0 0.25] CT
0.149 GC
2 setlinecap
1 LJ
1.333 LW
N
865.517 830 M
865.517 800.44 L
S
GR
GS
[0.375 0 0 0.375 0 0.25] CT
0.149 GC
2 setlinecap
1 LJ
1.333 LW
N
988.734 830 M
988.734 800.44 L
S
GR
GS
[0.375 0 0 0.375 0 0.25] CT
0.149 GC
2 setlinecap
1 LJ
1.333 LW
N
1111.951 830 M
1111.951 800.44 L
S
GR
GS
[0.375 0 0 0.375 0 0.25] CT
0.149 GC
2 setlinecap
1 LJ
1.333 LW
N
1235.034 830 M
1235.034 800.44 L
S
GR
GS
[0.375 0 0 0.375 0 0.25] CT
0.149 GC
2 setlinecap
1 LJ
1.333 LW
N
1358.251 830 M
1358.251 800.44 L
S
GR
GS
[0.375 0 0 0.375 0 0.25] CT
0.149 GC
2 setlinecap
1 LJ
1.333 LW
N
1481.333 830 M
1481.333 800.44 L
S
GR
GS
[0.375 0 0 0.375 0 0.25] CT
0.149 GC
2 setlinecap
1 LJ
1.333 LW
N
1604.551 830 M
1604.551 800.44 L
S
GR
GS
[0.375 0 0 0.375 0 0.25] CT
0.149 GC
2 setlinecap
1 LJ
1.333 LW
N
1727.768 830 M
1727.768 800.44 L
S
GR
GS
[0.375 0 0 0.375 0 0.25] CT
0.149 GC
2 setlinecap
1 LJ
1.333 LW
N
1850.85 830 M
1850.85 800.44 L
S
GR
GS
[0.375 0 0 0.375 0 0.25] CT
0.149 GC
2 setlinecap
1 LJ
1.333 LW
N
1974.067 830 M
1974.067 800.44 L
S
GR
GS
[0.375 0 0 0.375 0 0.25] CT
0.149 GC
2 setlinecap
1 LJ
1.333 LW
N
2097.285 830 M
2097.285 800.44 L
S
GR
GS
[0.375 0 0 0.375 0 0.25] CT
0.149 GC
2 setlinecap
1 LJ
1.333 LW
N
2220.367 830 M
2220.367 800.44 L
S
GR
GS
[0.375 0 0 0.375 0 0.25] CT
0.149 GC
2 setlinecap
1 LJ
1.333 LW
N
2343.584 830 M
2343.584 800.44 L
S
GR
GS
[0.375 0 0 0.375 0 0.25] CT
0.149 GC
2 setlinecap
1 LJ
1.333 LW
N
2466.667 830 M
2466.667 800.44 L
S
GR
GS
[0.375 0 0 0.375 0 0.25] CT
0.149 GC
2 setlinecap
1 LJ
1.333 LW
N
2589.884 830 M
2589.884 800.44 L
S
GR
GS
[0.375 0 0 0.375 0 0.25] CT
0.149 GC
2 setlinecap
1 LJ
1.333 LW
N
2713.101 830 M
2713.101 800.44 L
S
GR
GS
[0.375 0 0 0.375 0 0.25] CT
0.149 GC
2 setlinecap
1 LJ
1.333 LW
N
2836.184 830 M
2836.184 800.44 L
S
GR
GS
[0.375 0 0 0.375 0 0.25] CT
0.149 GC
2 setlinecap
1 LJ
1.333 LW
N
2959.401 830 M
2959.401 800.44 L
S
GR
GS
[0.375 0 0 0.375 0 0.25] CT
0.149 GC
2 setlinecap
1 LJ
1.333 LW
N
3082.618 830 M
3082.618 800.44 L
S
GR
GS
[0.375 0 0 0.375 0 0.25] CT
0.149 GC
2 setlinecap
1 LJ
1.333 LW
N
3205.7 830 M
3205.7 800.44 L
S
GR
GS
[0.375 0 0 0.375 0 0.25] CT
0.149 GC
2 setlinecap
1 LJ
1.333 LW
N
3328.918 830 M
3328.918 800.44 L
S
GR
GS
[0.375 0 0 0.375 0 0.25] CT
0.149 GC
2 setlinecap
1 LJ
1.333 LW
N
3452 830 M
3452 800.44 L
S
GR
GS
[0.375 0 0 0.375 0 0.25] CT
0.149 GC
2 setlinecap
1 LJ
1.333 LW
N
496 150 M
496 179.56 L
S
GR
GS
[0.375 0 0 0.375 0 0.25] CT
0.149 GC
2 setlinecap
1 LJ
1.333 LW
N
619.217 150 M
619.217 179.56 L
S
GR
GS
[0.375 0 0 0.375 0 0.25] CT
0.149 GC
2 setlinecap
1 LJ
1.333 LW
N
742.435 150 M
742.435 179.56 L
S
GR
GS
[0.375 0 0 0.375 0 0.25] CT
0.149 GC
2 setlinecap
1 LJ
1.333 LW
N
865.517 150 M
865.517 179.56 L
S
GR
GS
[0.375 0 0 0.375 0 0.25] CT
0.149 GC
2 setlinecap
1 LJ
1.333 LW
N
988.734 150 M
988.734 179.56 L
S
GR
GS
[0.375 0 0 0.375 0 0.25] CT
0.149 GC
2 setlinecap
1 LJ
1.333 LW
N
1111.951 150 M
1111.951 179.56 L
S
GR
GS
[0.375 0 0 0.375 0 0.25] CT
0.149 GC
2 setlinecap
1 LJ
1.333 LW
N
1235.034 150 M
1235.034 179.56 L
S
GR
GS
[0.375 0 0 0.375 0 0.25] CT
0.149 GC
2 setlinecap
1 LJ
1.333 LW
N
1358.251 150 M
1358.251 179.56 L
S
GR
GS
[0.375 0 0 0.375 0 0.25] CT
0.149 GC
2 setlinecap
1 LJ
1.333 LW
N
1481.333 150 M
1481.333 179.56 L
S
GR
GS
[0.375 0 0 0.375 0 0.25] CT
0.149 GC
2 setlinecap
1 LJ
1.333 LW
N
1604.551 150 M
1604.551 179.56 L
S
GR
GS
[0.375 0 0 0.375 0 0.25] CT
0.149 GC
2 setlinecap
1 LJ
1.333 LW
N
1727.768 150 M
1727.768 179.56 L
S
GR
GS
[0.375 0 0 0.375 0 0.25] CT
0.149 GC
2 setlinecap
1 LJ
1.333 LW
N
1850.85 150 M
1850.85 179.56 L
S
GR
GS
[0.375 0 0 0.375 0 0.25] CT
0.149 GC
2 setlinecap
1 LJ
1.333 LW
N
1974.067 150 M
1974.067 179.56 L
S
GR
GS
[0.375 0 0 0.375 0 0.25] CT
0.149 GC
2 setlinecap
1 LJ
1.333 LW
N
2097.285 150 M
2097.285 179.56 L
S
GR
GS
[0.375 0 0 0.375 0 0.25] CT
0.149 GC
2 setlinecap
1 LJ
1.333 LW
N
2220.367 150 M
2220.367 179.56 L
S
GR
GS
[0.375 0 0 0.375 0 0.25] CT
0.149 GC
2 setlinecap
1 LJ
1.333 LW
N
2343.584 150 M
2343.584 179.56 L
S
GR
GS
[0.375 0 0 0.375 0 0.25] CT
0.149 GC
2 setlinecap
1 LJ
1.333 LW
N
2466.667 150 M
2466.667 179.56 L
S
GR
GS
[0.375 0 0 0.375 0 0.25] CT
0.149 GC
2 setlinecap
1 LJ
1.333 LW
N
2589.884 150 M
2589.884 179.56 L
S
GR
GS
[0.375 0 0 0.375 0 0.25] CT
0.149 GC
2 setlinecap
1 LJ
1.333 LW
N
2713.101 150 M
2713.101 179.56 L
S
GR
GS
[0.375 0 0 0.375 0 0.25] CT
0.149 GC
2 setlinecap
1 LJ
1.333 LW
N
2836.184 150 M
2836.184 179.56 L
S
GR
GS
[0.375 0 0 0.375 0 0.25] CT
0.149 GC
2 setlinecap
1 LJ
1.333 LW
N
2959.401 150 M
2959.401 179.56 L
S
GR
GS
[0.375 0 0 0.375 0 0.25] CT
0.149 GC
2 setlinecap
1 LJ
1.333 LW
N
3082.618 150 M
3082.618 179.56 L
S
GR
GS
[0.375 0 0 0.375 0 0.25] CT
0.149 GC
2 setlinecap
1 LJ
1.333 LW
N
3205.7 150 M
3205.7 179.56 L
S
GR
GS
[0.375 0 0 0.375 0 0.25] CT
0.149 GC
2 setlinecap
1 LJ
1.333 LW
N
3328.918 150 M
3328.918 179.56 L
S
GR
GS
[0.375 0 0 0.375 0 0.25] CT
0.149 GC
2 setlinecap
1 LJ
1.333 LW
N
3452 150 M
3452 179.56 L
S
GR
GS
[0.375 0 0 0.375 186 317.10001] CT
0.149 GC
/Helvetica 48 F
GS
[1 0 0 1 0 0] CT
-73.5 49 moveto 
1 -1 scale
(Jan-60) t 
GR
GR
GS
[0.375 0 0 0.375 232.20646 317.10001] CT
0.149 GC
/Helvetica 48 F
GS
[1 0 0 1 0 0] CT
-65.5 49 moveto 
1 -1 scale
(Jul-62) t 
GR
GR
GS
[0.375 0 0 0.375 278.41294 317.10001] CT
0.149 GC
/Helvetica 48 F
GS
[1 0 0 1 0 0] CT
-73.5 49 moveto 
1 -1 scale
(Jan-65) t 
GR
GR
GS
[0.375 0 0 0.375 324.56882 317.10001] CT
0.149 GC
/Helvetica 48 F
GS
[1 0 0 1 0 0] CT
-65.5 49 moveto 
1 -1 scale
(Jul-67) t 
GR
GR
GS
[0.375 0 0 0.375 370.7753 317.10001] CT
0.149 GC
/Helvetica 48 F
GS
[1 0 0 1 0 0] CT
-73.5 49 moveto 
1 -1 scale
(Jan-70) t 
GR
GR
GS
[0.375 0 0 0.375 416.98178 317.10001] CT
0.149 GC
/Helvetica 48 F
GS
[1 0 0 1 0 0] CT
-65.5 49 moveto 
1 -1 scale
(Jul-72) t 
GR
GR
GS
[0.375 0 0 0.375 463.13763 317.10001] CT
0.149 GC
/Helvetica 48 F
GS
[1 0 0 1 0 0] CT
-73.5 49 moveto 
1 -1 scale
(Jan-75) t 
GR
GR
GS
[0.375 0 0 0.375 509.34412 317.10001] CT
0.149 GC
/Helvetica 48 F
GS
[1 0 0 1 0 0] CT
-65.5 49 moveto 
1 -1 scale
(Jul-77) t 
GR
GR
GS
[0.375 0 0 0.375 555.50002 317.10001] CT
0.149 GC
/Helvetica 48 F
GS
[1 0 0 1 0 0] CT
-73.5 49 moveto 
1 -1 scale
(Jan-80) t 
GR
GR
GS
[0.375 0 0 0.375 601.70645 317.10001] CT
0.149 GC
/Helvetica 48 F
GS
[1 0 0 1 0 0] CT
-65.5 49 moveto 
1 -1 scale
(Jul-82) t 
GR
GR
GS
[0.375 0 0 0.375 647.91293 317.10001] CT
0.149 GC
/Helvetica 48 F
GS
[1 0 0 1 0 0] CT
-73.5 49 moveto 
1 -1 scale
(Jan-85) t 
GR
GR
GS
[0.375 0 0 0.375 694.06883 317.10001] CT
0.149 GC
/Helvetica 48 F
GS
[1 0 0 1 0 0] CT
-65.5 49 moveto 
1 -1 scale
(Jul-87) t 
GR
GR
GS
[0.375 0 0 0.375 740.27527 317.10001] CT
0.149 GC
/Helvetica 48 F
GS
[1 0 0 1 0 0] CT
-73.5 49 moveto 
1 -1 scale
(Jan-90) t 
GR
GR
GS
[0.375 0 0 0.375 786.48175 317.10001] CT
0.149 GC
/Helvetica 48 F
GS
[1 0 0 1 0 0] CT
-65.5 49 moveto 
1 -1 scale
(Jul-92) t 
GR
GR
GS
[0.375 0 0 0.375 832.6376 317.10001] CT
0.149 GC
/Helvetica 48 F
GS
[1 0 0 1 0 0] CT
-73.5 49 moveto 
1 -1 scale
(Jan-95) t 
GR
GR
GS
[0.375 0 0 0.375 878.84409 317.10001] CT
0.149 GC
/Helvetica 48 F
GS
[1 0 0 1 0 0] CT
-65.5 49 moveto 
1 -1 scale
(Jul-97) t 
GR
GR
GS
[0.375 0 0 0.375 925.00003 317.10001] CT
0.149 GC
/Helvetica 48 F
GS
[1 0 0 1 0 0] CT
-73.5 49 moveto 
1 -1 scale
(Jan-00) t 
GR
GR
GS
[0.375 0 0 0.375 971.20651 317.10001] CT
0.149 GC
/Helvetica 48 F
GS
[1 0 0 1 0 0] CT
-65.5 49 moveto 
1 -1 scale
(Jul-02) t 
GR
GR
GS
[0.375 0 0 0.375 1017.4129 317.10001] CT
0.149 GC
/Helvetica 48 F
GS
[1 0 0 1 0 0] CT
-73.5 49 moveto 
1 -1 scale
(Jan-05) t 
GR
GR
GS
[0.375 0 0 0.375 1063.56885 317.10001] CT
0.149 GC
/Helvetica 48 F
GS
[1 0 0 1 0 0] CT
-65.5 49 moveto 
1 -1 scale
(Jul-07) t 
GR
GR
GS
[0.375 0 0 0.375 1109.77533 317.10001] CT
0.149 GC
/Helvetica 48 F
GS
[1 0 0 1 0 0] CT
-73.5 49 moveto 
1 -1 scale
(Jan-10) t 
GR
GR
GS
[0.375 0 0 0.375 1155.98172 317.10001] CT
0.149 GC
/Helvetica 48 F
GS
[1 0 0 1 0 0] CT
-65.5 49 moveto 
1 -1 scale
(Jul-12) t 
GR
GR
GS
[0.375 0 0 0.375 1202.13766 317.10001] CT
0.149 GC
/Helvetica 48 F
GS
[1 0 0 1 0 0] CT
-73.5 49 moveto 
1 -1 scale
(Jan-15) t 
GR
GR
GS
[0.375 0 0 0.375 1248.34415 317.10001] CT
0.149 GC
/Helvetica 48 F
GS
[1 0 0 1 0 0] CT
-65.5 49 moveto 
1 -1 scale
(Jul-17) t 
GR
GR
GS
[0.375 0 0 0.375 1294.5 317.10001] CT
0.149 GC
/Helvetica 48 F
GS
[1 0 0 1 0 0] CT
-73.5 49 moveto 
1 -1 scale
(Jan-20) t 
GR
GR
GS
[0.375 0 0 0.375 0 0.25] CT
0.149 GC
2 setlinecap
1 LJ
1.333 LW
N
496 830 M
496 150 L
S
GR
GS
[0.375 0 0 0.375 0 0.25] CT
0.149 GC
2 setlinecap
1 LJ
1.333 LW
N
3452 830 M
3452 150 L
S
GR
GS
[0.375 0 0 0.375 0 0.25] CT
0.149 GC
2 setlinecap
1 LJ
1.333 LW
N
496 830 M
525.557 830 L
S
GR
GS
[0.375 0 0 0.375 0 0.25] CT
0.149 GC
2 setlinecap
1 LJ
1.333 LW
N
496 603.333 M
525.557 603.333 L
S
GR
GS
[0.375 0 0 0.375 0 0.25] CT
0.149 GC
2 setlinecap
1 LJ
1.333 LW
N
496 376.667 M
525.557 376.667 L
S
GR
GS
[0.375 0 0 0.375 0 0.25] CT
0.149 GC
2 setlinecap
1 LJ
1.333 LW
N
496 150 M
525.557 150 L
S
GR
GS
[0.375 0 0 0.375 0 0.25] CT
0.149 GC
2 setlinecap
1 LJ
1.333 LW
N
3452 830 M
3422.443 830 L
S
GR
GS
[0.375 0 0 0.375 0 0.25] CT
0.149 GC
2 setlinecap
1 LJ
1.333 LW
N
3452 603.333 M
3422.443 603.333 L
S
GR
GS
[0.375 0 0 0.375 0 0.25] CT
0.149 GC
2 setlinecap
1 LJ
1.333 LW
N
3452 376.667 M
3422.443 376.667 L
S
GR
GS
[0.375 0 0 0.375 0 0.25] CT
0.149 GC
2 setlinecap
1 LJ
1.333 LW
N
3452 150 M
3422.443 150 L
S
GR
GS
[0.375 0 0 0.375 180.40123 311.5] CT
0.149 GC
/Helvetica 48 F
GS
[1 0 0 1 0 0] CT
-27 19 moveto 
1 -1 scale
(0) t 
GR
GR
GS
[0.375 0 0 0.375 180.40123 226.49999] CT
0.149 GC
/Helvetica 48 F
GS
[1 0 0 1 0 0] CT
-27 19 moveto 
1 -1 scale
(5) t 
GR
GR
GS
[0.375 0 0 0.375 180.40123 141.5] CT
0.149 GC
/Helvetica 48 F
GS
[1 0 0 1 0 0] CT
-54 19 moveto 
1 -1 scale
(10) t 
GR
GR
GS
[0.375 0 0 0.375 180.40123 56.5] CT
0.149 GC
/Helvetica 48 F
GS
[1 0 0 1 0 0] CT
-54 19 moveto 
1 -1 scale
(15) t 
GR
GR
GS
[0 -0.375 0.375 0 157.14941 183.99987] CT
0.149 GC
/Helvetica 52.8 F
GS
[1 0 0 1 0 0] CT
-119 -12 moveto 
1 -1 scale
(Yield \(pct\)) t 
GR
GR
GS
[0.375 0 0 0.375 740.25 54.64376] CT
/Helvetica-Bold 52.8 F
GS
[1 0 0 1 0 0] CT
-158.5 -12 moveto 
1 -1 scale
(10 year yield) t 
GR
GR
GS
[0.375 0 0 0.375 0 0.25] CT
0 0.447 0.741 RC
1 LJ
5.333 LW
N
569.647 654.539 M
573.828 647.574 L
578.01 645.883 L
581.922 653.092 L
586.238 651.854 L
590.284 654.959 L
594.196 657.705 L
598.647 647.456 L
602.424 654.467 L
606.471 655.241 L
610.652 660.857 L
614.833 653.566 L
618.745 650.347 L
623.061 647.916 L
627.243 649.432 L
631.02 649.452 L
635.471 650.278 L
639.517 651.873 L
643.699 653.858 L
647.88 654.822 L
651.657 650.991 L
655.569 649.405 L
659.885 651.784 L
664.066 651.193 L
667.843 648.944 L
672.294 650.941 L
676.341 647.673 L
680.522 646.405 L
684.704 643.565 L
688.615 647.483 L
692.932 645.185 L
697.113 644.134 L
700.89 643.466 L
705.206 639.931 L
709.253 640.178 L
713.03 643.411 L
717.481 645.361 L
721.662 639.147 L
725.844 640.049 L
729.89 643.967 L
733.937 643.982 L
738.118 643.345 L
742.3 642.717 L
746.211 637.968 L
749.988 638.259 L
754.439 640.749 L
758.486 642.249 L
762.263 641.945 L
766.714 641.65 L
770.76 640.616 L
775.077 639.064 L
779.123 631.505 L
783.035 631.159 L
787.216 629.929 L
791.533 613.945 L
795.714 610.789 L
799.491 601.839 L
803.672 613.349 L
807.584 611.715 L
811.9 608.35 L
815.947 601.432 L
819.858 593.798 L
824.31 574.96 L
828.356 590.924 L
832.538 596.822 L
836.584 592.923 L
840.631 616.287 L
844.947 621.702 L
848.724 617.071 L
852.905 629.743 L
856.682 614.327 L
861.133 614.398 L
865.18 593.947 L
869.361 602.808 L
873.542 591.579 L
877.454 590.826 L
881.77 574.469 L
885.817 571.193 L
889.729 570.181 L
894.18 579.947 L
898.092 578.446 L
902.003 571.182 L
906.32 564.517 L
910.501 568.266 L
914.278 558.235 L
918.729 560.684 L
922.775 581.17 L
926.957 580.606 L
931.138 574.616 L
935.05 571.674 L
939.366 550.314 L
943.548 553.733 L
947.324 553.29 L
951.101 545.065 L
955.552 551.371 L
959.464 539.906 L
963.78 533.513 L
967.962 544.103 L
971.874 529.423 L
976.19 498.683 L
980.371 536.407 L
984.148 508.29 L
988.599 511.753 L
992.646 487.029 L
996.423 528.742 L
1000.739 514.51 L
1004.785 479.55 L
1008.697 491.347 L
1013.013 487.852 L
1017.195 494.692 L
1021.376 495.163 L
1025.423 502.178 L
1029.469 511.516 L
1033.651 532.002 L
1037.832 548.098 L
1041.744 537.13 L
1045.521 551.034 L
1049.972 568.044 L
1054.018 544.281 L
1057.795 536.007 L
1062.246 518.729 L
1066.293 513.28 L
1070.609 549.26 L
1074.656 553.342 L
1078.567 560.306 L
1082.884 554.235 L
1087.065 559.465 L
1091.247 551.06 L
1095.158 551.781 L
1099.205 549.877 L
1103.116 551.198 L
1107.568 551.991 L
1111.614 552.371 L
1115.796 551.584 L
1119.977 541.88 L
1123.889 542.533 L
1128.205 544.927 L
1132.251 547.995 L
1136.163 545.487 L
1140.614 540.319 L
1144.391 535.328 L
1148.438 531.637 L
1152.619 531.353 L
1156.801 529.367 L
1160.712 527.672 L
1165.029 498.457 L
1169.21 513.736 L
1172.987 523.417 L
1177.438 529.362 L
1181.484 534.588 L
1185.666 524.557 L
1189.847 516.5 L
1193.624 518.184 L
1197.536 497.168 L
1201.852 480.882 L
1206.033 483.475 L
1209.81 480.149 L
1214.261 481.704 L
1218.308 463.847 L
1222.489 475.676 L
1226.671 490.973 L
1230.583 498.611 L
1234.899 505.338 L
1239.08 499.99 L
1242.857 503.146 L
1247.038 492.537 L
1251.085 468.819 L
1255.132 481.568 L
1259.313 484.503 L
1263.494 480.289 L
1267.406 471.754 L
1271.722 460.523 L
1275.904 478.247 L
1279.681 470.638 L
1284.132 483.327 L
1288.178 482.351 L
1291.955 487.919 L
1296.406 489.369 L
1300.453 490.158 L
1304.23 479.797 L
1308.681 482.877 L
1312.727 483.091 L
1317.044 488.256 L
1321.09 491.634 L
1325.002 498.03 L
1329.318 511.766 L
1333.5 524.709 L
1337.681 502.246 L
1341.458 498.089 L
1345.639 497.415 L
1349.551 496.898 L
1353.867 497.549 L
1357.914 504.488 L
1361.825 498.984 L
1366.277 504.027 L
1370.323 500.495 L
1374.505 493.46 L
1378.551 494.503 L
1382.598 481.629 L
1386.914 474.839 L
1390.691 471.488 L
1394.872 469.533 L
1398.649 466.854 L
1403.1 460.661 L
1407.147 450.033 L
1411.328 453.211 L
1415.51 459.03 L
1419.421 455.99 L
1423.738 435.899 L
1427.784 444.29 L
1431.696 431.319 L
1436.147 441.639 L
1439.924 429.625 L
1443.97 431.699 L
1448.152 424.058 L
1452.333 434.943 L
1456.245 446.013 L
1460.561 436.743 L
1464.743 427.086 L
1468.519 418.367 L
1472.97 365.056 L
1477.017 379.265 L
1481.198 378.37 L
1485.38 340.544 L
1489.292 285.542 L
1493.473 289.911 L
1497.52 352.158 L
1501.566 370.845 L
1505.747 385.933 L
1509.929 356.768 L
1513.841 331.505 L
1518.157 307.983 L
1522.338 284.407 L
1526.115 284.15 L
1530.566 293.19 L
1534.613 284.43 L
1538.39 248.756 L
1542.706 247.869 L
1546.752 224.212 L
1550.664 254.269 L
1554.98 238.086 L
1559.162 211.606 L
1563.343 174.904 L
1567.39 154.889 L
1571.436 188.926 L
1575.618 263.59 L
1579.799 217.412 L
1583.711 211.141 L
1587.488 221.848 L
1591.939 223.836 L
1595.985 239.82 L
1599.762 237.371 L
1604.213 213.828 L
1608.26 235.317 L
1612.576 275.565 L
1616.623 303.326 L
1620.534 345.769 L
1624.851 338.828 L
1629.032 354.471 L
1633.214 335.191 L
1636.99 360.581 L
1641.172 348.835 L
1645.083 362.714 L
1649.4 341.573 L
1653.446 335.539 L
1657.358 300.038 L
1661.809 294.505 L
1665.856 315.509 L
1670.037 304.084 L
1674.084 311.145 L
1678.13 302.121 L
1682.447 309.516 L
1686.358 293.558 L
1690.405 274.951 L
1694.586 261.542 L
1698.768 214.917 L
1702.679 219.615 L
1706.996 259.004 L
1711.177 267.282 L
1714.954 282.041 L
1719.405 309.707 L
1723.452 312.508 L
1727.633 309.69 L
1731.814 329.598 L
1735.591 295.461 L
1739.503 304.004 L
1743.819 311.178 L
1748 361.266 L
1751.777 361.124 L
1756.229 346.412 L
1760.275 360.016 L
1764.457 356.233 L
1768.638 369.444 L
1772.55 386.014 L
1776.866 413.796 L
1781.047 408.277 L
1784.824 457.319 L
1789.005 489.588 L
1793.052 486.968 L
1797.099 454.214 L
1801.28 479.238 L
1805.461 475.301 L
1809.373 496.19 L
1813.689 471.243 L
1817.871 480.66 L
1821.648 488.67 L
1826.099 487.152 L
1830.145 491.834 L
1833.922 495.074 L
1838.239 482.601 L
1842.285 450.917 L
1846.197 442.346 L
1850.513 444.659 L
1854.694 433.138 L
1858.876 420.771 L
1862.922 392.9 L
1866.969 423.251 L
1871.15 419.326 L
1875.332 424.368 L
1879.243 445.389 L
1883.425 450.968 L
1887.606 432.747 L
1891.518 418.884 L
1895.834 409.405 L
1899.881 426.763 L
1903.792 409.126 L
1908.244 410.905 L
1912.29 427.874 L
1916.472 436.68 L
1920.518 422.098 L
1924.565 421.71 L
1928.881 429.844 L
1932.658 415.331 L
1936.839 418.65 L
1940.616 426.479 L
1945.067 443.981 L
1949.114 463.604 L
1953.295 477.168 L
1957.477 458.849 L
1961.388 455.942 L
1965.705 471.463 L
1969.751 476.512 L
1973.663 471.38 L
1978.114 451.137 L
1981.891 446.373 L
1985.937 441.765 L
1990.119 425.466 L
1994.3 443.584 L
1998.212 449.867 L
2002.528 452.272 L
2006.71 427.048 L
2010.486 428.131 L
2014.938 436.695 L
2018.984 454.155 L
2023.166 457.393 L
2027.347 460.832 L
2031.124 461.184 L
2034.901 459.411 L
2039.352 459.422 L
2043.533 456.238 L
2047.31 447.382 L
2051.761 453.681 L
2055.808 464.529 L
2059.989 480.349 L
2064.17 477.425 L
2068.082 478.289 L
2072.398 506.991 L
2076.58 482.72 L
2080.357 484.319 L
2084.673 478.232 L
2088.719 474.204 L
2092.631 484.586 L
2096.948 486.436 L
2101.129 505.866 L
2105.31 503.98 L
2109.357 512.461 L
2113.403 502.508 L
2117.585 498.715 L
2121.631 508.372 L
2125.678 521.178 L
2129.455 535.596 L
2133.906 533.928 L
2137.818 537.782 L
2141.729 536.891 L
2146.18 553.879 L
2150.227 554.748 L
2154.543 570.233 L
2158.59 572.545 L
2162.501 571.272 L
2166.818 555.46 L
2170.999 554.681 L
2175.181 564.194 L
2178.958 538.892 L
2183.139 513.593 L
2187.051 503.912 L
2191.367 499.093 L
2195.413 489.228 L
2199.325 502.486 L
2203.776 500.493 L
2207.823 481.11 L
2212.004 474.964 L
2216.051 474.136 L
2220.097 475.874 L
2224.414 486.665 L
2228.19 500.018 L
2232.372 500.458 L
2236.149 508.56 L
2240.6 539.665 L
2244.646 543.964 L
2248.828 533.653 L
2253.009 540.993 L
2256.921 546.769 L
2261.237 554.098 L
2265.284 564.207 L
2269.195 572.349 L
2273.646 570.525 L
2277.558 547.338 L
2281.47 535.859 L
2285.786 524.062 L
2289.968 517.463 L
2293.744 524.13 L
2298.196 521.8 L
2302.242 513.231 L
2306.424 523.803 L
2310.605 539.447 L
2314.517 553.483 L
2318.833 538.181 L
2323.014 533.958 L
2326.791 531.108 L
2330.973 514.594 L
2335.019 523.345 L
2339.066 525.898 L
2343.247 532.009 L
2347.428 554.501 L
2351.34 538.641 L
2355.656 548.191 L
2359.838 560.797 L
2363.615 563.129 L
2368.066 567.985 L
2372.113 575.181 L
2375.889 570.281 L
2380.206 568.86 L
2384.252 566.64 L
2388.164 572.102 L
2392.48 578.794 L
2396.661 576.815 L
2400.843 595.222 L
2404.889 617.342 L
2408.936 607.455 L
2413.117 606.275 L
2417.299 603.269 L
2421.21 604.161 L
2424.987 577.336 L
2429.438 575.711 L
2433.485 574.694 L
2437.127 561.441 L
2441.713 553.631 L
2445.76 548.494 L
2450.076 543.513 L
2454.122 545.686 L
2458.034 542.794 L
2462.35 537.463 L
2466.532 526.226 L
2470.713 526.875 L
2474.625 534.064 L
2478.806 550.261 L
2482.583 543.749 L
2487.034 540.287 L
2491.081 550.124 L
2495.262 553.967 L
2499.444 562.772 L
2503.355 558.451 L
2507.672 563.23 L
2511.718 576.409 L
2515.63 587.795 L
2520.081 586.255 L
2523.858 593.6 L
2527.904 591.123 L
2532.086 575.261 L
2536.267 572.088 L
2540.179 572.007 L
2544.495 588.704 L
2548.677 594.847 L
2552.453 601.266 L
2556.905 616.816 L
2560.951 592.128 L
2565.133 580.186 L
2569.314 583.245 L
2573.091 588.052 L
2576.867 565.943 L
2581.319 581.802 L
2585.5 584.195 L
2589.277 592.349 L
2593.728 607.285 L
2597.775 623.332 L
2601.956 643.677 L
2606.137 630.762 L
2610.049 618.361 L
2614.365 637.394 L
2618.547 631.525 L
2622.324 645.106 L
2626.505 638.884 L
2630.552 638.552 L
2634.598 663.616 L
2638.78 655.997 L
2642.961 609.285 L
2646.873 611.95 L
2651.189 635.982 L
2655.37 619.718 L
2659.147 619.462 L
2663.598 623.533 L
2667.645 628.515 L
2671.422 636.222 L
2675.873 642.548 L
2679.919 611.454 L
2683.696 605.521 L
2688.147 608.618 L
2692.194 614.469 L
2696.51 630.679 L
2700.557 631.995 L
2704.469 636.17 L
2708.785 622.945 L
2712.966 630.215 L
2717.148 636.354 L
2720.925 627.213 L
2724.971 618.521 L
2729.018 635.31 L
2733.334 644.647 L
2737.38 648.352 L
2741.292 633.428 L
2745.743 644.842 L
2749.79 629.871 L
2753.971 619.358 L
2758.018 621.089 L
2762.064 628.621 L
2766.381 622.359 L
2770.157 621.494 L
2774.339 607.087 L
2778.116 598.173 L
2782.567 595.543 L
2786.613 595.595 L
2790.795 602.801 L
2794.976 613.066 L
2798.888 617.992 L
2803.204 619.547 L
2807.251 626.157 L
2811.162 614.918 L
2815.614 610.241 L
2819.39 621.026 L
2823.437 616.116 L
2827.618 617.874 L
2831.8 606.545 L
2835.711 600.163 L
2840.028 609.821 L
2844.209 618.509 L
2847.986 616.344 L
2852.437 621.277 L
2856.484 638.992 L
2860.665 635.706 L
2864.846 650.55 L
2868.758 653.94 L
2872.94 656.664 L
2876.986 645.297 L
2881.033 631.684 L
2885.214 637.096 L
2889.396 637.328 L
2893.307 643.831 L
2897.624 637.815 L
2901.805 610.792 L
2905.582 665.207 L
2910.033 699.482 L
2914.08 667.766 L
2917.856 662.486 L
2922.173 686.986 L
2926.219 665.598 L
2930.131 648.827 L
2934.447 647.83 L
2938.628 650.413 L
2942.81 655.046 L
2946.856 661.588 L
2950.903 657.975 L
2955.084 668.11 L
2959.266 640.396 L
2963.177 650.656 L
2966.954 650.789 L
2971.406 643.292 L
2975.452 651.691 L
2979.229 666.656 L
2983.68 683.119 L
2987.727 686.128 L
2992.043 709.277 L
2996.089 706.062 L
3000.001 700.88 L
3004.317 692.388 L
3008.499 669.302 L
3012.68 664.562 L
3016.457 665.053 L
3020.638 662.371 L
3024.55 668.95 L
3028.866 681.759 L
3032.913 674.497 L
3036.825 693.211 L
3041.276 721.422 L
3045.322 736.584 L
3049.504 725.447 L
3053.55 729.983 L
3057.597 740.046 L
3061.913 743.81 L
3065.825 736.707 L
3069.871 723.655 L
3074.053 738.03 L
3078.234 756.807 L
3082.146 752.604 L
3086.462 759.633 L
3090.644 757.05 L
3094.42 754.019 L
3098.872 750.569 L
3102.918 755.385 L
3107.1 747.78 L
3111.281 735.888 L
3115.058 741.496 L
3118.834 743.006 L
3123.286 751.319 L
3127.467 728.191 L
3131.244 710.367 L
3135.695 705.528 L
3139.742 696.994 L
3143.923 703.972 L
3148.104 707.259 L
3152.016 697.379 L
3156.333 684.495 L
3160.514 702.072 L
3164.291 703.202 L
3168.472 700.345 L
3172.519 703.567 L
3176.565 712.904 L
3180.747 710.565 L
3184.928 708.697 L
3188.84 719.237 L
3193.156 711.446 L
3197.338 718.562 L
3201.114 727.016 L
3205.565 728.308 L
3209.612 749.567 L
3213.389 734.965 L
3217.705 738.426 L
3221.752 732.928 L
3225.663 728.82 L
3229.98 718.635 L
3234.161 727.098 L
3238.343 725.517 L
3242.389 733.16 L
3246.436 728.447 L
3250.617 725.068 L
3254.798 722.218 L
3258.71 738.329 L
3262.892 746.549 L
3267.073 745.763 L
3270.985 744.178 L
3275.301 743.302 L
3279.347 760.441 L
3283.259 762.074 L
3287.71 756.334 L
3291.757 755.223 L
3295.938 744.195 L
3299.985 718.068 L
3304.031 714.553 L
3308.348 715.497 L
3312.125 719.523 L
3316.306 718.041 L
3320.083 723.391 L
3324.534 727.237 L
3328.58 723.207 L
3332.762 723.572 L
3336.943 732.123 L
3340.855 722.84 L
3345.171 721.158 L
3349.218 718.852 L
3353.129 719.748 L
3357.581 706.354 L
3361.357 698.626 L
3365.269 705.7 L
3369.585 696.725 L
3373.767 701.683 L
3377.678 700.114 L
3381.995 696.065 L
S
GR
GS
[0.375 0 0 0.375 0 0.25] CT
1 GC
N
496 1775 M
3452 1775 L
3452 1094 L
496 1094 L
cp
f
GR
GS
[0.375 0 0 0.375 0 0.25] CT
0.149 GC
2 setlinecap
1 LJ
1.333 LW
N
496 1775 M
3452 1775 L
S
GR
GS
[0.375 0 0 0.375 0 0.25] CT
0.149 GC
2 setlinecap
1 LJ
1.333 LW
N
496 1094 M
3452 1094 L
S
GR
GS
[0.375 0 0 0.375 0 0.25] CT
0.149 GC
2 setlinecap
1 LJ
1.333 LW
N
569.9 1775 M
569.9 1745.44 L
S
GR
GS
[0.375 0 0 0.375 0 0.25] CT
0.149 GC
2 setlinecap
1 LJ
1.333 LW
N
791.6 1775 M
791.6 1745.44 L
S
GR
GS
[0.375 0 0 0.375 0 0.25] CT
0.149 GC
2 setlinecap
1 LJ
1.333 LW
N
1087.2 1775 M
1087.2 1745.44 L
S
GR
GS
[0.375 0 0 0.375 0 0.25] CT
0.149 GC
2 setlinecap
1 LJ
1.333 LW
N
1382.8 1775 M
1382.8 1745.44 L
S
GR
GS
[0.375 0 0 0.375 0 0.25] CT
0.149 GC
2 setlinecap
1 LJ
1.333 LW
N
1678.4 1775 M
1678.4 1745.44 L
S
GR
GS
[0.375 0 0 0.375 0 0.25] CT
0.149 GC
2 setlinecap
1 LJ
1.333 LW
N
1974 1775 M
1974 1745.44 L
S
GR
GS
[0.375 0 0 0.375 0 0.25] CT
0.149 GC
2 setlinecap
1 LJ
1.333 LW
N
2269.6 1775 M
2269.6 1745.44 L
S
GR
GS
[0.375 0 0 0.375 0 0.25] CT
0.149 GC
2 setlinecap
1 LJ
1.333 LW
N
2565.2 1775 M
2565.2 1745.44 L
S
GR
GS
[0.375 0 0 0.375 0 0.25] CT
0.149 GC
2 setlinecap
1 LJ
1.333 LW
N
2860.8 1775 M
2860.8 1745.44 L
S
GR
GS
[0.375 0 0 0.375 0 0.25] CT
0.149 GC
2 setlinecap
1 LJ
1.333 LW
N
3156.4 1775 M
3156.4 1745.44 L
S
GR
GS
[0.375 0 0 0.375 0 0.25] CT
0.149 GC
2 setlinecap
1 LJ
1.333 LW
N
3452 1775 M
3452 1745.44 L
S
GR
GS
[0.375 0 0 0.375 0 0.25] CT
0.149 GC
2 setlinecap
1 LJ
1.333 LW
N
569.9 1094 M
569.9 1123.56 L
S
GR
GS
[0.375 0 0 0.375 0 0.25] CT
0.149 GC
2 setlinecap
1 LJ
1.333 LW
N
791.6 1094 M
791.6 1123.56 L
S
GR
GS
[0.375 0 0 0.375 0 0.25] CT
0.149 GC
2 setlinecap
1 LJ
1.333 LW
N
1087.2 1094 M
1087.2 1123.56 L
S
GR
GS
[0.375 0 0 0.375 0 0.25] CT
0.149 GC
2 setlinecap
1 LJ
1.333 LW
N
1382.8 1094 M
1382.8 1123.56 L
S
GR
GS
[0.375 0 0 0.375 0 0.25] CT
0.149 GC
2 setlinecap
1 LJ
1.333 LW
N
1678.4 1094 M
1678.4 1123.56 L
S
GR
GS
[0.375 0 0 0.375 0 0.25] CT
0.149 GC
2 setlinecap
1 LJ
1.333 LW
N
1974 1094 M
1974 1123.56 L
S
GR
GS
[0.375 0 0 0.375 0 0.25] CT
0.149 GC
2 setlinecap
1 LJ
1.333 LW
N
2269.6 1094 M
2269.6 1123.56 L
S
GR
GS
[0.375 0 0 0.375 0 0.25] CT
0.149 GC
2 setlinecap
1 LJ
1.333 LW
N
2565.2 1094 M
2565.2 1123.56 L
S
GR
GS
[0.375 0 0 0.375 0 0.25] CT
0.149 GC
2 setlinecap
1 LJ
1.333 LW
N
2860.8 1094 M
2860.8 1123.56 L
S
GR
GS
[0.375 0 0 0.375 0 0.25] CT
0.149 GC
2 setlinecap
1 LJ
1.333 LW
N
3156.4 1094 M
3156.4 1123.56 L
S
GR
GS
[0.375 0 0 0.375 0 0.25] CT
0.149 GC
2 setlinecap
1 LJ
1.333 LW
N
3452 1094 M
3452 1123.56 L
S
GR
GS
[0.375 0 0 0.375 213.71251 671.47501] CT
0.149 GC
/Helvetica 48 F
GS
[1 0 0 1 0 0] CT
-27 49 moveto 
1 -1 scale
(3  ) t 
GR
GR
GS
[0.375 0 0 0.375 296.84999 671.47501] CT
0.149 GC
/Helvetica 48 F
GS
[1 0 0 1 0 0] CT
-33.5 49 moveto 
1 -1 scale
(12 ) t 
GR
GR
GS
[0.375 0 0 0.375 407.69998 671.47501] CT
0.149 GC
/Helvetica 48 F
GS
[1 0 0 1 0 0] CT
-33.5 49 moveto 
1 -1 scale
(24 ) t 
GR
GR
GS
[0.375 0 0 0.375 518.55002 671.47501] CT
0.149 GC
/Helvetica 48 F
GS
[1 0 0 1 0 0] CT
-33.5 49 moveto 
1 -1 scale
(36 ) t 
GR
GR
GS
[0.375 0 0 0.375 629.40001 671.47501] CT
0.149 GC
/Helvetica 48 F
GS
[1 0 0 1 0 0] CT
-33.5 49 moveto 
1 -1 scale
(48 ) t 
GR
GR
GS
[0.375 0 0 0.375 740.25 671.47501] CT
0.149 GC
/Helvetica 48 F
GS
[1 0 0 1 0 0] CT
-33.5 49 moveto 
1 -1 scale
(60 ) t 
GR
GR
GS
[0.375 0 0 0.375 851.10004 671.47501] CT
0.149 GC
/Helvetica 48 F
GS
[1 0 0 1 0 0] CT
-33.5 49 moveto 
1 -1 scale
(72 ) t 
GR
GR
GS
[0.375 0 0 0.375 961.94998 671.47501] CT
0.149 GC
/Helvetica 48 F
GS
[1 0 0 1 0 0] CT
-33.5 49 moveto 
1 -1 scale
(84 ) t 
GR
GR
GS
[0.375 0 0 0.375 1072.80002 671.47501] CT
0.149 GC
/Helvetica 48 F
GS
[1 0 0 1 0 0] CT
-33.5 49 moveto 
1 -1 scale
(96 ) t 
GR
GR
GS
[0.375 0 0 0.375 1183.64996 671.47501] CT
0.149 GC
/Helvetica 48 F
GS
[1 0 0 1 0 0] CT
-40.5 49 moveto 
1 -1 scale
(108) t 
GR
GR
GS
[0.375 0 0 0.375 1294.5 671.47501] CT
0.149 GC
/Helvetica 48 F
GS
[1 0 0 1 0 0] CT
-40.5 49 moveto 
1 -1 scale
(120) t 
GR
GR
GS
[0.375 0 0 0.375 740.25055 694.97499] CT
0.149 GC
/Helvetica 52.8 F
GS
[1 0 0 1 0 0] CT
-205.5 54 moveto 
1 -1 scale
(Maturity \(months\)) t 
GR
GR
GS
[0.375 0 0 0.375 0 0.25] CT
0.149 GC
2 setlinecap
1 LJ
1.333 LW
N
496 1775 M
496 1094 L
S
GR
GS
[0.375 0 0 0.375 0 0.25] CT
0.149 GC
2 setlinecap
1 LJ
1.333 LW
N
3452 1775 M
3452 1094 L
S
GR
GS
[0.375 0 0 0.375 0 0.25] CT
0.149 GC
2 setlinecap
1 LJ
1.333 LW
N
496 1775 M
525.56 1775 L
S
GR
GS
[0.375 0 0 0.375 0 0.25] CT
0.149 GC
2 setlinecap
1 LJ
1.333 LW
N
496 1604.75 M
525.56 1604.75 L
S
GR
GS
[0.375 0 0 0.375 0 0.25] CT
0.149 GC
2 setlinecap
1 LJ
1.333 LW
N
496 1434.5 M
525.56 1434.5 L
S
GR
GS
[0.375 0 0 0.375 0 0.25] CT
0.149 GC
2 setlinecap
1 LJ
1.333 LW
N
496 1264.25 M
525.56 1264.25 L
S
GR
GS
[0.375 0 0 0.375 0 0.25] CT
0.149 GC
2 setlinecap
1 LJ
1.333 LW
N
496 1094 M
525.56 1094 L
S
GR
GS
[0.375 0 0 0.375 0 0.25] CT
0.149 GC
2 setlinecap
1 LJ
1.333 LW
N
3452 1775 M
3422.44 1775 L
S
GR
GS
[0.375 0 0 0.375 0 0.25] CT
0.149 GC
2 setlinecap
1 LJ
1.333 LW
N
3452 1604.75 M
3422.44 1604.75 L
S
GR
GS
[0.375 0 0 0.375 0 0.25] CT
0.149 GC
2 setlinecap
1 LJ
1.333 LW
N
3452 1434.5 M
3422.44 1434.5 L
S
GR
GS
[0.375 0 0 0.375 0 0.25] CT
0.149 GC
2 setlinecap
1 LJ
1.333 LW
N
3452 1264.25 M
3422.44 1264.25 L
S
GR
GS
[0.375 0 0 0.375 0 0.25] CT
0.149 GC
2 setlinecap
1 LJ
1.333 LW
N
3452 1094 M
3422.44 1094 L
S
GR
GS
[0.375 0 0 0.375 180.40001 665.875] CT
0.149 GC
/Helvetica 48 F
GS
[1 0 0 1 0 0] CT
-27 19 moveto 
1 -1 scale
(0) t 
GR
GR
GS
[0.375 0 0 0.375 180.40001 602.03125] CT
0.149 GC
/Helvetica 48 F
GS
[1 0 0 1 0 0] CT
-27 19 moveto 
1 -1 scale
(2) t 
GR
GR
GS
[0.375 0 0 0.375 180.40001 538.1875] CT
0.149 GC
/Helvetica 48 F
GS
[1 0 0 1 0 0] CT
-27 19 moveto 
1 -1 scale
(4) t 
GR
GR
GS
[0.375 0 0 0.375 180.40001 474.34375] CT
0.149 GC
/Helvetica 48 F
GS
[1 0 0 1 0 0] CT
-27 19 moveto 
1 -1 scale
(6) t 
GR
GR
GS
[0.375 0 0 0.375 180.40001 410.5] CT
0.149 GC
/Helvetica 48 F
GS
[1 0 0 1 0 0] CT
-27 19 moveto 
1 -1 scale
(8) t 
GR
GR
GS
[0 -0.375 0.375 0 167.27501 538.18736] CT
0.149 GC
/Helvetica 52.8 F
GS
[1 0 0 1 0 0] CT
-119 -12 moveto 
1 -1 scale
(Yield \(pct\)) t 
GR
GR
GS
[0.375 0 0 0.375 740.25069 408.64377] CT
/Helvetica-Bold 52.8 F
GS
[1 0 0 1 0 0] CT
-343.5 -12 moveto 
1 -1 scale
(Yield curve on 30-Nov-1971) t 
GR
GR
GS
[0.375 0 0 0.375 0 0.25] CT
0 0.447 0.741 RC
1 LJ
5.333 LW
N
569.9 1408.979 M
791.6 1378.833 L
1087.2 1344.128 L
1382.8 1318.325 L
1678.4 1299.936 L
1974 1286.835 L
2269.6 1277.329 L
2565.2 1270.254 L
2860.8 1264.841 L
3156.4 1260.593 L
3452 1257.179 L
S
GR
GS
[0.375 0 0 0.375 213.71251 528.61708] CT
0 0.447 0.741 RC
10.0 ML
5.333 LW
N
0 -8 M
0 8 L
-8 0 M
8 0 L
-5.657 -5.657 M
5.657 5.657 L
-5.657 5.657 M
5.657 -5.657 L
S
GR
GS
[0.375 0 0 0.375 296.84999 517.31229] CT
0 0.447 0.741 RC
10.0 ML
5.333 LW
N
0 -8 M
0 8 L
-8 0 M
8 0 L
-5.657 -5.657 M
5.657 5.657 L
-5.657 5.657 M
5.657 -5.657 L
S
GR
GS
[0.375 0 0 0.375 407.69998 504.29784] CT
0 0.447 0.741 RC
10.0 ML
5.333 LW
N
0 -8 M
0 8 L
-8 0 M
8 0 L
-5.657 -5.657 M
5.657 5.657 L
-5.657 5.657 M
5.657 -5.657 L
S
GR
GS
[0.375 0 0 0.375 518.55002 494.62172] CT
0 0.447 0.741 RC
10.0 ML
5.333 LW
N
0 -8 M
0 8 L
-8 0 M
8 0 L
-5.657 -5.657 M
5.657 5.657 L
-5.657 5.657 M
5.657 -5.657 L
S
GR
GS
[0.375 0 0 0.375 629.40001 487.72601] CT
0 0.447 0.741 RC
10.0 ML
5.333 LW
N
0 -8 M
0 8 L
-8 0 M
8 0 L
-5.657 -5.657 M
5.657 5.657 L
-5.657 5.657 M
5.657 -5.657 L
S
GR
GS
[0.375 0 0 0.375 740.25 482.81302] CT
0 0.447 0.741 RC
10.0 ML
5.333 LW
N
0 -8 M
0 8 L
-8 0 M
8 0 L
-5.657 -5.657 M
5.657 5.657 L
-5.657 5.657 M
5.657 -5.657 L
S
GR
GS
[0.375 0 0 0.375 851.10004 479.24841] CT
0 0.447 0.741 RC
10.0 ML
5.333 LW
N
0 -8 M
0 8 L
-8 0 M
8 0 L
-5.657 -5.657 M
5.657 5.657 L
-5.657 5.657 M
5.657 -5.657 L
S
GR
GS
[0.375 0 0 0.375 961.94998 476.59508] CT
0 0.447 0.741 RC
10.0 ML
5.333 LW
N
0 -8 M
0 8 L
-8 0 M
8 0 L
-5.657 -5.657 M
5.657 5.657 L
-5.657 5.657 M
5.657 -5.657 L
S
GR
GS
[0.375 0 0 0.375 1072.80002 474.5654] CT
0 0.447 0.741 RC
10.0 ML
5.333 LW
N
0 -8 M
0 8 L
-8 0 M
8 0 L
-5.657 -5.657 M
5.657 5.657 L
-5.657 5.657 M
5.657 -5.657 L
S
GR
GS
[0.375 0 0 0.375 1183.64996 472.97224] CT
0 0.447 0.741 RC
10.0 ML
5.333 LW
N
0 -8 M
0 8 L
-8 0 M
8 0 L
-5.657 -5.657 M
5.657 5.657 L
-5.657 5.657 M
5.657 -5.657 L
S
GR
GS
[0.375 0 0 0.375 1294.5 471.69229] CT
0 0.447 0.741 RC
10.0 ML
5.333 LW
N
0 -8 M
0 8 L
-8 0 M
8 0 L
-5.657 -5.657 M
5.657 5.657 L
-5.657 5.657 M
5.657 -5.657 L
S
GR
%%Trailer
%%Pages: 1
%%EOF
