LGTRTRUU Index, DM_Sov
EMUSTRUU Index, EM_Sov
LUACTRUU Index, US_IG
LF98TRUU Index, US_HY
USGG10YR Index, US_10
USGG30YR Index, US_30
BACR0 Index, AU_IG
AUC0 Index, AU_IG2
SPX Index, US_EQ
AS51 Index, AU_EQ
DXY Curncy, USD
AUD Curncy, AUD
ADXY Index, USDASIA
EUR Curncy, EUR